\relax 
\providecommand\zref@newlabel[2]{}
\providecommand\hyper@newdestlabel[2]{}
\citation{Thompson_1998}
\@writefile{toc}{\contentsline {chapter}{\numberline {1}Marco Te\IeC {\'o}rico}{1}{chapter.1}}
\@writefile{lof}{\addvspace {10\p@ }}
\@writefile{lot}{\addvspace {10\p@ }}
\newlabel{sec:marcoteorico}{{1}{1}{Marco Teórico}{chapter.1}{}}
\@writefile{toc}{\contentsline {section}{\numberline {1.1}Sistema global de posicionamiento satelital - GNSS}{1}{section.1.1}}
\@writefile{toc}{\contentsline {subsection}{\numberline {1.1.1}El funcionamiento GPS}{1}{subsection.1.1.1}}
\@writefile{toc}{\contentsline {section}{\numberline {1.2}Modelos observacionales y t\IeC {\'e}cnicas de posicionamiento}{2}{section.1.2}}
\@writefile{toc}{\contentsline {subsection}{\numberline {1.2.1}Posicionamiento Aut\IeC {\'o}nomo }{2}{subsection.1.2.1}}
\newlabel{eq:Ec1}{{1.1}{3}{Posicionamiento Autónomo}{equation.1.2.1}{}}
\newlabel{eq:Ec2}{{1.2}{3}{Posicionamiento Autónomo}{equation.1.2.2}{}}
\citation{el1994effect}
\citation{blewitt1997basics}
\citation{el1994effect}
\citation{blewitt1997basics}
\@writefile{toc}{\contentsline {subsection}{\numberline {1.2.2}Posicionamiento Relativo }{4}{subsection.1.2.2}}
\citation{van2008gps}
\@writefile{lof}{\contentsline {figure}{\numberline {1.1}{\ignorespaces Figura \ref  {fig:SingleDifferencing} Diferenciamiento sencillo.\relax }}{5}{figure.caption.3}}
\providecommand*\caption@xref[2]{\@setref\relax\@undefined{#1}}
\newlabel{fig:SingleDifferencing}{{1.1}{5}{Figura \ref {fig:SingleDifferencing} Diferenciamiento sencillo.\relax }{figure.caption.3}{}}
\newlabel{eq:Ec3}{{1.3}{5}{Posicionamiento Relativo}{equation.1.2.3}{}}
\newlabel{eq:Ec4}{{1.4}{5}{Posicionamiento Relativo}{equation.1.2.4}{}}
\@writefile{lof}{\contentsline {figure}{\numberline {1.2}{\ignorespaces Figura \ref  {fig:DoubleDifferencing} Doble diferenciamiento.\relax }}{6}{figure.caption.4}}
\newlabel{fig:DoubleDifferencing}{{1.2}{6}{Figura \ref {fig:DoubleDifferencing} Doble diferenciamiento.\relax }{figure.caption.4}{}}
\newlabel{eq:Ec5}{{1.5}{6}{Posicionamiento Relativo}{equation.1.2.5}{}}
\@setckpt{Capitulos/Contexto}{
\setcounter{page}{7}
\setcounter{equation}{5}
\setcounter{enumi}{0}
\setcounter{enumii}{0}
\setcounter{enumiii}{0}
\setcounter{enumiv}{0}
\setcounter{footnote}{2}
\setcounter{mpfootnote}{0}
\setcounter{part}{0}
\setcounter{chapter}{1}
\setcounter{section}{2}
\setcounter{subsection}{2}
\setcounter{subsubsection}{0}
\setcounter{paragraph}{0}
\setcounter{subparagraph}{0}
\setcounter{figure}{2}
\setcounter{table}{0}
\setcounter{subfigure}{0}
\setcounter{lofdepth}{1}
\setcounter{subtable}{0}
\setcounter{lotdepth}{1}
\setcounter{parentequation}{0}
\setcounter{FancyVerbLine}{0}
\setcounter{LT@tables}{0}
\setcounter{LT@chunks}{0}
\setcounter{lstnumber}{1}
\setcounter{tcbbreakpart}{0}
\setcounter{tcblayer}{0}
\setcounter{anything}{0}
\setcounter{mdf@globalstyle@cnt}{1}
\setcounter{mdfcountframes}{0}
\setcounter{mdf@env@i}{0}
\setcounter{mdf@env@ii}{0}
\setcounter{mdf@zref@counter}{0}
\setcounter{ContinuedFloat}{0}
\setcounter{Item}{0}
\setcounter{Hfootnote}{2}
\setcounter{bookmark@seq@number}{6}
\setcounter{lstlisting}{0}
\setcounter{section@level}{2}
}
