%!PS-Adobe-2.0 EPSF-1.2
%%BoundingBox: 150 42 360 170
%%HiResBoundingBox: 150 42 360 170
%%Creator: (Mathematica 4.0 for X)
%%CreationDate: (Wednesday, May 4, 2005) (12:32:51)
%%Title: Clipboard
%%DocumentNeededResources: font Courier
%%DocumentSuppliedResources:
%%DocumentNeededFonts: Courier
%%DocumentSuppliedFonts:
%%DocumentFonts: Courier
%%EndComments
/MISOfy
{
    /newfontname exch def
    /oldfontname exch def

    oldfontname findfont
    dup length dict begin
        {1 index /FID ne {def} {pop pop} ifelse} forall
        /Encoding ISOLatin1Encoding def
        currentdict
    end

    newfontname exch definefont pop
} def

0 17 translate 1 -1 scale
0.000 0.000 0.000 setrgbcolor
gsave
150 dict begin
/Mfixwid true def
/Mrot 0 def
/Mpstart {
    MathPictureStart
} bind def
/Mpend {
    MathPictureEnd
} bind def
/Mscale {
    0 1 0 1
    5 -1 roll
    MathScale
} bind def
/Plain	/Courier findfont def
/Bold	/Courier-Bold findfont def
/Italic /Courier-Oblique findfont def
/MathPictureStart {
	/Mimatrix
	 matrix currentmatrix
	def
	gsave
	newpath
	Mleft
	Mbottom
	translate
	/Mtmatrix
	matrix currentmatrix
	def
	Plain
	Mfontsize scalefont
	setfont
	0 setgray
	0 setlinewidth
} bind def
/MathPictureEnd {
	grestore
} bind def
/MathSubStart {
 	     Momatrix
        Mgmatrix Mtmatrix
        Mleft Mbottom
        Mwidth Mheight
        9 -2 roll
        moveto
        Mtmatrix setmatrix
        currentpoint
        Mgmatrix setmatrix
        11 -2 roll
        moveto
        Mtmatrix setmatrix
        currentpoint
        2 copy translate
        /Mtmatrix matrix currentmatrix def
        /Mleft 0 def
        /Mbottom 0 def
        3 -1 roll
        exch sub
        /Mheight exch def
        sub
        /Mwidth exch def
} bind def
/MathSubEnd {
        /Mheight exch def
        /Mwidth exch def
        /Mbottom exch def
        /Mleft exch def
        /Mtmatrix exch def
        dup setmatrix
        /Mgmatrix exch def
	      /Momatrix exch def
} bind def
/Mdot {
	moveto
	0 0 rlineto
	stroke
} bind def
/Mtetra {
	moveto
	lineto
	lineto
	lineto
	fill
} bind def
/Metetra {
	moveto
	lineto
	lineto
	lineto
	closepath
	gsave
	fill
	grestore
	0 setgray
	stroke
} bind def
/Mistroke {
	flattenpath
	0 0 0
	{
	4 2 roll
	pop pop
	}
	{
	4 -1 roll
	2 index
	sub dup mul
	4 -1 roll
	2 index
	sub dup mul
	add sqrt
	4 -1 roll
	add
	3 1 roll
	}
	{
	stop
	}
	{
	stop
	}
	pathforall
	pop pop
	currentpoint
	stroke
	moveto
	currentdash
	3 -1 roll
	add
	setdash
} bind def
/Mfstroke {
	stroke
	currentdash
	pop 0
	setdash
} bind def
/Mrotsboxa {
	gsave
	dup
	/Mrot
	exch def
	Mrotcheck
	Mtmatrix
	dup
	setmatrix
	7 1 roll
	4 index
	4 index
	translate
	rotate
	3 index
	-1 mul
	3 index
	-1 mul
	translate
	/Mtmatrix
	matrix
	currentmatrix
	def
	grestore
	Msboxa
	3  -1 roll
	/Mtmatrix
	exch def
	/Mrot
	0 def
} bind def
/Msboxa {
	newpath
	5 -1 roll
	Mvboxa
	pop
	Mboxout
	6 -1 roll
	5 -1 roll
	4 -1 roll
	Msboxa1
	5 -3 roll
	Msboxa1
	Mboxrot
	[
	7 -2 roll
	2 copy
	[
	3 1 roll
	10 -1 roll
	9 -1 roll
	]
	6 1 roll
	5 -2 roll
	]
} bind def
/Msboxa1 {
	sub
	2 div
	dup
	2 index
	1 add
	mul
	3 -1 roll
	-1 add
	3 -1 roll
	mul
} bind def
/Mvboxa	{
	Mfixwid
	{
	Mvboxa1
	}
	{
	dup
	Mwidthcal
	0 exch
	{
	add
	}
	forall
	exch
	Mvboxa1
	4 index
	7 -1 roll
	add
	4 -1 roll
	pop
	3 1 roll
	}
	ifelse
} bind def
/Mvboxa1 {
	gsave
	newpath
	[ true
	3 -1 roll
	{
	Mbbox
	5 -1 roll
	{
	0
	5 1 roll
	}
	{
	7 -1 roll
	exch sub
	(m) stringwidth pop
	.3 mul
	sub
	7 1 roll
	6 -1 roll
	4 -1 roll
	Mmin
	3 -1 roll
	5 index
	add
	5 -1 roll
	4 -1 roll
	Mmax
	4 -1 roll
	}
	ifelse
	false
	}
	forall
	{ stop } if
	counttomark
	1 add
	4 roll
	]
	grestore
} bind def
/Mbbox {
	0 0 moveto
	false charpath
	flattenpath
	pathbbox
	newpath
} bind def
/Mmin {
	2 copy
	gt
	{ exch } if
	pop
} bind def
/Mmax {
	2 copy
	lt
	{ exch } if
	pop
} bind def
/Mrotshowa {
	dup
	/Mrot
	exch def
	Mrotcheck
	Mtmatrix
	dup
	setmatrix
	7 1 roll
	4 index
	4 index
	translate
	rotate
	3 index
	-1 mul
	3 index
	-1 mul
	translate
	/Mtmatrix
	matrix
	currentmatrix
	def
	Mgmatrix setmatrix
	Mshowa
	/Mtmatrix
	exch def
	/Mrot 0 def
} bind def
/Mshowa {
	4 -2 roll
	moveto
	2 index
	Mtmatrix setmatrix
	Mvboxa
	7 1 roll
	Mboxout
	6 -1 roll
	5 -1 roll
	4 -1 roll
	Mshowa1
	4 1 roll
	Mshowa1
	rmoveto
	currentpoint
	Mfixwid
	{
	Mshowax
	}
	{
	Mshoway
	}
	ifelse
	pop pop pop pop
	Mgmatrix setmatrix
} bind def
/Mshowax {
	0 1
        4 index length
        -1 add
        {
        2 index
        4 index
        2 index
        get
        3 index
        add
        moveto
        4 index
        exch get
        show
        } for
} bind def
/Mshoway {
        3 index
        Mwidthcal
        5 1 roll
	0 1
	4 index length
	-1 add
	{
	2 index
	4 index
	2 index
	get
	3 index
	add
	moveto
	4 index
	exch get
	[
	6 index
	aload
	length
	2 add
	-1 roll
	{
	pop
	Strform
	stringwidth
	pop
	neg
	exch
	add
	0 rmoveto
	}
	exch
	kshow
	cleartomark
	} for
	pop
} bind def
/Mwidthcal {
	[
	exch
	{
	Mwidthcal1
	}
	forall
	]
	[
	exch
	dup
	Maxlen
	-1 add
	0 1
	3 -1 roll
	{
	[
	exch
	2 index
	{
	1 index
	Mget
	exch
	}
	forall
	pop
	Maxget
	exch
	}
	for
	pop
	]
	Mreva
} bind def
/Mreva	{
	[
	exch
	aload
	length
	-1 1
	{1 roll}
	for
	]
} bind def
/Mget	{
	1 index
	length
	-1 add
	1 index
	ge
	{
	get
	}
	{
	pop pop
	0
	}
	ifelse
} bind def
/Maxlen	{
	[
	exch
	{
	length
	}
	forall
	Maxget
} bind def
/Maxget	{
	counttomark
	-1 add
	1 1
	3 -1 roll
	{
	pop
	Mmax
	}
	for
	exch
	pop
} bind def
/Mwidthcal1 {
	[
	exch
	{
	Strform
	stringwidth
	pop
	}
	forall
	]
} bind def
/Strform {
	/tem (x) def
	tem 0
	3 -1 roll
	put
	tem
} bind def
/Mshowa1 {
	2 copy
	add
	4 1 roll
	sub
	mul
	sub
	-2 div
} bind def
/MathScale {
	Mwidth
	Mheight
	Mlp
	translate
	scale
	/yscale exch def
	/ybias exch def
	/xscale exch def
	/xbias exch def
	/Momatrix
	xscale yscale matrix scale
	xbias ybias matrix translate
	matrix concatmatrix def
	/Mgmatrix
	matrix currentmatrix
	def
} bind def
/Mlp {
	3 copy
	Mlpfirst
	{
	Mnodistort
	{
	Mmin
	dup
	} if
	4 index
	2 index
	2 index
	Mlprun
	11 index
	11 -1 roll
	10 -4 roll
	Mlp1
	8 index
	9 -5 roll
	Mlp1
	4 -1 roll
	and
	{ exit } if
	3 -1 roll
	pop pop
	} loop
	exch
	3 1 roll
	7 -3 roll
	pop pop pop
} bind def
/Mlpfirst {
	3 -1 roll
	dup length
	2 copy
	-2 add
	get
	aload
	pop pop pop
	4 -2 roll
	-1 add
	get
	aload
	pop pop pop
	6 -1 roll
	3 -1 roll
	5 -1 roll
	sub
	dup /MsaveAx exch def
	div
	4 1 roll
	exch sub
	dup /MsaveAy exch def
	div
} bind def
/Mlprun {
	2 copy
	4 index
	0 get
	dup
	4 1 roll
	Mlprun1
	3 copy
	8 -2 roll
	9 -1 roll
	{
	3 copy
	Mlprun1
	3 copy
	11 -3 roll
	/gt Mlpminmax
	8 3 roll
	11 -3 roll
	/lt Mlpminmax
	8 3 roll
	} forall
	pop pop pop pop
	3 1 roll
	pop pop
	aload pop
	5 -1 roll
	aload pop
	exch
	6 -1 roll
	Mlprun2
	8 2 roll
	4 -1 roll
	Mlprun2
	6 2 roll
	3 -1 roll
	Mlprun2
	4 2 roll
	exch
	Mlprun2
	6 2 roll
} bind def
/Mlprun1 {
	aload pop
	exch
	6 -1 roll
	5 -1 roll
	mul add
	4 -2 roll
	mul
	3 -1 roll
	add
} bind def
/Mlprun2 {
	2 copy
	add 2 div
	3 1 roll
	exch sub
} bind def
/Mlpminmax {
	cvx
	2 index
	6 index
	2 index
	exec
	{
	7 -3 roll
	4 -1 roll
	} if
	1 index
	5 index
	3 -1 roll
	exec
	{
	4 1 roll
	pop
	5 -1 roll
	aload
	pop pop
	4 -1 roll
	aload pop
	[
	8 -2 roll
	pop
	5 -2 roll
	pop
	6 -2 roll
	pop
	5 -1 roll
	]
	4 1 roll
	pop
	}
	{
	pop pop pop
	} ifelse
} bind def
/Mlp1 {
	5 index
	3 index	sub
	5 index
	2 index mul
	1 index
	le
	1 index
	0 le
	or
	dup
	not
	{
	1 index
	3 index	div
	.99999 mul
	8 -1 roll
	pop
	7 1 roll
	}
	if
	8 -1 roll
	2 div
	7 -2 roll
	pop sub
	5 index
	6 -3 roll
	pop pop
	mul sub
	exch
} bind def
/intop 0 def
/inrht 0 def
/inflag 0 def
/outflag 0 def
/xadrht 0 def
/xadlft 0 def
/yadtop 0 def
/yadbot 0 def
/Minner {
	outflag
	1
	eq
	{
	/outflag 0 def
	/intop 0 def
	/inrht 0 def
	} if
	5 index
	gsave
	Mtmatrix setmatrix
	Mvboxa pop
	grestore
	3 -1 roll
	pop
	dup
	intop
	gt
	{
	/intop
	exch def
	}
	{ pop }
	ifelse
	dup
	inrht
	gt
	{
	/inrht
	exch def
	}
	{ pop }
	ifelse
	pop
	/inflag
	1 def
} bind def
/Mouter {
	/xadrht 0 def
	/xadlft 0 def
	/yadtop 0 def
	/yadbot 0 def
	inflag
	1 eq
	{
	dup
	0 lt
	{
	dup
	intop
	mul
	neg
	/yadtop
	exch def
	} if
	dup
	0 gt
	{
	dup
	intop
	mul
	/yadbot
	exch def
	}
	if
	pop
	dup
	0 lt
	{
	dup
	inrht
	mul
	neg
	/xadrht
	exch def
	} if
	dup
	0 gt
	{
	dup
	inrht
	mul
	/xadlft
	exch def
	} if
	pop
	/outflag 1 def
	}
	{ pop pop}
	ifelse
	/inflag 0 def
	/inrht 0 def
	/intop 0 def
} bind def
/Mboxout {
	outflag
	1
	eq
	{
	4 -1
	roll
	xadlft
	leadjust
	add
	sub
	4 1 roll
	3 -1
	roll
	yadbot
	leadjust
	add
	sub
	3 1
	roll
	exch
	xadrht
	leadjust
	add
	add
	exch
	yadtop
	leadjust
	add
	add
	/outflag 0 def
	/xadlft 0 def
	/yadbot 0 def
	/xadrht 0 def
	/yadtop 0 def
	} if
} bind def
/leadjust {
	(m) stringwidth pop
	.5 mul
} bind def
/Mrotcheck {
	dup
	90
	eq
	{
	yadbot
	/yadbot
	xadrht
	def
	/xadrht
	yadtop
	def
	/yadtop
	xadlft
	def
	/xadlft
	exch
	def
	}
	if
	dup
	cos
	1 index
	sin
	Checkaux
	dup
	cos
	1 index
	sin neg
	exch
	Checkaux
	3 1 roll
	pop pop
} bind def
/Checkaux {
	4 index
	exch
	4 index
	mul
	3 1 roll
	mul add
	4 1 roll
} bind def
/Mboxrot {
	Mrot
	90 eq
	{
	brotaux
	4 2
	roll
	}
	if
	Mrot
	180 eq
	{
	4 2
        roll
	brotaux
	4 2
	roll
	brotaux
	}
	if
	Mrot
	270 eq
	{
	4 2
	roll
	brotaux
	}
	if
} bind def
/brotaux {
	neg
	exch
	neg
} bind def
/Mabsproc {
        0
        matrix defaultmatrix
        dtransform idtransform
        dup mul exch
        dup mul
        add sqrt
} bind def
/Mabswid {
        Mabsproc
        setlinewidth
} bind def
/Mabsdash {
        exch
        [
        exch
        {
        Mabsproc
        }
        forall
        ]
        exch
        setdash
} bind def
/MBeginOrig { Momatrix concat} bind def
/MEndOrig { Mgmatrix setmatrix} bind def
/sampledsound where
{ pop}
{ /sampledsound {
exch
pop
exch
5 1 roll
mul
4 idiv
mul
2 idiv
exch pop
exch
/Mtempproc exch def
{ Mtempproc pop }
repeat
} bind def
} ifelse
% Here are the short operators
/g { setgray} bind def
/k { setcmykcolor} bind def
/m { moveto} bind def
/p { gsave} bind def
/r { setrgbcolor} bind def
/w { setlinewidth} bind def
/C { curveto} bind def
/F { fill} bind def
/L { lineto} bind def
/P { grestore} bind def
/s { stroke} bind def

/MFill {
	0 0 		moveto
	Mwidth 0 	lineto
	Mwidth Mheight 	lineto
	0 Mheight 	lineto
	fill
} bind def

/MPlotRegion {
	3 index
	Mwidth mul
	2 index
	Mheight mul
	translate
	exch sub
	Mheight mul
	/Mheight
	exch def
	exch sub
	Mwidth mul
	/Mwidth
	exch def
} bind def

/Mcharproc
{
  	currentfile
  	(x)
  	readhexstring
  	pop
  	0 get
  	exch
 	div
} bind def

/Mshadeproc
{
	dup
	3 1
	roll
	{
	dup
	Mcharproc
	3 1
	roll
	} repeat
	1 eq
	{
	setgray
	}
	{
	3 eq
	{
	setrgbcolor
	}
	{
	setcmykcolor
	} ifelse
	} ifelse
} bind def

/Mrectproc
{
	3 index
	2 index
	moveto
	2 index
	3 -1
	roll
	lineto
	dup
	3 1
	roll
	lineto
	lineto
	fill
} bind def

/_Mcolorimage
{
	7 1
	roll
	pop
	pop
	matrix
	invertmatrix
	concat
	2 exch exp
	1 sub
	3 1 roll
	1 1
	2 index
	{
	1 1
	4 index
	{
	dup
	1 sub
	exch
	2 index
	dup
	1 sub
	exch
	7 index
	9 index
	Mshadeproc
	Mrectproc
	} for
	pop
	} for
	pop pop pop pop
} bind def

/_Mimage
{
	pop
	matrix
	invertmatrix
	concat
	2 exch exp
	1 sub
	3 1 roll
	1 1
	2 index
	{
	1 1
	4 index
	{
	dup
	1 sub 
	exch
	2 index
	dup
	1 sub
	exch
	7 index
	Mcharproc
	setgray
	Mrectproc
	} for
	pop
	} for
	pop pop pop
} bind def

/Mimage {
	4 index
	4 index
	mul 1600 gt
	{ image }
	{ _Mimage }
	ifelse
} def

/Mcolorimage {
	6 index
	6 index
	mul 1600 gt
	{ colorimage }
	{ _Mcolorimage }
	ifelse
} def
/Mnodistort true def
1.000000 1.000000 scale
153.000000 9.000000 translate
1.000000 -1.000000 scale
-0.000000 -0.000000 translate
/Mleft		0.000000 def
/Mbottom	0.000000 def
/Mwidth		200.0000 def
/Mheight	200.0000 def
0 setgray
0 setlinewidth
/Courier findfont 12 scalefont setfont
/Mfontsize 12 def
/Plain /Courier findfont def

%!
%%Creator: Mathematica
%%AspectRatio: .61803 
MathPictureStart
/Mabs {
Mgmatrix idtransform
Mtmatrix dtransform
} bind def
/Mabsadd { Mabs
3 -1 roll add
3 1 roll add
exch } bind def
%% Graphics
%%IncludeResource: font Courier
%%IncludeFont: Courier
/Courier findfont 10  scalefont  setfont
% Scaling calculations
0.0238095 0.000930969 0.0498798 0.000540996 [
[.21 .03738 -9 -9 ]
[.21 .03738 9 0 ]
[.3962 .03738 -9 -9 ]
[.3962 .03738 9 0 ]
[.58239 .03738 -9 -9 ]
[.58239 .03738 9 0 ]
[.76858 .03738 -9 -9 ]
[.76858 .03738 9 0 ]
[.95478 .03738 -12 -9 ]
[.95478 .03738 12 0 ]
[.01131 .15808 -18 -4.5 ]
[.01131 .15808 0 4.5 ]
[.01131 .26628 -18 -4.5 ]
[.01131 .26628 0 4.5 ]
[.01131 .37448 -18 -4.5 ]
[.01131 .37448 0 4.5 ]
[.01131 .48268 -18 -4.5 ]
[.01131 .48268 0 4.5 ]
[.01131 .59088 -24 -4.5 ]
[.01131 .59088 0 4.5 ]
[ 0 0 0 0 ]
[ 1 .61803 0 0 ]
] MathScale
% Start of Graphics
1 setlinecap
1 setlinejoin
newpath
0 g
.25 Mabswid
[ ] 0 setdash
.21 .04988 m
.21 .05613 L
s
[(-500)] .0238 -0.012 0 1 Mshowa
.3962 .04988 m
.3962 .05613 L
s
[(-300)] .21 -0.012 0 1 Mshowa
.3962 .04988 m
.3962 .05613 L
s
[(-100)] .3962 -0.012 0 1 Mshowa
.58239 .04988 m
.58239 .05613 L
s
[(100)] .58239 -0.012 0 1 Mshowa
.76858 .04988 m
.76858 .05613 L
s
[(300)] .76858 -0.012 0 1 Mshowa
.95478 .04988 m
.95478 .05613 L
s
[(500)] .95478 -0.012 0 1 Mshowa
.125 Mabswid
.07036 .04988 m
.07036 .05363 L
s
.11691 .04988 m
.11691 .05363 L
s
.16345 .04988 m
.16345 .05363 L
s
.25655 .04988 m
.25655 .05363 L
s
.3031 .04988 m
.3031 .05363 L
s
.34965 .04988 m
.34965 .05363 L
s
.44275 .04988 m
.44275 .05363 L
s
.48929 .04988 m
.48929 .05363 L
s
.53584 .04988 m
.53584 .05363 L
s
.62894 .04988 m
.62894 .05363 L
s
.67549 .04988 m
.67549 .05363 L
s
.72204 .04988 m
.72204 .05363 L
s
.81513 .04988 m
.81513 .05363 L
s
.86168 .04988 m
.86168 .05363 L
s
.90823 .04988 m
.90823 .05363 L
s
.25 Mabswid
0 .04988 m
1 .04988 L
s
.02381 .15808 m
.03006 .15808 L
s
[(200)] .01131 .15808 1 0 Mshowa
.02381 .26628 m
.03006 .26628 L
s
[(400)] .01131 .26628 1 0 Mshowa
.02381 .37448 m
.03006 .37448 L
s
[(600)] .01131 .37448 1 0 Mshowa
.02381 .48268 m
.03006 .48268 L
s
[(800)] .01131 .48268 1 0 Mshowa
.02381 .59088 m
.03006 .59088 L
s
[(1000)] .01131 .59088 1 0 Mshowa
.125 Mabswid
.02381 .07693 m
.02756 .07693 L
s
.02381 .10398 m
.02756 .10398 L
s
.02381 .13103 m
.02756 .13103 L
s
.02381 .18513 m
.02756 .18513 L
s
.02381 .21218 m
.02756 .21218 L
s
.02381 .23923 m
.02756 .23923 L
s
.02381 .29333 m
.02756 .29333 L
s
.02381 .32038 m
.02756 .32038 L
s
.02381 .34743 m
.02756 .34743 L
s
.02381 .40153 m
.02756 .40153 L
s
.02381 .42858 m
.02756 .42858 L
s
.02381 .45563 m
.02756 .45563 L
s
.02381 .50973 m
.02756 .50973 L
s
.02381 .53678 m
.02756 .53678 L
s
.02381 .56383 m
.02756 .56383 L
s
.02381 .02283 m
.02756 .02283 L
s
.02381 .61793 m
.02756 .61793 L
s
.25 Mabswid
.02381 0 m
.02381 .61803 L
s
0 0 m
1 0 L
1 .61803 L
0 .61803 L
closepath
clip
newpath
.5 Mabswid
.02474 .01472 m
.02567 .01472 L
.0266 .04934 L
.02753 .04934 L
.02846 .08396 L
.0294 .04934 L
.03033 .04934 L
.03126 .08396 L
.03219 .04934 L
.03312 .04934 L
.03405 .04934 L
.03498 .04934 L
.03591 .08396 L
.03684 .04934 L
.03777 .04934 L
.03871 .08396 L
.03964 .01472 L
.04057 .04934 L
.0415 .04934 L
.04243 .04934 L
.04336 .01472 L
.04429 .04934 L
.04522 .08396 L
.04615 .04934 L
.04708 .01472 L
.04801 .04934 L
.04895 .01472 L
.04988 .08396 L
.05081 .04934 L
.05174 .04934 L
.05267 .04934 L
.0536 .04934 L
.05453 .04934 L
.05546 .04934 L
.05639 .01472 L
.05732 .04934 L
.05826 .04934 L
.05919 .04934 L
.06012 .08396 L
.06105 .01472 L
.06198 .04934 L
.06291 .08396 L
.06384 .04934 L
.06477 .01472 L
.0657 .04934 L
.06663 .04934 L
.06757 .04934 L
.0685 .04934 L
.06943 .08396 L
.07036 .01472 L
Mistroke
.07129 .01472 L
.07222 .04934 L
.07315 .04934 L
.07408 .04934 L
.07501 .04934 L
.07594 .04934 L
.07687 .04934 L
.07781 .04934 L
.07874 .04934 L
.07967 .04934 L
.0806 .01472 L
.08153 .04934 L
.08246 .08396 L
.08339 .04934 L
.08432 .04934 L
.08525 .04934 L
.08618 .01472 L
.08712 .08396 L
.08805 .04934 L
.08898 .04934 L
.08991 .04934 L
.09084 .04934 L
.09177 .04934 L
.0927 .04934 L
.09363 .04934 L
.09456 .04934 L
.09549 .08396 L
.09643 .04934 L
.09736 .04934 L
.09829 .04934 L
.09922 .08396 L
.10015 .04934 L
.10108 .04934 L
.10201 .04934 L
.10294 .04934 L
.10387 .04934 L
.1048 .08396 L
.10573 .01472 L
.10667 .04934 L
.1076 .04934 L
.10853 .04934 L
.10946 .04934 L
.11039 .01472 L
.11132 .04934 L
.11225 .04934 L
.11318 .04934 L
.11411 .04934 L
.11504 .01472 L
.11598 .01472 L
.11691 .04934 L
Mistroke
.11784 .04934 L
.11877 .01472 L
.1197 .04934 L
.12063 .04934 L
.12156 .04934 L
.12249 .04934 L
.12342 .08396 L
.12435 .01472 L
.12529 .01472 L
.12622 .08396 L
.12715 .04934 L
.12808 .04934 L
.12901 .04934 L
.12994 .04934 L
.13087 .04934 L
.1318 .04934 L
.13273 .04934 L
.13366 .04934 L
.13459 .04934 L
.13553 .08396 L
.13646 .04934 L
.13739 .04934 L
.13832 .04934 L
.13925 .04934 L
.14018 .08396 L
.14111 .04934 L
.14204 .04934 L
.14297 .04934 L
.1439 .04934 L
.14484 .08396 L
.14577 .04934 L
.1467 .04934 L
.14763 .01472 L
.14856 .04934 L
.14949 .04934 L
.15042 .08396 L
.15135 .01472 L
.15228 .04934 L
.15321 .04934 L
.15415 .04934 L
.15508 .04934 L
.15601 .04934 L
.15694 .08396 L
.15787 .04934 L
.1588 .04934 L
.15973 .04934 L
.16066 .04934 L
.16159 .08396 L
.16252 .04934 L
.16345 .01472 L
Mistroke
.16439 .01472 L
.16532 .04934 L
.16625 .08396 L
.16718 .04934 L
.16811 .01472 L
.16904 .04934 L
.16997 .04934 L
.1709 .04934 L
.17183 .04934 L
.17276 .04934 L
.1737 .04934 L
.17463 .04934 L
.17556 .04934 L
.17649 .04934 L
.17742 .04934 L
.17835 .01472 L
.17928 .04934 L
.18021 .04934 L
.18114 .04934 L
.18207 .04934 L
.18301 .04934 L
.18394 .04934 L
.18487 .01472 L
.1858 .04934 L
.18673 .04934 L
.18766 .04934 L
.18859 .04934 L
.18952 .04934 L
.19045 .04934 L
.19138 .08396 L
.19231 .01472 L
.19325 .04934 L
.19418 .08396 L
.19511 .04934 L
.19604 .08396 L
.19697 .01472 L
.1979 .04934 L
.19883 .08396 L
.19976 .04934 L
.20069 .04934 L
.20162 .04934 L
.20256 .04934 L
.20349 .08396 L
.20442 .04934 L
.20535 .04934 L
.20628 .04934 L
.20721 .01472 L
.20814 .08396 L
.20907 .01472 L
.21 .01472 L
Mistroke
.21093 .04934 L
.21187 .04934 L
.2128 .04934 L
.21373 .04934 L
.21466 .04934 L
.21559 .04934 L
.21652 .04934 L
.21745 .08396 L
.21838 .01472 L
.21931 .04934 L
.22024 .08396 L
.22117 .04934 L
.22211 .04934 L
.22304 .04934 L
.22397 .04934 L
.2249 .04934 L
.22583 .04934 L
.22676 .04934 L
.22769 .04934 L
.22862 .08396 L
.22955 .08396 L
.23048 .04934 L
.23142 .01472 L
.23235 .04934 L
.23328 .01472 L
.23421 .04934 L
.23514 .04934 L
.23607 .04934 L
.237 .04934 L
.23793 .01472 L
.23886 .04934 L
.23979 .04934 L
.24073 .04934 L
.24166 .04934 L
.24259 .01472 L
.24352 .04934 L
.24445 .04934 L
.24538 .04934 L
.24631 .04934 L
.24724 .04934 L
.24817 .04934 L
.2491 .08396 L
.25003 .04934 L
.25097 .04934 L
.2519 .04934 L
.25283 .08396 L
.25376 .04934 L
.25469 .04934 L
.25562 .04934 L
.25655 .08396 L
Mistroke
.25748 .01472 L
.25841 .04934 L
.25934 .04934 L
.26028 .01472 L
.26121 .04934 L
.26214 .04934 L
.26307 .04934 L
.264 .04934 L
.26493 .08396 L
.26586 .08396 L
.26679 .04934 L
.26772 .04934 L
.26865 .04934 L
.26959 .04934 L
.27052 .04934 L
.27145 .04934 L
.27238 .04934 L
.27331 .08396 L
.27424 .04934 L
.27517 .04934 L
.2761 .04934 L
.27703 .04934 L
.27796 .04934 L
.27889 .04934 L
.27983 .04934 L
.28076 .04934 L
.28169 .04934 L
.28262 .04934 L
.28355 .04934 L
.28448 .04934 L
.28541 .08396 L
.28634 .04934 L
.28727 .04934 L
.2882 .04934 L
.28914 .04934 L
.29007 .04934 L
.291 .01472 L
.29193 .01472 L
.29286 .04934 L
.29379 .04934 L
.29472 .04934 L
.29565 .04934 L
.29658 .01472 L
.29751 .04934 L
.29845 .08396 L
.29938 .01472 L
.30031 .04934 L
.30124 .01472 L
.30217 .04934 L
.3031 .04934 L
Mistroke
.30403 .01472 L
.30496 .01472 L
.30589 .04934 L
.30682 .04934 L
.30775 .08396 L
.30869 .04934 L
.30962 .04934 L
.31055 .04934 L
.31148 .08396 L
.31241 .08396 L
.31334 .01472 L
.31427 .04934 L
.3152 .04934 L
.31613 .04934 L
.31706 .08396 L
.318 .04934 L
.31893 .08396 L
.31986 .08396 L
.32079 .04934 L
.32172 .04934 L
.32265 .04934 L
.32358 .04934 L
.32451 .04934 L
.32544 .01472 L
.32637 .04934 L
.32731 .04934 L
.32824 .04934 L
.32917 .08396 L
.3301 .04934 L
.33103 .04934 L
.33196 .08396 L
.33289 .04934 L
.33382 .04934 L
.33475 .04934 L
.33568 .04934 L
.33661 .01472 L
.33755 .01472 L
.33848 .04934 L
.33941 .04934 L
.34034 .04934 L
.34127 .04934 L
.3422 .04934 L
.34313 .08396 L
.34406 .04934 L
.34499 .01472 L
.34592 .04934 L
.34686 .04934 L
.34779 .04934 L
.34872 .04934 L
.34965 .04934 L
Mistroke
.35058 .01472 L
.35151 .04934 L
.35244 .04934 L
.35337 .04934 L
.3543 .01472 L
.35523 .04934 L
.35617 .08396 L
.3571 .04934 L
.35803 .01472 L
.35896 .01472 L
.35989 .04934 L
.36082 .04934 L
.36175 .04934 L
.36268 .08396 L
.36361 .01472 L
.36454 .04934 L
.36548 .08396 L
.36641 .04934 L
.36734 .01472 L
.36827 .04934 L
.3692 .04934 L
.37013 .04934 L
.37106 .04934 L
.37199 .04934 L
.37292 .04934 L
.37385 .04934 L
.37478 .08396 L
.37572 .08396 L
.37665 .04934 L
.37758 .08396 L
.37851 .04934 L
.37944 .04934 L
.38037 .08396 L
.3813 .04934 L
.38223 .04934 L
.38316 .04934 L
.38409 .04934 L
.38503 .08396 L
.38596 .04934 L
.38689 .04934 L
.38782 .04934 L
.38875 .04934 L
.38968 .08396 L
.39061 .04934 L
.39154 .01472 L
.39247 .04934 L
.3934 .04934 L
.39434 .04934 L
.39527 .08396 L
.3962 .01472 L
Mistroke
.39713 .04934 L
.39806 .04934 L
.39899 .04934 L
.39992 .01472 L
.40085 .04934 L
.40178 .08396 L
.40271 .04934 L
.40364 .01472 L
.40458 .04934 L
.40551 .01472 L
.40644 .04934 L
.40737 .04934 L
.4083 .04934 L
.40923 .04934 L
.41016 .08396 L
.41109 .08396 L
.41202 .04934 L
.41295 .01472 L
.41389 .04934 L
.41482 .04934 L
.41575 .01472 L
.41668 .01472 L
.41761 .04934 L
.41854 .04934 L
.41947 .08396 L
.4204 .04934 L
.42133 .01472 L
.42226 .04934 L
.4232 .04934 L
.42413 .04934 L
.42506 .04934 L
.42599 .04934 L
.42692 .01472 L
.42785 .04934 L
.42878 .04934 L
.42971 .04934 L
.43064 .04934 L
.43157 .04934 L
.4325 .04934 L
.43344 .08396 L
.43437 .08396 L
.4353 .04934 L
.43623 .04934 L
.43716 .04934 L
.43809 .08396 L
.43902 .04934 L
.43995 .04934 L
.44088 .04934 L
.44181 .04934 L
.44275 .04934 L
Mistroke
.44368 .08396 L
.44461 .04934 L
.44554 .04934 L
.44647 .04934 L
.4474 .08396 L
.44833 .08396 L
.44926 .01472 L
.45019 .04934 L
.45112 .04934 L
.45206 .04934 L
.45299 .04934 L
.45392 .04934 L
.45485 .04934 L
.45578 .08396 L
.45671 .04934 L
.45764 .04934 L
.45857 .04934 L
.4595 .04934 L
.46043 .04934 L
.46136 .01472 L
.4623 .04934 L
.46323 .04934 L
.46416 .04934 L
.46509 .04934 L
.46602 .04934 L
.46695 .04934 L
.46788 .08396 L
.46881 .08396 L
.46974 .04934 L
.47067 .04934 L
.47161 .04934 L
.47254 .04934 L
.47347 .01472 L
.4744 .04934 L
.47533 .04934 L
.47626 .01472 L
.47719 .08396 L
.47812 .04934 L
.47905 .04934 L
.47998 .04934 L
.48092 .01472 L
.48185 .04934 L
.48278 .04934 L
.48371 .01472 L
.48464 .04934 L
.48557 .01472 L
.4865 .04934 L
.48743 .04934 L
.48836 .04934 L
.48929 .04934 L
Mistroke
.49022 .01472 L
.49116 .04934 L
.49209 .08396 L
.49302 .04934 L
.49395 .04934 L
.49488 .01472 L
.49581 .04934 L
.49674 .04934 L
.49767 .04934 L
.4986 .08396 L
.49953 .01472 L
.50047 .04934 L
.5014 .60332 L
.50233 .04934 L
.50326 .01472 L
.50419 .08396 L
.50512 .04934 L
.50605 .04934 L
.50698 .04934 L
.50791 .01472 L
.50884 .04934 L
.50978 .04934 L
.51071 .08396 L
.51164 .04934 L
.51257 .01472 L
.5135 .04934 L
.51443 .04934 L
.51536 .04934 L
.51629 .04934 L
.51722 .01472 L
.51815 .04934 L
.51908 .01472 L
.52002 .04934 L
.52095 .04934 L
.52188 .01472 L
.52281 .04934 L
.52374 .04934 L
.52467 .04934 L
.5256 .08396 L
.52653 .01472 L
.52746 .04934 L
.52839 .04934 L
.52933 .01472 L
.53026 .04934 L
.53119 .04934 L
.53212 .04934 L
.53305 .04934 L
.53398 .08396 L
.53491 .08396 L
.53584 .04934 L
Mistroke
.53677 .04934 L
.5377 .04934 L
.53864 .04934 L
.53957 .04934 L
.5405 .04934 L
.54143 .01472 L
.54236 .04934 L
.54329 .04934 L
.54422 .04934 L
.54515 .04934 L
.54608 .04934 L
.54701 .08396 L
.54794 .04934 L
.54888 .04934 L
.54981 .04934 L
.55074 .04934 L
.55167 .04934 L
.5526 .04934 L
.55353 .01472 L
.55446 .08396 L
.55539 .08396 L
.55632 .04934 L
.55725 .04934 L
.55819 .04934 L
.55912 .08396 L
.56005 .04934 L
.56098 .04934 L
.56191 .04934 L
.56284 .04934 L
.56377 .04934 L
.5647 .08396 L
.56563 .04934 L
.56656 .04934 L
.5675 .04934 L
.56843 .08396 L
.56936 .08396 L
.57029 .04934 L
.57122 .04934 L
.57215 .04934 L
.57308 .04934 L
.57401 .04934 L
.57494 .04934 L
.57587 .01472 L
.5768 .04934 L
.57774 .04934 L
.57867 .04934 L
.5796 .04934 L
.58053 .04934 L
.58146 .01472 L
.58239 .04934 L
Mistroke
.58332 .08396 L
.58425 .04934 L
.58518 .04934 L
.58611 .01472 L
.58705 .01472 L
.58798 .04934 L
.58891 .04934 L
.58984 .01472 L
.59077 .04934 L
.5917 .08396 L
.59263 .08396 L
.59356 .04934 L
.59449 .04934 L
.59542 .04934 L
.59636 .04934 L
.59729 .01472 L
.59822 .04934 L
.59915 .01472 L
.60008 .04934 L
.60101 .08396 L
.60194 .04934 L
.60287 .01472 L
.6038 .04934 L
.60473 .04934 L
.60566 .04934 L
.6066 .01472 L
.60753 .08396 L
.60846 .04934 L
.60939 .04934 L
.61032 .04934 L
.61125 .01472 L
.61218 .04934 L
.61311 .08396 L
.61404 .04934 L
.61497 .04934 L
.61591 .04934 L
.61684 .04934 L
.61777 .08396 L
.6187 .04934 L
.61963 .04934 L
.62056 .04934 L
.62149 .04934 L
.62242 .08396 L
.62335 .04934 L
.62428 .04934 L
.62522 .08396 L
.62615 .04934 L
.62708 .08396 L
.62801 .08396 L
.62894 .04934 L
Mistroke
.62987 .04934 L
.6308 .04934 L
.63173 .04934 L
.63266 .04934 L
.63359 .04934 L
.63452 .04934 L
.63546 .01472 L
.63639 .04934 L
.63732 .08396 L
.63825 .04934 L
.63918 .01472 L
.64011 .08396 L
.64104 .04934 L
.64197 .04934 L
.6429 .04934 L
.64383 .01472 L
.64477 .01472 L
.6457 .04934 L
.64663 .08396 L
.64756 .04934 L
.64849 .01472 L
.64942 .04934 L
.65035 .04934 L
.65128 .04934 L
.65221 .01472 L
.65314 .04934 L
.65408 .04934 L
.65501 .04934 L
.65594 .04934 L
.65687 .04934 L
.6578 .01472 L
.65873 .04934 L
.65966 .08396 L
.66059 .04934 L
.66152 .04934 L
.66245 .04934 L
.66339 .04934 L
.66432 .04934 L
.66525 .01472 L
.66618 .01472 L
.66711 .04934 L
.66804 .04934 L
.66897 .04934 L
.6699 .04934 L
.67083 .08396 L
.67176 .04934 L
.67269 .04934 L
.67363 .08396 L
.67456 .04934 L
.67549 .04934 L
Mistroke
.67642 .04934 L
.67735 .01472 L
.67828 .04934 L
.67921 .04934 L
.68014 .04934 L
.68107 .04934 L
.682 .04934 L
.68294 .08396 L
.68387 .08396 L
.6848 .04934 L
.68573 .08396 L
.68666 .04934 L
.68759 .04934 L
.68852 .04934 L
.68945 .01472 L
.69038 .08396 L
.69131 .08396 L
.69225 .04934 L
.69318 .04934 L
.69411 .04934 L
.69504 .08396 L
.69597 .04934 L
.6969 .04934 L
.69783 .01472 L
.69876 .01472 L
.69969 .04934 L
.70062 .04934 L
.70155 .01472 L
.70249 .04934 L
.70342 .01472 L
.70435 .08396 L
.70528 .04934 L
.70621 .01472 L
.70714 .04934 L
.70807 .04934 L
.709 .04934 L
.70993 .04934 L
.71086 .01472 L
.7118 .01472 L
.71273 .04934 L
.71366 .04934 L
.71459 .04934 L
.71552 .04934 L
.71645 .04934 L
.71738 .08396 L
.71831 .04934 L
.71924 .04934 L
.72017 .04934 L
.72111 .04934 L
.72204 .04934 L
Mistroke
.72297 .04934 L
.7239 .04934 L
.72483 .04934 L
.72576 .04934 L
.72669 .04934 L
.72762 .04934 L
.72855 .04934 L
.72948 .08396 L
.73041 .04934 L
.73135 .04934 L
.73228 .04934 L
.73321 .04934 L
.73414 .04934 L
.73507 .04934 L
.736 .04934 L
.73693 .08396 L
.73786 .08396 L
.73879 .04934 L
.73972 .04934 L
.74066 .04934 L
.74159 .04934 L
.74252 .01472 L
.74345 .04934 L
.74438 .04934 L
.74531 .01472 L
.74624 .08396 L
.74717 .04934 L
.7481 .04934 L
.74903 .04934 L
.74997 .08396 L
.7509 .04934 L
.75183 .04934 L
.75276 .04934 L
.75369 .08396 L
.75462 .04934 L
.75555 .04934 L
.75648 .04934 L
.75741 .04934 L
.75834 .04934 L
.75927 .04934 L
.76021 .01472 L
.76114 .04934 L
.76207 .04934 L
.763 .04934 L
.76393 .04934 L
.76486 .01472 L
.76579 .04934 L
.76672 .04934 L
.76765 .04934 L
.76858 .04934 L
Mistroke
.76952 .01472 L
.77045 .04934 L
.77138 .01472 L
.77231 .04934 L
.77324 .08396 L
.77417 .08396 L
.7751 .04934 L
.77603 .04934 L
.77696 .04934 L
.77789 .04934 L
.77883 .04934 L
.77976 .04934 L
.78069 .04934 L
.78162 .04934 L
.78255 .08396 L
.78348 .04934 L
.78441 .01472 L
.78534 .08396 L
.78627 .04934 L
.7872 .04934 L
.78813 .04934 L
.78907 .04934 L
.79 .04934 L
.79093 .04934 L
.79186 .04934 L
.79279 .01472 L
.79372 .01472 L
.79465 .08396 L
.79558 .01472 L
.79651 .04934 L
.79744 .04934 L
.79838 .04934 L
.79931 .08396 L
.80024 .04934 L
.80117 .04934 L
.8021 .04934 L
.80303 .04934 L
.80396 .08396 L
.80489 .04934 L
.80582 .01472 L
.80675 .08396 L
.80769 .04934 L
.80862 .08396 L
.80955 .04934 L
.81048 .01472 L
.81141 .08396 L
.81234 .04934 L
.81327 .04934 L
.8142 .04934 L
.81513 .04934 L
Mistroke
.81606 .04934 L
.81699 .04934 L
.81793 .01472 L
.81886 .04934 L
.81979 .04934 L
.82072 .04934 L
.82165 .04934 L
.82258 .04934 L
.82351 .04934 L
.82444 .01472 L
.82537 .04934 L
.8263 .04934 L
.82724 .04934 L
.82817 .04934 L
.8291 .04934 L
.83003 .04934 L
.83096 .04934 L
.83189 .04934 L
.83282 .04934 L
.83375 .04934 L
.83468 .01472 L
.83561 .04934 L
.83655 .08396 L
.83748 .04934 L
.83841 .01472 L
.83934 .01472 L
.84027 .04934 L
.8412 .08396 L
.84213 .04934 L
.84306 .04934 L
.84399 .04934 L
.84492 .04934 L
.84585 .08396 L
.84679 .04934 L
.84772 .04934 L
.84865 .04934 L
.84958 .04934 L
.85051 .04934 L
.85144 .01472 L
.85237 .08396 L
.8533 .04934 L
.85423 .04934 L
.85516 .01472 L
.8561 .04934 L
.85703 .04934 L
.85796 .08396 L
.85889 .04934 L
.85982 .04934 L
.86075 .04934 L
.86168 .04934 L
Mistroke
.86261 .08396 L
.86354 .04934 L
.86447 .04934 L
.86541 .04934 L
.86634 .04934 L
.86727 .08396 L
.8682 .04934 L
.86913 .04934 L
.87006 .04934 L
.87099 .04934 L
.87192 .04934 L
.87285 .04934 L
.87378 .04934 L
.87471 .04934 L
.87565 .04934 L
.87658 .08396 L
.87751 .01472 L
.87844 .01472 L
.87937 .08396 L
.8803 .04934 L
.88123 .04934 L
.88216 .04934 L
.88309 .04934 L
.88402 .01472 L
.88496 .04934 L
.88589 .04934 L
.88682 .01472 L
.88775 .01472 L
.88868 .04934 L
.88961 .04934 L
.89054 .04934 L
.89147 .04934 L
.8924 .01472 L
.89333 .04934 L
.89427 .04934 L
.8952 .04934 L
.89613 .04934 L
.89706 .01472 L
.89799 .08396 L
.89892 .04934 L
.89985 .04934 L
.90078 .04934 L
.90171 .04934 L
.90264 .04934 L
.90357 .08396 L
.90451 .04934 L
.90544 .04934 L
.90637 .04934 L
.9073 .08396 L
.90823 .04934 L
Mistroke
.90916 .04934 L
.91009 .04934 L
.91102 .04934 L
.91195 .04934 L
.91288 .04934 L
.91382 .04934 L
.91475 .04934 L
.91568 .08396 L
.91661 .01472 L
.91754 .04934 L
.91847 .04934 L
.9194 .04934 L
.92033 .08396 L
.92126 .04934 L
.92219 .01472 L
.92313 .04934 L
.92406 .04934 L
.92499 .04934 L
.92592 .04934 L
.92685 .04934 L
.92778 .04934 L
.92871 .04934 L
.92964 .04934 L
.93057 .04934 L
.9315 .01472 L
.93243 .01472 L
.93337 .08396 L
.9343 .04934 L
.93523 .04934 L
.93616 .04934 L
.93709 .04934 L
.93802 .01472 L
.93895 .04934 L
.93988 .08396 L
.94081 .04934 L
.94174 .01472 L
.94268 .08396 L
.94361 .04934 L
.94454 .04934 L
.94547 .04934 L
.9464 .01472 L
.94733 .04934 L
.94826 .04934 L
.94919 .04934 L
.95012 .04934 L
.95105 .04934 L
.95199 .04934 L
.95292 .08396 L
.95385 .01472 L
.95478 .04934 L
Mistroke
.95571 .01472 L
.95664 .04934 L
.95757 .08396 L
.9585 .04934 L
.95943 .01472 L
.96036 .04934 L
.96129 .04934 L
.96223 .04934 L
.96316 .01472 L
.96409 .08396 L
.96502 .04934 L
.96595 .04934 L
.96688 .08396 L
.96781 .04934 L
.96874 .04934 L
.96967 .04934 L
.9706 .04934 L
.97154 .08396 L
.97247 .04934 L
.9734 .04934 L
.97433 .08396 L
.97526 .04934 L
.97619 .04934 L
Mfstroke
% End of Graphics
MathPictureEnd

%%PSTrailer
end
grestore


%%EPS Trailer

%%Trailer
%%EOF
