%!PS-Adobe-2.0 EPSF-1.2
%%BoundingBox: 160 60 400 210
%%HiResBoundingBox: 153 8 154 9
%%Creator: (Mathematica 4.0 for X)
%%CreationDate: (Wednesday, May 4, 2005) (13:55:58)
%%Title: Clipboard
%%DocumentNeededResources: font Courier
%%DocumentSuppliedResources:
%%DocumentNeededFonts: Courier
%%DocumentSuppliedFonts:
%%DocumentFonts: Courier
%%EndComments
/MISOfy
{
    /newfontname exch def
    /oldfontname exch def

    oldfontname findfont
    dup length dict begin
        {1 index /FID ne {def} {pop pop} ifelse} forall
        /Encoding ISOLatin1Encoding def
        currentdict
    end

    newfontname exch definefont pop
} def

0 17 translate 1 -1 scale
0.000 0.000 0.000 setrgbcolor
gsave
150 dict begin
/Mfixwid true def
/Mrot 0 def
/Mpstart {
    MathPictureStart
} bind def
/Mpend {
    MathPictureEnd
} bind def
/Mscale {
    0 1 0 1
    5 -1 roll
    MathScale
} bind def
/Plain	/Courier findfont def
/Bold	/Courier-Bold findfont def
/Italic /Courier-Oblique findfont def
/MathPictureStart {
	/Mimatrix
	 matrix currentmatrix
	def
	gsave
	newpath
	Mleft
	Mbottom
	translate
	/Mtmatrix
	matrix currentmatrix
	def
	Plain
	Mfontsize scalefont
	setfont
	0 setgray
	0 setlinewidth
} bind def
/MathPictureEnd {
	grestore
} bind def
/MathSubStart {
 	     Momatrix
        Mgmatrix Mtmatrix
        Mleft Mbottom
        Mwidth Mheight
        9 -2 roll
        moveto
        Mtmatrix setmatrix
        currentpoint
        Mgmatrix setmatrix
        11 -2 roll
        moveto
        Mtmatrix setmatrix
        currentpoint
        2 copy translate
        /Mtmatrix matrix currentmatrix def
        /Mleft 0 def
        /Mbottom 0 def
        3 -1 roll
        exch sub
        /Mheight exch def
        sub
        /Mwidth exch def
} bind def
/MathSubEnd {
        /Mheight exch def
        /Mwidth exch def
        /Mbottom exch def
        /Mleft exch def
        /Mtmatrix exch def
        dup setmatrix
        /Mgmatrix exch def
	      /Momatrix exch def
} bind def
/Mdot {
	moveto
	0 0 rlineto
	stroke
} bind def
/Mtetra {
	moveto
	lineto
	lineto
	lineto
	fill
} bind def
/Metetra {
	moveto
	lineto
	lineto
	lineto
	closepath
	gsave
	fill
	grestore
	0 setgray
	stroke
} bind def
/Mistroke {
	flattenpath
	0 0 0
	{
	4 2 roll
	pop pop
	}
	{
	4 -1 roll
	2 index
	sub dup mul
	4 -1 roll
	2 index
	sub dup mul
	add sqrt
	4 -1 roll
	add
	3 1 roll
	}
	{
	stop
	}
	{
	stop
	}
	pathforall
	pop pop
	currentpoint
	stroke
	moveto
	currentdash
	3 -1 roll
	add
	setdash
} bind def
/Mfstroke {
	stroke
	currentdash
	pop 0
	setdash
} bind def
/Mrotsboxa {
	gsave
	dup
	/Mrot
	exch def
	Mrotcheck
	Mtmatrix
	dup
	setmatrix
	7 1 roll
	4 index
	4 index
	translate
	rotate
	3 index
	-1 mul
	3 index
	-1 mul
	translate
	/Mtmatrix
	matrix
	currentmatrix
	def
	grestore
	Msboxa
	3  -1 roll
	/Mtmatrix
	exch def
	/Mrot
	0 def
} bind def
/Msboxa {
	newpath
	5 -1 roll
	Mvboxa
	pop
	Mboxout
	6 -1 roll
	5 -1 roll
	4 -1 roll
	Msboxa1
	5 -3 roll
	Msboxa1
	Mboxrot
	[
	7 -2 roll
	2 copy
	[
	3 1 roll
	10 -1 roll
	9 -1 roll
	]
	6 1 roll
	5 -2 roll
	]
} bind def
/Msboxa1 {
	sub
	2 div
	dup
	2 index
	1 add
	mul
	3 -1 roll
	-1 add
	3 -1 roll
	mul
} bind def
/Mvboxa	{
	Mfixwid
	{
	Mvboxa1
	}
	{
	dup
	Mwidthcal
	0 exch
	{
	add
	}
	forall
	exch
	Mvboxa1
	4 index
	7 -1 roll
	add
	4 -1 roll
	pop
	3 1 roll
	}
	ifelse
} bind def
/Mvboxa1 {
	gsave
	newpath
	[ true
	3 -1 roll
	{
	Mbbox
	5 -1 roll
	{
	0
	5 1 roll
	}
	{
	7 -1 roll
	exch sub
	(m) stringwidth pop
	.3 mul
	sub
	7 1 roll
	6 -1 roll
	4 -1 roll
	Mmin
	3 -1 roll
	5 index
	add
	5 -1 roll
	4 -1 roll
	Mmax
	4 -1 roll
	}
	ifelse
	false
	}
	forall
	{ stop } if
	counttomark
	1 add
	4 roll
	]
	grestore
} bind def
/Mbbox {
	0 0 moveto
	false charpath
	flattenpath
	pathbbox
	newpath
} bind def
/Mmin {
	2 copy
	gt
	{ exch } if
	pop
} bind def
/Mmax {
	2 copy
	lt
	{ exch } if
	pop
} bind def
/Mrotshowa {
	dup
	/Mrot
	exch def
	Mrotcheck
	Mtmatrix
	dup
	setmatrix
	7 1 roll
	4 index
	4 index
	translate
	rotate
	3 index
	-1 mul
	3 index
	-1 mul
	translate
	/Mtmatrix
	matrix
	currentmatrix
	def
	Mgmatrix setmatrix
	Mshowa
	/Mtmatrix
	exch def
	/Mrot 0 def
} bind def
/Mshowa {
	4 -2 roll
	moveto
	2 index
	Mtmatrix setmatrix
	Mvboxa
	7 1 roll
	Mboxout
	6 -1 roll
	5 -1 roll
	4 -1 roll
	Mshowa1
	4 1 roll
	Mshowa1
	rmoveto
	currentpoint
	Mfixwid
	{
	Mshowax
	}
	{
	Mshoway
	}
	ifelse
	pop pop pop pop
	Mgmatrix setmatrix
} bind def
/Mshowax {
	0 1
        4 index length
        -1 add
        {
        2 index
        4 index
        2 index
        get
        3 index
        add
        moveto
        4 index
        exch get
        show
        } for
} bind def
/Mshoway {
        3 index
        Mwidthcal
        5 1 roll
	0 1
	4 index length
	-1 add
	{
	2 index
	4 index
	2 index
	get
	3 index
	add
	moveto
	4 index
	exch get
	[
	6 index
	aload
	length
	2 add
	-1 roll
	{
	pop
	Strform
	stringwidth
	pop
	neg
	exch
	add
	0 rmoveto
	}
	exch
	kshow
	cleartomark
	} for
	pop
} bind def
/Mwidthcal {
	[
	exch
	{
	Mwidthcal1
	}
	forall
	]
	[
	exch
	dup
	Maxlen
	-1 add
	0 1
	3 -1 roll
	{
	[
	exch
	2 index
	{
	1 index
	Mget
	exch
	}
	forall
	pop
	Maxget
	exch
	}
	for
	pop
	]
	Mreva
} bind def
/Mreva	{
	[
	exch
	aload
	length
	-1 1
	{1 roll}
	for
	]
} bind def
/Mget	{
	1 index
	length
	-1 add
	1 index
	ge
	{
	get
	}
	{
	pop pop
	0
	}
	ifelse
} bind def
/Maxlen	{
	[
	exch
	{
	length
	}
	forall
	Maxget
} bind def
/Maxget	{
	counttomark
	-1 add
	1 1
	3 -1 roll
	{
	pop
	Mmax
	}
	for
	exch
	pop
} bind def
/Mwidthcal1 {
	[
	exch
	{
	Strform
	stringwidth
	pop
	}
	forall
	]
} bind def
/Strform {
	/tem (x) def
	tem 0
	3 -1 roll
	put
	tem
} bind def
/Mshowa1 {
	2 copy
	add
	4 1 roll
	sub
	mul
	sub
	-2 div
} bind def
/MathScale {
	Mwidth
	Mheight
	Mlp
	translate
	scale
	/yscale exch def
	/ybias exch def
	/xscale exch def
	/xbias exch def
	/Momatrix
	xscale yscale matrix scale
	xbias ybias matrix translate
	matrix concatmatrix def
	/Mgmatrix
	matrix currentmatrix
	def
} bind def
/Mlp {
	3 copy
	Mlpfirst
	{
	Mnodistort
	{
	Mmin
	dup
	} if
	4 index
	2 index
	2 index
	Mlprun
	11 index
	11 -1 roll
	10 -4 roll
	Mlp1
	8 index
	9 -5 roll
	Mlp1
	4 -1 roll
	and
	{ exit } if
	3 -1 roll
	pop pop
	} loop
	exch
	3 1 roll
	7 -3 roll
	pop pop pop
} bind def
/Mlpfirst {
	3 -1 roll
	dup length
	2 copy
	-2 add
	get
	aload
	pop pop pop
	4 -2 roll
	-1 add
	get
	aload
	pop pop pop
	6 -1 roll
	3 -1 roll
	5 -1 roll
	sub
	dup /MsaveAx exch def
	div
	4 1 roll
	exch sub
	dup /MsaveAy exch def
	div
} bind def
/Mlprun {
	2 copy
	4 index
	0 get
	dup
	4 1 roll
	Mlprun1
	3 copy
	8 -2 roll
	9 -1 roll
	{
	3 copy
	Mlprun1
	3 copy
	11 -3 roll
	/gt Mlpminmax
	8 3 roll
	11 -3 roll
	/lt Mlpminmax
	8 3 roll
	} forall
	pop pop pop pop
	3 1 roll
	pop pop
	aload pop
	5 -1 roll
	aload pop
	exch
	6 -1 roll
	Mlprun2
	8 2 roll
	4 -1 roll
	Mlprun2
	6 2 roll
	3 -1 roll
	Mlprun2
	4 2 roll
	exch
	Mlprun2
	6 2 roll
} bind def
/Mlprun1 {
	aload pop
	exch
	6 -1 roll
	5 -1 roll
	mul add
	4 -2 roll
	mul
	3 -1 roll
	add
} bind def
/Mlprun2 {
	2 copy
	add 2 div
	3 1 roll
	exch sub
} bind def
/Mlpminmax {
	cvx
	2 index
	6 index
	2 index
	exec
	{
	7 -3 roll
	4 -1 roll
	} if
	1 index
	5 index
	3 -1 roll
	exec
	{
	4 1 roll
	pop
	5 -1 roll
	aload
	pop pop
	4 -1 roll
	aload pop
	[
	8 -2 roll
	pop
	5 -2 roll
	pop
	6 -2 roll
	pop
	5 -1 roll
	]
	4 1 roll
	pop
	}
	{
	pop pop pop
	} ifelse
} bind def
/Mlp1 {
	5 index
	3 index	sub
	5 index
	2 index mul
	1 index
	le
	1 index
	0 le
	or
	dup
	not
	{
	1 index
	3 index	div
	.99999 mul
	8 -1 roll
	pop
	7 1 roll
	}
	if
	8 -1 roll
	2 div
	7 -2 roll
	pop sub
	5 index
	6 -3 roll
	pop pop
	mul sub
	exch
} bind def
/intop 0 def
/inrht 0 def
/inflag 0 def
/outflag 0 def
/xadrht 0 def
/xadlft 0 def
/yadtop 0 def
/yadbot 0 def
/Minner {
	outflag
	1
	eq
	{
	/outflag 0 def
	/intop 0 def
	/inrht 0 def
	} if
	5 index
	gsave
	Mtmatrix setmatrix
	Mvboxa pop
	grestore
	3 -1 roll
	pop
	dup
	intop
	gt
	{
	/intop
	exch def
	}
	{ pop }
	ifelse
	dup
	inrht
	gt
	{
	/inrht
	exch def
	}
	{ pop }
	ifelse
	pop
	/inflag
	1 def
} bind def
/Mouter {
	/xadrht 0 def
	/xadlft 0 def
	/yadtop 0 def
	/yadbot 0 def
	inflag
	1 eq
	{
	dup
	0 lt
	{
	dup
	intop
	mul
	neg
	/yadtop
	exch def
	} if
	dup
	0 gt
	{
	dup
	intop
	mul
	/yadbot
	exch def
	}
	if
	pop
	dup
	0 lt
	{
	dup
	inrht
	mul
	neg
	/xadrht
	exch def
	} if
	dup
	0 gt
	{
	dup
	inrht
	mul
	/xadlft
	exch def
	} if
	pop
	/outflag 1 def
	}
	{ pop pop}
	ifelse
	/inflag 0 def
	/inrht 0 def
	/intop 0 def
} bind def
/Mboxout {
	outflag
	1
	eq
	{
	4 -1
	roll
	xadlft
	leadjust
	add
	sub
	4 1 roll
	3 -1
	roll
	yadbot
	leadjust
	add
	sub
	3 1
	roll
	exch
	xadrht
	leadjust
	add
	add
	exch
	yadtop
	leadjust
	add
	add
	/outflag 0 def
	/xadlft 0 def
	/yadbot 0 def
	/xadrht 0 def
	/yadtop 0 def
	} if
} bind def
/leadjust {
	(m) stringwidth pop
	.5 mul
} bind def
/Mrotcheck {
	dup
	90
	eq
	{
	yadbot
	/yadbot
	xadrht
	def
	/xadrht
	yadtop
	def
	/yadtop
	xadlft
	def
	/xadlft
	exch
	def
	}
	if
	dup
	cos
	1 index
	sin
	Checkaux
	dup
	cos
	1 index
	sin neg
	exch
	Checkaux
	3 1 roll
	pop pop
} bind def
/Checkaux {
	4 index
	exch
	4 index
	mul
	3 1 roll
	mul add
	4 1 roll
} bind def
/Mboxrot {
	Mrot
	90 eq
	{
	brotaux
	4 2
	roll
	}
	if
	Mrot
	180 eq
	{
	4 2
        roll
	brotaux
	4 2
	roll
	brotaux
	}
	if
	Mrot
	270 eq
	{
	4 2
	roll
	brotaux
	}
	if
} bind def
/brotaux {
	neg
	exch
	neg
} bind def
/Mabsproc {
        0
        matrix defaultmatrix
        dtransform idtransform
        dup mul exch
        dup mul
        add sqrt
} bind def
/Mabswid {
        Mabsproc
        setlinewidth
} bind def
/Mabsdash {
        exch
        [
        exch
        {
        Mabsproc
        }
        forall
        ]
        exch
        setdash
} bind def
/MBeginOrig { Momatrix concat} bind def
/MEndOrig { Mgmatrix setmatrix} bind def
/sampledsound where
{ pop}
{ /sampledsound {
exch
pop
exch
5 1 roll
mul
4 idiv
mul
2 idiv
exch pop
exch
/Mtempproc exch def
{ Mtempproc pop }
repeat
} bind def
} ifelse
% Here are the short operators
/g { setgray} bind def
/k { setcmykcolor} bind def
/m { moveto} bind def
/p { gsave} bind def
/r { setrgbcolor} bind def
/w { setlinewidth} bind def
/C { curveto} bind def
/F { fill} bind def
/L { lineto} bind def
/P { grestore} bind def
/s { stroke} bind def

/MFill {
	0 0 		moveto
	Mwidth 0 	lineto
	Mwidth Mheight 	lineto
	0 Mheight 	lineto
	fill
} bind def

/MPlotRegion {
	3 index
	Mwidth mul
	2 index
	Mheight mul
	translate
	exch sub
	Mheight mul
	/Mheight
	exch def
	exch sub
	Mwidth mul
	/Mwidth
	exch def
} bind def

/Mcharproc
{
  	currentfile
  	(x)
  	readhexstring
  	pop
  	0 get
  	exch
 	div
} bind def

/Mshadeproc
{
	dup
	3 1
	roll
	{
	dup
	Mcharproc
	3 1
	roll
	} repeat
	1 eq
	{
	setgray
	}
	{
	3 eq
	{
	setrgbcolor
	}
	{
	setcmykcolor
	} ifelse
	} ifelse
} bind def

/Mrectproc
{
	3 index
	2 index
	moveto
	2 index
	3 -1
	roll
	lineto
	dup
	3 1
	roll
	lineto
	lineto
	fill
} bind def

/_Mcolorimage
{
	7 1
	roll
	pop
	pop
	matrix
	invertmatrix
	concat
	2 exch exp
	1 sub
	3 1 roll
	1 1
	2 index
	{
	1 1
	4 index
	{
	dup
	1 sub
	exch
	2 index
	dup
	1 sub
	exch
	7 index
	9 index
	Mshadeproc
	Mrectproc
	} for
	pop
	} for
	pop pop pop pop
} bind def

/_Mimage
{
	pop
	matrix
	invertmatrix
	concat
	2 exch exp
	1 sub
	3 1 roll
	1 1
	2 index
	{
	1 1
	4 index
	{
	dup
	1 sub 
	exch
	2 index
	dup
	1 sub
	exch
	7 index
	Mcharproc
	setgray
	Mrectproc
	} for
	pop
	} for
	pop pop pop
} bind def

/Mimage {
	4 index
	4 index
	mul 1600 gt
	{ image }
	{ _Mimage }
	ifelse
} def

/Mcolorimage {
	6 index
	6 index
	mul 1600 gt
	{ colorimage }
	{ _Mcolorimage }
	ifelse
} def
/Mnodistort true def
1.000000 1.000000 scale
153.000000 9.000000 translate
1.000000 -1.000000 scale
-0.000000 -0.000000 translate
/Mleft		0.000000 def
/Mbottom	0.000000 def
/Mwidth		250.0000 def
/Mheight	250.0000 def
0 setgray
0 setlinewidth
/Courier findfont 12 scalefont setfont
/Mfontsize 12 def
/Plain /Courier findfont def

%!
%%Creator: Mathematica
%%AspectRatio: .61803 
MathPictureStart
/Mabs {
Mgmatrix idtransform
Mtmatrix dtransform
} bind def
/Mabsadd { Mabs
3 -1 roll add
3 1 roll add
exch } bind def
%% Graphics
%%IncludeResource: font Courier
%%IncludeFont: Courier
/Courier findfont 5  scalefont  setfont
% Scaling calculations
-2126.49 0.00947643 -947.732 0.00514386 [
[.2112 .06284 -18 -9 ]
[.2112 .06284 18 0 ]
[.40072 .06284 -18 -9 ]
[.40072 .06284 18 0 ]
[.59025 .06284 -18 -9 ]
[.59025 .06284 18 0 ]
[.77978 .06284 -18 -9 ]
[.77978 .06284 18 0 ]
[.96931 .06284 -18 -9 ]
[.96931 .06284 18 0 ]
[.00917 .17822 -36 -4.5 ]
[.00917 .17822 0 4.5 ]
[.00917 .2811 -36 -4.5 ]
[.00917 .2811 0 4.5 ]
[.00917 .38397 -36 -4.5 ]
[.00917 .38397 0 4.5 ]
[.00917 .48685 -36 -4.5 ]
[.00917 .48685 0 4.5 ]
[.00917 .58973 -36 -4.5 ]
[.00917 .58973 0 4.5 ]
[ 0 0 0 0 ]
[ 1 .61803 0 0 ]
] MathScale
% Start of Graphics
1 setlinecap
1 setlinejoin
newpath
0 g
.25 Mabswid
[ ] 0 setdash
.2112 .07534 m
.2112 .08159 L
s
[(224420)] .2112 .06284 0 1 Mshowa
.40072 .07534 m
.40072 .08159 L
s
[(224440)] .40072 .06284 0 1 Mshowa
.59025 .07534 m
.59025 .08159 L
s
[(224460)] .59025 .06284 0 1 Mshowa
.77978 .07534 m
.77978 .08159 L
s
[(224480)] .77978 .06284 0 1 Mshowa
.96931 .07534 m
.96931 .08159 L
s
[(224500)] .96931 .06284 0 1 Mshowa
.125 Mabswid
.06905 .07534 m
.06905 .07909 L
s
.11643 .07534 m
.11643 .07909 L
s
.16381 .07534 m
.16381 .07909 L
s
.25858 .07534 m
.25858 .07909 L
s
.30596 .07534 m
.30596 .07909 L
s
.35334 .07534 m
.35334 .07909 L
s
.44811 .07534 m
.44811 .07909 L
s
.49549 .07534 m
.49549 .07909 L
s
.54287 .07534 m
.54287 .07909 L
s
.63764 .07534 m
.63764 .07909 L
s
.68502 .07534 m
.68502 .07909 L
s
.7324 .07534 m
.7324 .07909 L
s
.82716 .07534 m
.82716 .07909 L
s
.87455 .07534 m
.87455 .07909 L
s
.92193 .07534 m
.92193 .07909 L
s
.25 Mabswid
0 .07534 m
1 .07534 L
s
.02167 .17822 m
.02792 .17822 L
s
[(184280)] .00917 .17822 1 0 Mshowa
.02167 .2811 m
.02792 .2811 L
s
[(184300)] .00917 .2811 1 0 Mshowa
.02167 .38397 m
.02792 .38397 L
s
[(184320)] .00917 .38397 1 0 Mshowa
.02167 .48685 m
.02792 .48685 L
s
[(184340)] .00917 .48685 1 0 Mshowa
.02167 .58973 m
.02792 .58973 L
s
[(184360)] .00917 .58973 1 0 Mshowa
.125 Mabswid
.02167 .10106 m
.02542 .10106 L
s
.02167 .12678 m
.02542 .12678 L
s
.02167 .1525 m
.02542 .1525 L
s
.02167 .20394 m
.02542 .20394 L
s
.02167 .22966 m
.02542 .22966 L
s
.02167 .25538 m
.02542 .25538 L
s
.02167 .30682 m
.02542 .30682 L
s
.02167 .33254 m
.02542 .33254 L
s
.02167 .35826 m
.02542 .35826 L
s
.02167 .40969 m
.02542 .40969 L
s
.02167 .43541 m
.02542 .43541 L
s
.02167 .46113 m
.02542 .46113 L
s
.02167 .51257 m
.02542 .51257 L
s
.02167 .53829 m
.02542 .53829 L
s
.02167 .56401 m
.02542 .56401 L
s
.02167 .04962 m
.02542 .04962 L
s
.02167 .0239 m
.02542 .0239 L
s
.02167 .61545 m
.02542 .61545 L
s
.25 Mabswid
.02167 0 m
.02167 .61803 L
s
0 0 m
1 0 L
1 .61803 L
0 .61803 L
closepath
clip
newpath
.5 g
.2 Mabswid
.02381 .31896 m
.02665 .26106 L
.0295 .29825 L
.03234 .22831 L
.03518 .24907 L
.03802 .30896 L
.04087 .2454 L
.04371 .18038 L
.04655 .32828 L
.0494 .24252 L
.05224 .33129 L
.05508 .34459 L
.05792 .29106 L
.06077 .23639 L
.06361 .40767 L
.06645 .43804 L
.0693 .37097 L
.07214 .31527 L
.07498 .28524 L
.07783 .38777 L
.08067 .26245 L
.08351 .35516 L
.08635 .28432 L
.0892 .37854 L
.09204 .26039 L
.09488 .34203 L
.09773 .37098 L
.10057 .38189 L
.10341 .30358 L
.10625 .46194 L
.1091 .35326 L
.11194 .37002 L
.11478 .23493 L
.11763 .37332 L
.12047 .2603 L
.12331 .18579 L
.12615 .37941 L
.129 .43724 L
.13184 .39912 L
.13468 .24805 L
.13753 .24427 L
.14037 .4233 L
.14321 .16995 L
.14606 .41432 L
.1489 .33711 L
.15174 .47569 L
.15458 .39232 L
.15743 .43441 L
.16027 .46052 L
.16311 .33541 L
Mistroke
.16596 .60332 L
.1688 .44815 L
.17164 .43203 L
.17448 .37494 L
.17733 .39232 L
.18017 .44757 L
.18301 .27435 L
.18586 .37667 L
.1887 .45089 L
.19154 .30567 L
.19439 .52066 L
.19723 .53949 L
.20007 .38934 L
.20291 .43253 L
.20576 .39204 L
.2086 .46434 L
.21144 .39774 L
.21429 .28702 L
.21713 .38476 L
.21997 .4708 L
.22281 .40281 L
.22566 .37651 L
.2285 .47363 L
.23134 .32013 L
.23419 .46892 L
.23703 .38162 L
.23987 .47953 L
.24271 .41706 L
.24556 .51888 L
.2484 .27247 L
.25124 .35156 L
.25409 .16619 L
.25693 .26568 L
.25977 .37337 L
.26262 .46938 L
.26546 .20714 L
.2683 .45723 L
.27114 .43588 L
.27399 .30726 L
.27683 .41072 L
.27967 .38842 L
.28252 .31693 L
.28536 .33523 L
.2882 .29554 L
.29104 .54355 L
.29389 .36943 L
.29673 .45609 L
.29957 .46507 L
.30242 .36685 L
.30526 .51223 L
Mistroke
.3081 .5062 L
.31095 .27863 L
.31379 .31545 L
.31663 .37873 L
.31947 .3356 L
.32232 .30059 L
.32516 .3966 L
.328 .38888 L
.33085 .26642 L
.33369 .29001 L
.33653 .32495 L
.33937 .27383 L
.34222 .3504 L
.34506 .29948 L
.3479 .33016 L
.35075 .35895 L
.35359 .25869 L
.35643 .34631 L
.35928 .24588 L
.36212 .16047 L
.36496 .37399 L
.3678 .3563 L
.37065 .34901 L
.37349 .23719 L
.37633 .2084 L
.37918 .35579 L
.38202 .43757 L
.38486 .4137 L
.3877 .31219 L
.39055 .38113 L
.39339 .28463 L
.39623 .29647 L
.39908 .29555 L
.40192 .36356 L
.40476 .25805 L
.4076 .18481 L
.41045 .4045 L
.41329 .3814 L
.41613 .31705 L
.41898 .37922 L
.42182 .4102 L
.42466 .37968 L
.42751 .37765 L
.43035 .24208 L
.43319 .19083 L
.43603 .19997 L
.43888 .32794 L
.44172 .30106 L
.44456 .18437 L
.44741 .29967 L
Mistroke
.45025 .14402 L
.45309 .36815 L
.45593 .206 L
.45878 .26169 L
.46162 .30948 L
.46446 .46736 L
.46731 .21883 L
.47015 .25946 L
.47299 .36627 L
.47584 .29001 L
.47868 .28561 L
.48152 .41718 L
.48436 .3487 L
.48721 .26186 L
.49005 .30001 L
.49289 .32529 L
.49574 .4541 L
.49858 .36011 L
.50142 .3484 L
.50426 .30585 L
.50711 .26761 L
.50995 .26396 L
.51279 .23596 L
.51564 .35935 L
.51848 .39685 L
.52132 .3639 L
.52416 .36833 L
.52701 .26565 L
.52985 .37322 L
.53269 .43238 L
.53554 .35661 L
.53838 .45169 L
.54122 .35264 L
.54407 .36802 L
.54691 .12885 L
.54975 .33843 L
.55259 .26343 L
.55544 .29666 L
.55828 .35744 L
.56112 .45495 L
.56397 .48088 L
.56681 .37307 L
.56965 .32209 L
.57249 .35596 L
.57534 .35627 L
.57818 .36673 L
.58102 .5673 L
.58387 .45847 L
.58671 .43712 L
.58955 .24842 L
Mistroke
.5924 .4194 L
.59524 .44103 L
.59808 .32858 L
.60092 .39217 L
.60377 .17629 L
.60661 .2623 L
.60945 .31186 L
.6123 .29047 L
.61514 .32624 L
.61798 .45686 L
.62082 .24808 L
.62367 .02094 L
.62651 .31545 L
.62935 .15079 L
.6322 .13211 L
.63504 .32114 L
.63788 .29868 L
.64072 .25442 L
.64357 .25437 L
.64641 .14226 L
.64925 .31102 L
.6521 .15408 L
.65494 .3292 L
.65778 .31877 L
.66063 .4493 L
.66347 .18942 L
.66631 .21738 L
.66915 .20649 L
.672 .18102 L
.67484 .08499 L
.67768 .37113 L
.68053 .29998 L
.68337 .07425 L
.68621 .25046 L
.68905 .21406 L
.6919 .34849 L
.69474 .2718 L
.69758 .28174 L
.70043 .14033 L
.70327 .20379 L
.70611 .15377 L
.70896 .22179 L
.7118 .09967 L
.71464 .08749 L
.71748 .17844 L
.72033 .09143 L
.72317 .18241 L
.72601 .06707 L
.72886 .20675 L
.7317 .15107 L
Mistroke
.73454 .10693 L
.73738 .01472 L
.74023 .03243 L
.74307 .21087 L
.74591 .08654 L
.74876 .18112 L
.7516 .14239 L
.75444 .18511 L
.75729 .25359 L
.76013 .09588 L
.76297 .1658 L
.76581 .25753 L
.76866 .26435 L
.7715 .28235 L
.77434 .354 L
.77719 .21164 L
.78003 .29899 L
.78287 .36812 L
.78571 .22166 L
.78856 .18589 L
.7914 .28192 L
.79424 .29915 L
.79709 .39565 L
.79993 .15187 L
.80277 .06883 L
.80561 .13557 L
.80846 .13117 L
.8113 .17291 L
.81414 .24505 L
.81699 .29629 L
.81983 .1897 L
.82267 .44576 L
.82552 .27239 L
.82836 .28795 L
.8312 .33821 L
.83404 .19156 L
.83689 .23238 L
.83973 .23935 L
.84257 .31717 L
.84542 .19887 L
.84826 .13199 L
.8511 .15238 L
.85394 .36289 L
.85679 .12661 L
.85963 .26845 L
.86247 .19979 L
.86532 .15503 L
.86816 .20378 L
.871 .25119 L
.87385 .25866 L
Mistroke
.87669 .26796 L
.87953 .32274 L
.88237 .2735 L
.88522 .1136 L
.88806 .13147 L
.8909 .38315 L
.89375 .34215 L
.89659 .13606 L
.89943 .31668 L
.90227 .28885 L
.90512 .26845 L
.90796 .31653 L
.9108 .25485 L
.91365 .13716 L
.91649 .28998 L
.91933 .26399 L
.92217 .17703 L
.92502 .21277 L
.92786 .35799 L
.9307 .33016 L
.93355 .38903 L
.93639 .1984 L
.93923 .02424 L
.94208 .30388 L
.94492 .06725 L
.94776 .29552 L
.9506 .2906 L
.95345 .20088 L
.95629 .26178 L
.95913 .19887 L
.96198 .3284 L
.96482 .25217 L
.96766 .31434 L
.9705 .33317 L
.97335 .07533 L
.97619 .16863 L
Mfstroke
0 g
.007 w
.02381 .31896 Mdot
.02665 .26106 Mdot
.0295 .29825 Mdot
.03234 .22831 Mdot
.03518 .24907 Mdot
.03802 .30896 Mdot
.04087 .2454 Mdot
.04371 .18038 Mdot
.04655 .32828 Mdot
.0494 .24252 Mdot
.05224 .33129 Mdot
.05508 .34459 Mdot
.05792 .29106 Mdot
.06077 .23639 Mdot
.06361 .40767 Mdot
.06645 .43804 Mdot
.0693 .37097 Mdot
.07214 .31527 Mdot
.07498 .28524 Mdot
.07783 .38777 Mdot
.08067 .26245 Mdot
.08351 .35516 Mdot
.08635 .28432 Mdot
.0892 .37854 Mdot
.09204 .26039 Mdot
.09488 .34203 Mdot
.09773 .37098 Mdot
.10057 .38189 Mdot
.10341 .30358 Mdot
.10625 .46194 Mdot
.1091 .35326 Mdot
.11194 .37002 Mdot
.11478 .23493 Mdot
.11763 .37332 Mdot
.12047 .2603 Mdot
.12331 .18579 Mdot
.12615 .37941 Mdot
.129 .43724 Mdot
.13184 .39912 Mdot
.13468 .24805 Mdot
.13753 .24427 Mdot
.14037 .4233 Mdot
.14321 .16995 Mdot
.14606 .41432 Mdot
.1489 .33711 Mdot
.15174 .47569 Mdot
.15458 .39232 Mdot
.15743 .43441 Mdot
.16027 .46052 Mdot
.16311 .33541 Mdot
.16596 .60332 Mdot
.1688 .44815 Mdot
.17164 .43203 Mdot
.17448 .37494 Mdot
.17733 .39232 Mdot
.18017 .44757 Mdot
.18301 .27435 Mdot
.18586 .37667 Mdot
.1887 .45089 Mdot
.19154 .30567 Mdot
.19439 .52066 Mdot
.19723 .53949 Mdot
.20007 .38934 Mdot
.20291 .43253 Mdot
.20576 .39204 Mdot
.2086 .46434 Mdot
.21144 .39774 Mdot
.21429 .28702 Mdot
.21713 .38476 Mdot
.21997 .4708 Mdot
.22281 .40281 Mdot
.22566 .37651 Mdot
.2285 .47363 Mdot
.23134 .32013 Mdot
.23419 .46892 Mdot
.23703 .38162 Mdot
.23987 .47953 Mdot
.24271 .41706 Mdot
.24556 .51888 Mdot
.2484 .27247 Mdot
.25124 .35156 Mdot
.25409 .16619 Mdot
.25693 .26568 Mdot
.25977 .37337 Mdot
.26262 .46938 Mdot
.26546 .20714 Mdot
.2683 .45723 Mdot
.27114 .43588 Mdot
.27399 .30726 Mdot
.27683 .41072 Mdot
.27967 .38842 Mdot
.28252 .31693 Mdot
.28536 .33523 Mdot
.2882 .29554 Mdot
.29104 .54355 Mdot
.29389 .36943 Mdot
.29673 .45609 Mdot
.29957 .46507 Mdot
.30242 .36685 Mdot
.30526 .51223 Mdot
.3081 .5062 Mdot
.31095 .27863 Mdot
.31379 .31545 Mdot
.31663 .37873 Mdot
.31947 .3356 Mdot
.32232 .30059 Mdot
.32516 .3966 Mdot
.328 .38888 Mdot
.33085 .26642 Mdot
.33369 .29001 Mdot
.33653 .32495 Mdot
.33937 .27383 Mdot
.34222 .3504 Mdot
.34506 .29948 Mdot
.3479 .33016 Mdot
.35075 .35895 Mdot
.35359 .25869 Mdot
.35643 .34631 Mdot
.35928 .24588 Mdot
.36212 .16047 Mdot
.36496 .37399 Mdot
.3678 .3563 Mdot
.37065 .34901 Mdot
.37349 .23719 Mdot
.37633 .2084 Mdot
.37918 .35579 Mdot
.38202 .43757 Mdot
.38486 .4137 Mdot
.3877 .31219 Mdot
.39055 .38113 Mdot
.39339 .28463 Mdot
.39623 .29647 Mdot
.39908 .29555 Mdot
.40192 .36356 Mdot
.40476 .25805 Mdot
.4076 .18481 Mdot
.41045 .4045 Mdot
.41329 .3814 Mdot
.41613 .31705 Mdot
.41898 .37922 Mdot
.42182 .4102 Mdot
.42466 .37968 Mdot
.42751 .37765 Mdot
.43035 .24208 Mdot
.43319 .19083 Mdot
.43603 .19997 Mdot
.43888 .32794 Mdot
.44172 .30106 Mdot
.44456 .18437 Mdot
.44741 .29967 Mdot
.45025 .14402 Mdot
.45309 .36815 Mdot
.45593 .206 Mdot
.45878 .26169 Mdot
.46162 .30948 Mdot
.46446 .46736 Mdot
.46731 .21883 Mdot
.47015 .25946 Mdot
.47299 .36627 Mdot
.47584 .29001 Mdot
.47868 .28561 Mdot
.48152 .41718 Mdot
.48436 .3487 Mdot
.48721 .26186 Mdot
.49005 .30001 Mdot
.49289 .32529 Mdot
.49574 .4541 Mdot
.49858 .36011 Mdot
.50142 .3484 Mdot
.50426 .30585 Mdot
.50711 .26761 Mdot
.50995 .26396 Mdot
.51279 .23596 Mdot
.51564 .35935 Mdot
.51848 .39685 Mdot
.52132 .3639 Mdot
.52416 .36833 Mdot
.52701 .26565 Mdot
.52985 .37322 Mdot
.53269 .43238 Mdot
.53554 .35661 Mdot
.53838 .45169 Mdot
.54122 .35264 Mdot
.54407 .36802 Mdot
.54691 .12885 Mdot
.54975 .33843 Mdot
.55259 .26343 Mdot
.55544 .29666 Mdot
.55828 .35744 Mdot
.56112 .45495 Mdot
.56397 .48088 Mdot
.56681 .37307 Mdot
.56965 .32209 Mdot
.57249 .35596 Mdot
.57534 .35627 Mdot
.57818 .36673 Mdot
.58102 .5673 Mdot
.58387 .45847 Mdot
.58671 .43712 Mdot
.58955 .24842 Mdot
.5924 .4194 Mdot
.59524 .44103 Mdot
.59808 .32858 Mdot
.60092 .39217 Mdot
.60377 .17629 Mdot
.60661 .2623 Mdot
.60945 .31186 Mdot
.6123 .29047 Mdot
.61514 .32624 Mdot
.61798 .45686 Mdot
.62082 .24808 Mdot
.62367 .02094 Mdot
.62651 .31545 Mdot
.62935 .15079 Mdot
.6322 .13211 Mdot
.63504 .32114 Mdot
.63788 .29868 Mdot
.64072 .25442 Mdot
.64357 .25437 Mdot
.64641 .14226 Mdot
.64925 .31102 Mdot
.6521 .15408 Mdot
.65494 .3292 Mdot
.65778 .31877 Mdot
.66063 .4493 Mdot
.66347 .18942 Mdot
.66631 .21738 Mdot
.66915 .20649 Mdot
.672 .18102 Mdot
.67484 .08499 Mdot
.67768 .37113 Mdot
.68053 .29998 Mdot
.68337 .07425 Mdot
.68621 .25046 Mdot
.68905 .21406 Mdot
.6919 .34849 Mdot
.69474 .2718 Mdot
.69758 .28174 Mdot
.70043 .14033 Mdot
.70327 .20379 Mdot
.70611 .15377 Mdot
.70896 .22179 Mdot
.7118 .09967 Mdot
.71464 .08749 Mdot
.71748 .17844 Mdot
.72033 .09143 Mdot
.72317 .18241 Mdot
.72601 .06707 Mdot
.72886 .20675 Mdot
.7317 .15107 Mdot
.73454 .10693 Mdot
.73738 .01472 Mdot
.74023 .03243 Mdot
.74307 .21087 Mdot
.74591 .08654 Mdot
.74876 .18112 Mdot
.7516 .14239 Mdot
.75444 .18511 Mdot
.75729 .25359 Mdot
.76013 .09588 Mdot
.76297 .1658 Mdot
.76581 .25753 Mdot
.76866 .26435 Mdot
.7715 .28235 Mdot
.77434 .354 Mdot
.77719 .21164 Mdot
.78003 .29899 Mdot
.78287 .36812 Mdot
.78571 .22166 Mdot
.78856 .18589 Mdot
.7914 .28192 Mdot
.79424 .29915 Mdot
.79709 .39565 Mdot
.79993 .15187 Mdot
.80277 .06883 Mdot
.80561 .13557 Mdot
.80846 .13117 Mdot
.8113 .17291 Mdot
.81414 .24505 Mdot
.81699 .29629 Mdot
.81983 .1897 Mdot
.82267 .44576 Mdot
.82552 .27239 Mdot
.82836 .28795 Mdot
.8312 .33821 Mdot
.83404 .19156 Mdot
.83689 .23238 Mdot
.83973 .23935 Mdot
.84257 .31717 Mdot
.84542 .19887 Mdot
.84826 .13199 Mdot
.8511 .15238 Mdot
.85394 .36289 Mdot
.85679 .12661 Mdot
.85963 .26845 Mdot
.86247 .19979 Mdot
.86532 .15503 Mdot
.86816 .20378 Mdot
.871 .25119 Mdot
.87385 .25866 Mdot
.87669 .26796 Mdot
.87953 .32274 Mdot
.88237 .2735 Mdot
.88522 .1136 Mdot
.88806 .13147 Mdot
.8909 .38315 Mdot
.89375 .34215 Mdot
.89659 .13606 Mdot
.89943 .31668 Mdot
.90227 .28885 Mdot
.90512 .26845 Mdot
.90796 .31653 Mdot
.9108 .25485 Mdot
.91365 .13716 Mdot
.91649 .28998 Mdot
.91933 .26399 Mdot
.92217 .17703 Mdot
.92502 .21277 Mdot
.92786 .35799 Mdot
.9307 .33016 Mdot
.93355 .38903 Mdot
.93639 .1984 Mdot
.93923 .02424 Mdot
.94208 .30388 Mdot
.94492 .06725 Mdot
.94776 .29552 Mdot
.9506 .2906 Mdot
.95345 .20088 Mdot
.95629 .26178 Mdot
.95913 .19887 Mdot
.96198 .3284 Mdot
.96482 .25217 Mdot
.96766 .31434 Mdot
.9705 .33317 Mdot
.97335 .07533 Mdot
.97619 .16863 Mdot
% End of Graphics
MathPictureEnd

%%PSTrailer
end
grestore


%%EPS Trailer

%%Trailer
%%EOF
