%!PS-Adobe-2.0 EPSF-1.2
%%BoundingBox: 140 50 420 220
%%HiResBoundingBox: 153 8 154 9
%%Creator: (Mathematica 4.0 for X)
%%CreationDate: (Wednesday, May 4, 2005) (14:05:15)
%%Title: Clipboard
%%DocumentNeededResources: font Courier
%%DocumentSuppliedResources:
%%DocumentNeededFonts: Courier
%%DocumentSuppliedFonts:
%%DocumentFonts: Courier
%%EndComments
/MISOfy
{
    /newfontname exch def
    /oldfontname exch def

    oldfontname findfont
    dup length dict begin
        {1 index /FID ne {def} {pop pop} ifelse} forall
        /Encoding ISOLatin1Encoding def
        currentdict
    end

    newfontname exch definefont pop
} def

0 17 translate 1 -1 scale
0.000 0.000 0.000 setrgbcolor
gsave
150 dict begin
/Mfixwid true def
/Mrot 0 def
/Mpstart {
    MathPictureStart
} bind def
/Mpend {
    MathPictureEnd
} bind def
/Mscale {
    0 1 0 1
    5 -1 roll
    MathScale
} bind def
/Plain	/Courier findfont def
/Bold	/Courier-Bold findfont def
/Italic /Courier-Oblique findfont def
/MathPictureStart {
	/Mimatrix
	 matrix currentmatrix
	def
	gsave
	newpath
	Mleft
	Mbottom
	translate
	/Mtmatrix
	matrix currentmatrix
	def
	Plain
	Mfontsize scalefont
	setfont
	0 setgray
	0 setlinewidth
} bind def
/MathPictureEnd {
	grestore
} bind def
/MathSubStart {
 	     Momatrix
        Mgmatrix Mtmatrix
        Mleft Mbottom
        Mwidth Mheight
        9 -2 roll
        moveto
        Mtmatrix setmatrix
        currentpoint
        Mgmatrix setmatrix
        11 -2 roll
        moveto
        Mtmatrix setmatrix
        currentpoint
        2 copy translate
        /Mtmatrix matrix currentmatrix def
        /Mleft 0 def
        /Mbottom 0 def
        3 -1 roll
        exch sub
        /Mheight exch def
        sub
        /Mwidth exch def
} bind def
/MathSubEnd {
        /Mheight exch def
        /Mwidth exch def
        /Mbottom exch def
        /Mleft exch def
        /Mtmatrix exch def
        dup setmatrix
        /Mgmatrix exch def
	      /Momatrix exch def
} bind def
/Mdot {
	moveto
	0 0 rlineto
	stroke
} bind def
/Mtetra {
	moveto
	lineto
	lineto
	lineto
	fill
} bind def
/Metetra {
	moveto
	lineto
	lineto
	lineto
	closepath
	gsave
	fill
	grestore
	0 setgray
	stroke
} bind def
/Mistroke {
	flattenpath
	0 0 0
	{
	4 2 roll
	pop pop
	}
	{
	4 -1 roll
	2 index
	sub dup mul
	4 -1 roll
	2 index
	sub dup mul
	add sqrt
	4 -1 roll
	add
	3 1 roll
	}
	{
	stop
	}
	{
	stop
	}
	pathforall
	pop pop
	currentpoint
	stroke
	moveto
	currentdash
	3 -1 roll
	add
	setdash
} bind def
/Mfstroke {
	stroke
	currentdash
	pop 0
	setdash
} bind def
/Mrotsboxa {
	gsave
	dup
	/Mrot
	exch def
	Mrotcheck
	Mtmatrix
	dup
	setmatrix
	7 1 roll
	4 index
	4 index
	translate
	rotate
	3 index
	-1 mul
	3 index
	-1 mul
	translate
	/Mtmatrix
	matrix
	currentmatrix
	def
	grestore
	Msboxa
	3  -1 roll
	/Mtmatrix
	exch def
	/Mrot
	0 def
} bind def
/Msboxa {
	newpath
	5 -1 roll
	Mvboxa
	pop
	Mboxout
	6 -1 roll
	5 -1 roll
	4 -1 roll
	Msboxa1
	5 -3 roll
	Msboxa1
	Mboxrot
	[
	7 -2 roll
	2 copy
	[
	3 1 roll
	10 -1 roll
	9 -1 roll
	]
	6 1 roll
	5 -2 roll
	]
} bind def
/Msboxa1 {
	sub
	2 div
	dup
	2 index
	1 add
	mul
	3 -1 roll
	-1 add
	3 -1 roll
	mul
} bind def
/Mvboxa	{
	Mfixwid
	{
	Mvboxa1
	}
	{
	dup
	Mwidthcal
	0 exch
	{
	add
	}
	forall
	exch
	Mvboxa1
	4 index
	7 -1 roll
	add
	4 -1 roll
	pop
	3 1 roll
	}
	ifelse
} bind def
/Mvboxa1 {
	gsave
	newpath
	[ true
	3 -1 roll
	{
	Mbbox
	5 -1 roll
	{
	0
	5 1 roll
	}
	{
	7 -1 roll
	exch sub
	(m) stringwidth pop
	.3 mul
	sub
	7 1 roll
	6 -1 roll
	4 -1 roll
	Mmin
	3 -1 roll
	5 index
	add
	5 -1 roll
	4 -1 roll
	Mmax
	4 -1 roll
	}
	ifelse
	false
	}
	forall
	{ stop } if
	counttomark
	1 add
	4 roll
	]
	grestore
} bind def
/Mbbox {
	0 0 moveto
	false charpath
	flattenpath
	pathbbox
	newpath
} bind def
/Mmin {
	2 copy
	gt
	{ exch } if
	pop
} bind def
/Mmax {
	2 copy
	lt
	{ exch } if
	pop
} bind def
/Mrotshowa {
	dup
	/Mrot
	exch def
	Mrotcheck
	Mtmatrix
	dup
	setmatrix
	7 1 roll
	4 index
	4 index
	translate
	rotate
	3 index
	-1 mul
	3 index
	-1 mul
	translate
	/Mtmatrix
	matrix
	currentmatrix
	def
	Mgmatrix setmatrix
	Mshowa
	/Mtmatrix
	exch def
	/Mrot 0 def
} bind def
/Mshowa {
	4 -2 roll
	moveto
	2 index
	Mtmatrix setmatrix
	Mvboxa
	7 1 roll
	Mboxout
	6 -1 roll
	5 -1 roll
	4 -1 roll
	Mshowa1
	4 1 roll
	Mshowa1
	rmoveto
	currentpoint
	Mfixwid
	{
	Mshowax
	}
	{
	Mshoway
	}
	ifelse
	pop pop pop pop
	Mgmatrix setmatrix
} bind def
/Mshowax {
	0 1
        4 index length
        -1 add
        {
        2 index
        4 index
        2 index
        get
        3 index
        add
        moveto
        4 index
        exch get
        show
        } for
} bind def
/Mshoway {
        3 index
        Mwidthcal
        5 1 roll
	0 1
	4 index length
	-1 add
	{
	2 index
	4 index
	2 index
	get
	3 index
	add
	moveto
	4 index
	exch get
	[
	6 index
	aload
	length
	2 add
	-1 roll
	{
	pop
	Strform
	stringwidth
	pop
	neg
	exch
	add
	0 rmoveto
	}
	exch
	kshow
	cleartomark
	} for
	pop
} bind def
/Mwidthcal {
	[
	exch
	{
	Mwidthcal1
	}
	forall
	]
	[
	exch
	dup
	Maxlen
	-1 add
	0 1
	3 -1 roll
	{
	[
	exch
	2 index
	{
	1 index
	Mget
	exch
	}
	forall
	pop
	Maxget
	exch
	}
	for
	pop
	]
	Mreva
} bind def
/Mreva	{
	[
	exch
	aload
	length
	-1 1
	{1 roll}
	for
	]
} bind def
/Mget	{
	1 index
	length
	-1 add
	1 index
	ge
	{
	get
	}
	{
	pop pop
	0
	}
	ifelse
} bind def
/Maxlen	{
	[
	exch
	{
	length
	}
	forall
	Maxget
} bind def
/Maxget	{
	counttomark
	-1 add
	1 1
	3 -1 roll
	{
	pop
	Mmax
	}
	for
	exch
	pop
} bind def
/Mwidthcal1 {
	[
	exch
	{
	Strform
	stringwidth
	pop
	}
	forall
	]
} bind def
/Strform {
	/tem (x) def
	tem 0
	3 -1 roll
	put
	tem
} bind def
/Mshowa1 {
	2 copy
	add
	4 1 roll
	sub
	mul
	sub
	-2 div
} bind def
/MathScale {
	Mwidth
	Mheight
	Mlp
	translate
	scale
	/yscale exch def
	/ybias exch def
	/xscale exch def
	/xbias exch def
	/Momatrix
	xscale yscale matrix scale
	xbias ybias matrix translate
	matrix concatmatrix def
	/Mgmatrix
	matrix currentmatrix
	def
} bind def
/Mlp {
	3 copy
	Mlpfirst
	{
	Mnodistort
	{
	Mmin
	dup
	} if
	4 index
	2 index
	2 index
	Mlprun
	11 index
	11 -1 roll
	10 -4 roll
	Mlp1
	8 index
	9 -5 roll
	Mlp1
	4 -1 roll
	and
	{ exit } if
	3 -1 roll
	pop pop
	} loop
	exch
	3 1 roll
	7 -3 roll
	pop pop pop
} bind def
/Mlpfirst {
	3 -1 roll
	dup length
	2 copy
	-2 add
	get
	aload
	pop pop pop
	4 -2 roll
	-1 add
	get
	aload
	pop pop pop
	6 -1 roll
	3 -1 roll
	5 -1 roll
	sub
	dup /MsaveAx exch def
	div
	4 1 roll
	exch sub
	dup /MsaveAy exch def
	div
} bind def
/Mlprun {
	2 copy
	4 index
	0 get
	dup
	4 1 roll
	Mlprun1
	3 copy
	8 -2 roll
	9 -1 roll
	{
	3 copy
	Mlprun1
	3 copy
	11 -3 roll
	/gt Mlpminmax
	8 3 roll
	11 -3 roll
	/lt Mlpminmax
	8 3 roll
	} forall
	pop pop pop pop
	3 1 roll
	pop pop
	aload pop
	5 -1 roll
	aload pop
	exch
	6 -1 roll
	Mlprun2
	8 2 roll
	4 -1 roll
	Mlprun2
	6 2 roll
	3 -1 roll
	Mlprun2
	4 2 roll
	exch
	Mlprun2
	6 2 roll
} bind def
/Mlprun1 {
	aload pop
	exch
	6 -1 roll
	5 -1 roll
	mul add
	4 -2 roll
	mul
	3 -1 roll
	add
} bind def
/Mlprun2 {
	2 copy
	add 2 div
	3 1 roll
	exch sub
} bind def
/Mlpminmax {
	cvx
	2 index
	6 index
	2 index
	exec
	{
	7 -3 roll
	4 -1 roll
	} if
	1 index
	5 index
	3 -1 roll
	exec
	{
	4 1 roll
	pop
	5 -1 roll
	aload
	pop pop
	4 -1 roll
	aload pop
	[
	8 -2 roll
	pop
	5 -2 roll
	pop
	6 -2 roll
	pop
	5 -1 roll
	]
	4 1 roll
	pop
	}
	{
	pop pop pop
	} ifelse
} bind def
/Mlp1 {
	5 index
	3 index	sub
	5 index
	2 index mul
	1 index
	le
	1 index
	0 le
	or
	dup
	not
	{
	1 index
	3 index	div
	.99999 mul
	8 -1 roll
	pop
	7 1 roll
	}
	if
	8 -1 roll
	2 div
	7 -2 roll
	pop sub
	5 index
	6 -3 roll
	pop pop
	mul sub
	exch
} bind def
/intop 0 def
/inrht 0 def
/inflag 0 def
/outflag 0 def
/xadrht 0 def
/xadlft 0 def
/yadtop 0 def
/yadbot 0 def
/Minner {
	outflag
	1
	eq
	{
	/outflag 0 def
	/intop 0 def
	/inrht 0 def
	} if
	5 index
	gsave
	Mtmatrix setmatrix
	Mvboxa pop
	grestore
	3 -1 roll
	pop
	dup
	intop
	gt
	{
	/intop
	exch def
	}
	{ pop }
	ifelse
	dup
	inrht
	gt
	{
	/inrht
	exch def
	}
	{ pop }
	ifelse
	pop
	/inflag
	1 def
} bind def
/Mouter {
	/xadrht 0 def
	/xadlft 0 def
	/yadtop 0 def
	/yadbot 0 def
	inflag
	1 eq
	{
	dup
	0 lt
	{
	dup
	intop
	mul
	neg
	/yadtop
	exch def
	} if
	dup
	0 gt
	{
	dup
	intop
	mul
	/yadbot
	exch def
	}
	if
	pop
	dup
	0 lt
	{
	dup
	inrht
	mul
	neg
	/xadrht
	exch def
	} if
	dup
	0 gt
	{
	dup
	inrht
	mul
	/xadlft
	exch def
	} if
	pop
	/outflag 1 def
	}
	{ pop pop}
	ifelse
	/inflag 0 def
	/inrht 0 def
	/intop 0 def
} bind def
/Mboxout {
	outflag
	1
	eq
	{
	4 -1
	roll
	xadlft
	leadjust
	add
	sub
	4 1 roll
	3 -1
	roll
	yadbot
	leadjust
	add
	sub
	3 1
	roll
	exch
	xadrht
	leadjust
	add
	add
	exch
	yadtop
	leadjust
	add
	add
	/outflag 0 def
	/xadlft 0 def
	/yadbot 0 def
	/xadrht 0 def
	/yadtop 0 def
	} if
} bind def
/leadjust {
	(m) stringwidth pop
	.5 mul
} bind def
/Mrotcheck {
	dup
	90
	eq
	{
	yadbot
	/yadbot
	xadrht
	def
	/xadrht
	yadtop
	def
	/yadtop
	xadlft
	def
	/xadlft
	exch
	def
	}
	if
	dup
	cos
	1 index
	sin
	Checkaux
	dup
	cos
	1 index
	sin neg
	exch
	Checkaux
	3 1 roll
	pop pop
} bind def
/Checkaux {
	4 index
	exch
	4 index
	mul
	3 1 roll
	mul add
	4 1 roll
} bind def
/Mboxrot {
	Mrot
	90 eq
	{
	brotaux
	4 2
	roll
	}
	if
	Mrot
	180 eq
	{
	4 2
        roll
	brotaux
	4 2
	roll
	brotaux
	}
	if
	Mrot
	270 eq
	{
	4 2
	roll
	brotaux
	}
	if
} bind def
/brotaux {
	neg
	exch
	neg
} bind def
/Mabsproc {
        0
        matrix defaultmatrix
        dtransform idtransform
        dup mul exch
        dup mul
        add sqrt
} bind def
/Mabswid {
        Mabsproc
        setlinewidth
} bind def
/Mabsdash {
        exch
        [
        exch
        {
        Mabsproc
        }
        forall
        ]
        exch
        setdash
} bind def
/MBeginOrig { Momatrix concat} bind def
/MEndOrig { Mgmatrix setmatrix} bind def
/sampledsound where
{ pop}
{ /sampledsound {
exch
pop
exch
5 1 roll
mul
4 idiv
mul
2 idiv
exch pop
exch
/Mtempproc exch def
{ Mtempproc pop }
repeat
} bind def
} ifelse
% Here are the short operators
/g { setgray} bind def
/k { setcmykcolor} bind def
/m { moveto} bind def
/p { gsave} bind def
/r { setrgbcolor} bind def
/w { setlinewidth} bind def
/C { curveto} bind def
/F { fill} bind def
/L { lineto} bind def
/P { grestore} bind def
/s { stroke} bind def

/MFill {
	0 0 		moveto
	Mwidth 0 	lineto
	Mwidth Mheight 	lineto
	0 Mheight 	lineto
	fill
} bind def

/MPlotRegion {
	3 index
	Mwidth mul
	2 index
	Mheight mul
	translate
	exch sub
	Mheight mul
	/Mheight
	exch def
	exch sub
	Mwidth mul
	/Mwidth
	exch def
} bind def

/Mcharproc
{
  	currentfile
  	(x)
  	readhexstring
  	pop
  	0 get
  	exch
 	div
} bind def

/Mshadeproc
{
	dup
	3 1
	roll
	{
	dup
	Mcharproc
	3 1
	roll
	} repeat
	1 eq
	{
	setgray
	}
	{
	3 eq
	{
	setrgbcolor
	}
	{
	setcmykcolor
	} ifelse
	} ifelse
} bind def

/Mrectproc
{
	3 index
	2 index
	moveto
	2 index
	3 -1
	roll
	lineto
	dup
	3 1
	roll
	lineto
	lineto
	fill
} bind def

/_Mcolorimage
{
	7 1
	roll
	pop
	pop
	matrix
	invertmatrix
	concat
	2 exch exp
	1 sub
	3 1 roll
	1 1
	2 index
	{
	1 1
	4 index
	{
	dup
	1 sub
	exch
	2 index
	dup
	1 sub
	exch
	7 index
	9 index
	Mshadeproc
	Mrectproc
	} for
	pop
	} for
	pop pop pop pop
} bind def

/_Mimage
{
	pop
	matrix
	invertmatrix
	concat
	2 exch exp
	1 sub
	3 1 roll
	1 1
	2 index
	{
	1 1
	4 index
	{
	dup
	1 sub 
	exch
	2 index
	dup
	1 sub
	exch
	7 index
	Mcharproc
	setgray
	Mrectproc
	} for
	pop
	} for
	pop pop pop
} bind def

/Mimage {
	4 index
	4 index
	mul 1600 gt
	{ image }
	{ _Mimage }
	ifelse
} def

/Mcolorimage {
	6 index
	6 index
	mul 1600 gt
	{ colorimage }
	{ _Mcolorimage }
	ifelse
} def
/Mnodistort true def
1.000000 1.000000 scale
153.000000 9.000000 translate
1.000000 -1.000000 scale
-0.000000 -0.000000 translate
/Mleft		0.000000 def
/Mbottom	0.000000 def
/Mwidth		250.0000 def
/Mheight	250.0000 def
0 setgray
0 setlinewidth
/Courier findfont 12 scalefont setfont
/Mfontsize 12 def
/Plain /Courier findfont def

%!
%%Creator: Mathematica
%%AspectRatio: .61803 
MathPictureStart
/Mabs {
Mgmatrix idtransform
Mtmatrix dtransform
} bind def
/Mabsadd { Mabs
3 -1 roll add
3 1 roll add
exch } bind def
%% Graphics
%%IncludeResource: font Courier
%%IncludeFont: Courier
/Courier findfont 10  scalefont  setfont
% Scaling calculations
-241.436 0.00107796 -421.301 0.00228845 [
[.24347 -0.01022 -18 -9 ]
[.24347 -0.01022 18 0 ]
[.45906 -0.01022 -18 -9 ]
[.45906 -0.01022 18 0 ]
[.67466 -0.01022 -18 -9 ]
[.67466 -0.01022 18 0 ]
[.89025 -0.01022 -18 -9 ]
[.89025 -0.01022 18 0 ]
[.01538 .1167 -36 -4.5 ]
[.01538 .1167 0 4.5 ]
[.01538 .23112 -36 -4.5 ]
[.01538 .23112 0 4.5 ]
[.01538 .34554 -36 -4.5 ]
[.01538 .34554 0 4.5 ]
[.01538 .45997 -36 -4.5 ]
[.01538 .45997 0 4.5 ]
[.01538 .57439 -36 -4.5 ]
[.01538 .57439 0 4.5 ]
[ 0 0 0 0 ]
[ 1 .61803 0 0 ]
] MathScale
% Start of Graphics
1 setlinecap
1 setlinejoin
newpath
0 g
.25 Mabswid
[ ] 0 setdash
.24347 .00228 m
.24347 .00853 L
s
[(224200)] .24347 -0.01022 0 1 Mshowa
.45906 .00228 m
.45906 .00853 L
s
[(224400)] .45906 -0.01022 0 1 Mshowa
.67466 .00228 m
.67466 .00853 L
s
[(224600)] .67466 -0.01022 0 1 Mshowa
.89025 .00228 m
.89025 .00853 L
s
[(224800)] .89025 -0.01022 0 1 Mshowa
.125 Mabswid
.08177 .00228 m
.08177 .00603 L
s
.13567 .00228 m
.13567 .00603 L
s
.18957 .00228 m
.18957 .00603 L
s
.29737 .00228 m
.29737 .00603 L
s
.35127 .00228 m
.35127 .00603 L
s
.40516 .00228 m
.40516 .00603 L
s
.51296 .00228 m
.51296 .00603 L
s
.56686 .00228 m
.56686 .00603 L
s
.62076 .00228 m
.62076 .00603 L
s
.72855 .00228 m
.72855 .00603 L
s
.78245 .00228 m
.78245 .00603 L
s
.83635 .00228 m
.83635 .00603 L
s
.94415 .00228 m
.94415 .00603 L
s
.99805 .00228 m
.99805 .00603 L
s
.25 Mabswid
0 .00228 m
1 .00228 L
s
.02788 .1167 m
.03413 .1167 L
s
[(184150)] .01538 .1167 1 0 Mshowa
.02788 .23112 m
.03413 .23112 L
s
[(184200)] .01538 .23112 1 0 Mshowa
.02788 .34554 m
.03413 .34554 L
s
[(184250)] .01538 .34554 1 0 Mshowa
.02788 .45997 m
.03413 .45997 L
s
[(184300)] .01538 .45997 1 0 Mshowa
.02788 .57439 m
.03413 .57439 L
s
[(184350)] .01538 .57439 1 0 Mshowa
.125 Mabswid
.02788 .02516 m
.03163 .02516 L
s
.02788 .04805 m
.03163 .04805 L
s
.02788 .07093 m
.03163 .07093 L
s
.02788 .09381 m
.03163 .09381 L
s
.02788 .13958 m
.03163 .13958 L
s
.02788 .16247 m
.03163 .16247 L
s
.02788 .18535 m
.03163 .18535 L
s
.02788 .20824 m
.03163 .20824 L
s
.02788 .25401 m
.03163 .25401 L
s
.02788 .27689 m
.03163 .27689 L
s
.02788 .29977 m
.03163 .29977 L
s
.02788 .32266 m
.03163 .32266 L
s
.02788 .36843 m
.03163 .36843 L
s
.02788 .39131 m
.03163 .39131 L
s
.02788 .4142 m
.03163 .4142 L
s
.02788 .43708 m
.03163 .43708 L
s
.02788 .48285 m
.03163 .48285 L
s
.02788 .50574 m
.03163 .50574 L
s
.02788 .52862 m
.03163 .52862 L
s
.02788 .5515 m
.03163 .5515 L
s
.02788 .59727 m
.03163 .59727 L
s
.25 Mabswid
.02788 0 m
.02788 .61803 L
s
0 0 m
1 0 L
1 .61803 L
0 .61803 L
closepath
clip
newpath
.5 g
.5 Mabswid
.02381 .39102 m
.02413 .35036 L
.02446 .3932 L
.02478 .46048 L
.0251 .40241 L
.02543 .4474 L
.02575 .35225 L
.02607 .38463 L
.0264 .44092 L
.02672 .44007 L
.02704 .44648 L
.02737 .40665 L
.02769 .39094 L
.02801 .37362 L
.02834 .34886 L
.02866 .33703 L
.02898 .37766 L
.02931 .43092 L
.02963 .34753 L
.02995 .464 L
.03028 .38511 L
.0306 .37948 L
.03092 .41142 L
.03125 .40066 L
.03157 .36252 L
.03189 .38772 L
.03222 .43627 L
.03254 .41271 L
.03286 .43692 L
.03319 .43316 L
.03351 .31093 L
.03383 .33643 L
.03416 .39622 L
.03448 .3915 L
.0348 .41713 L
.03513 .35456 L
.03545 .33322 L
.03577 .37068 L
.0361 .34555 L
.03642 .40314 L
.03675 .3664 L
.03707 .34267 L
.03739 .38483 L
.03772 .33378 L
.03804 .35617 L
.03836 .38793 L
.03869 .36567 L
.03901 .35328 L
.03933 .33526 L
.03966 .32831 L
Mistroke
.03998 .3188 L
.0403 .37016 L
.04063 .31387 L
.04095 .33372 L
.04127 .30437 L
.0416 .3083 L
.04192 .34486 L
.04224 .29212 L
.04257 .30094 L
.04289 .36032 L
.04321 .32266 L
.04354 .34815 L
.04386 .36024 L
.04418 .36522 L
.04451 .30401 L
.04483 .42999 L
.04515 .39929 L
.04548 .37769 L
.0458 .4161 L
.04612 .38627 L
.04645 .32195 L
.04677 .22785 L
.04709 .37972 L
.04742 .40084 L
.04774 .35186 L
.04806 .35235 L
.04839 .40049 L
.04871 .45772 L
.04903 .43435 L
.04936 .34504 L
.04968 .35087 L
.05 .32257 L
.05033 .37169 L
.05065 .38228 L
.05097 .37253 L
.0513 .36804 L
.05162 .34376 L
.05194 .40881 L
.05227 .37952 L
.05259 .37127 L
.05291 .42715 L
.05324 .38724 L
.05356 .41835 L
.05388 .4423 L
.05421 .42892 L
.05453 .48409 L
.05485 .43506 L
.05518 .43541 L
.0555 .46544 L
.05583 .44492 L
Mistroke
.05615 .40467 L
.05647 .45187 L
.0568 .49326 L
.05712 .44786 L
.05744 .44822 L
.05777 .45027 L
.05809 .42029 L
.05841 .47585 L
.05874 .35525 L
.05906 .42253 L
.05938 .46905 L
.05971 .40255 L
.06003 .42859 L
.06035 .43443 L
.06068 .43794 L
.061 .51431 L
.06132 .42823 L
.06165 .40889 L
.06197 .41839 L
.06229 .54126 L
.06262 .43413 L
.06294 .47439 L
.06326 .41825 L
.06359 .48319 L
.06391 .51698 L
.06423 .47375 L
.06456 .45781 L
.06488 .4495 L
.0652 .38198 L
.06553 .37834 L
.06585 .44214 L
.06617 .41724 L
.0665 .40302 L
.06682 .40016 L
.06714 .45572 L
.06747 .48474 L
.06779 .46439 L
.06811 .45181 L
.06844 .47012 L
.06876 .47387 L
.06908 .46645 L
.06941 .43668 L
.06973 .497 L
.07005 .39776 L
.07038 .4463 L
.0707 .42494 L
.07102 .4478 L
.07135 .43332 L
.07167 .42624 L
.07199 .39664 L
Mistroke
.07232 .38136 L
.07264 .49413 L
.07296 .45084 L
.07329 .41627 L
.07361 .46002 L
.07393 .36728 L
.07426 .43711 L
.07458 .42782 L
.07491 .45237 L
.07523 .48397 L
.07555 .38523 L
.07588 .36835 L
.0762 .47336 L
.07652 .47981 L
.07685 .47995 L
.07717 .37082 L
.07749 .4564 L
.07782 .45908 L
.07814 .47745 L
.07846 .41125 L
.07879 .45295 L
.07911 .39383 L
.07943 .4253 L
.07976 .41475 L
.08008 .36834 L
.0804 .39558 L
.08073 .37862 L
.08105 .49434 L
.08137 .38632 L
.0817 .43465 L
.08202 .41178 L
.08234 .43438 L
.08267 .50023 L
.08299 .37524 L
.08331 .40382 L
.08364 .43788 L
.08396 .49249 L
.08428 .46181 L
.08461 .44809 L
.08493 .47962 L
.08525 .41796 L
.08558 .39474 L
.0859 .45507 L
.08622 .39623 L
.08655 .43094 L
.08687 .46724 L
.08719 .3949 L
.08752 .44563 L
.08784 .42967 L
.08816 .47034 L
Mistroke
.08849 .4008 L
.08881 .4585 L
.08913 .42591 L
.08946 .43132 L
.08978 .44154 L
.0901 .44473 L
.09043 .4514 L
.09075 .47301 L
.09107 .4956 L
.0914 .50735 L
.09172 .47555 L
.09204 .44142 L
.09237 .50059 L
.09269 .53288 L
.09301 .49814 L
.09334 .45582 L
.09366 .50321 L
.09399 .44343 L
.09431 .50607 L
.09463 .4302 L
.09496 .5051 L
.09528 .50557 L
.0956 .42543 L
.09593 .37876 L
.09625 .49017 L
.09657 .44815 L
.0969 .38826 L
.09722 .4438 L
.09754 .44295 L
.09787 .44626 L
.09819 .46756 L
.09851 .454 L
.09884 .48448 L
.09916 .44674 L
.09948 .41134 L
.09981 .49031 L
.10013 .44772 L
.10045 .51606 L
.10078 .49584 L
.1011 .47778 L
.10142 .46835 L
.10175 .47348 L
.10207 .38454 L
.10239 .42634 L
.10272 .44757 L
.10304 .37924 L
.10336 .39328 L
.10369 .43069 L
.10401 .37129 L
.10433 .46722 L
Mistroke
.10466 .4703 L
.10498 .42148 L
.1053 .4492 L
.10563 .45067 L
.10595 .4029 L
.10627 .36026 L
.1066 .37467 L
.10692 .46877 L
.10724 .41309 L
.10757 .34574 L
.10789 .36356 L
.10821 .49488 L
.10854 .42501 L
.10886 .46745 L
.10918 .48749 L
.10951 .42429 L
.10983 .44444 L
.11015 .4257 L
.11048 .45584 L
.1108 .48004 L
.11112 .51521 L
.11145 .44105 L
.11177 .44762 L
.11209 .41824 L
.11242 .4388 L
.11274 .45379 L
.11307 .49509 L
.11339 .45176 L
.11371 .46732 L
.11404 .44755 L
.11436 .43761 L
.11468 .49335 L
.11501 .47674 L
.11533 .50808 L
.11565 .47309 L
.11598 .52894 L
.1163 .4954 L
.11662 .47286 L
.11695 .51319 L
.11727 .51412 L
.11759 .49216 L
.11792 .50348 L
.11824 .50259 L
.11856 .49118 L
.11889 .48248 L
.11921 .49053 L
.11953 .52771 L
.11986 .4488 L
.12018 .49062 L
.1205 .47912 L
Mistroke
.12083 .45577 L
.12115 .46049 L
.12147 .43353 L
.1218 .46575 L
.12212 .46477 L
.12244 .46323 L
.12277 .44811 L
.12309 .48168 L
.12341 .48689 L
.12374 .37223 L
.12406 .46726 L
.12438 .4298 L
.12471 .42889 L
.12503 .5277 L
.12535 .45288 L
.12568 .52049 L
.126 .43187 L
.12632 .44627 L
.12665 .38415 L
.12697 .43032 L
.12729 .4612 L
.12762 .49673 L
.12794 .41248 L
.12826 .4441 L
.12859 .45117 L
.12891 .43487 L
.12923 .40213 L
.12956 .43328 L
.12988 .46414 L
.1302 .50151 L
.13053 .44879 L
.13085 .52464 L
.13117 .45909 L
.1315 .4409 L
.13182 .46266 L
.13215 .47477 L
.13247 .42268 L
.13279 .40502 L
.13312 .39517 L
.13344 .40923 L
.13376 .36068 L
.13409 .493 L
.13441 .44359 L
.13473 .33521 L
.13506 .40437 L
.13538 .46732 L
.1357 .35268 L
.13603 .40799 L
.13635 .46845 L
.13667 .45902 L
Mistroke
.137 .43459 L
.13732 .44458 L
.13764 .41335 L
.13797 .3913 L
.13829 .45148 L
.13861 .43705 L
.13894 .39172 L
.13926 .45549 L
.13958 .47596 L
.13991 .45463 L
.14023 .48202 L
.14055 .48039 L
.14088 .47701 L
.1412 .4903 L
.14152 .42506 L
.14185 .477 L
.14217 .41001 L
.14249 .47348 L
.14282 .40045 L
.14314 .50361 L
.14346 .39849 L
.14379 .42815 L
.14411 .39145 L
.14443 .40671 L
.14476 .41507 L
.14508 .41644 L
.1454 .41422 L
.14573 .37171 L
.14605 .37996 L
.14637 .38479 L
.1467 .43055 L
.14702 .46334 L
.14734 .41606 L
.14767 .42754 L
.14799 .34392 L
.14831 .38749 L
.14864 .42998 L
.14896 .36962 L
.14928 .41535 L
.14961 .38818 L
.14993 .32846 L
.15025 .3965 L
.15058 .43406 L
.1509 .3722 L
.15122 .35497 L
.15155 .31084 L
.15187 .38613 L
.1522 .35799 L
.15252 .29389 L
.15284 .42175 L
Mistroke
.15317 .4117 L
.15349 .38473 L
.15381 .31668 L
.15414 .4017 L
.15446 .35875 L
.15478 .36642 L
.15511 .37227 L
.15543 .46129 L
.15575 .36637 L
.15608 .41865 L
.1564 .43885 L
.15672 .42801 L
.15705 .42458 L
.15737 .44611 L
.15769 .33294 L
.15802 .37924 L
.15834 .35404 L
.15866 .39782 L
.15899 .34484 L
.15931 .41845 L
.15963 .37115 L
.15996 .28783 L
.16028 .35405 L
.1606 .40787 L
.16093 .29796 L
.16125 .33561 L
.16157 .36228 L
.1619 .32908 L
.16222 .38755 L
.16254 .39565 L
.16287 .36509 L
.16319 .38663 L
.16351 .41937 L
.16384 .40818 L
.16416 .29818 L
.16448 .42125 L
.16481 .34702 L
.16513 .31437 L
.16545 .30183 L
.16578 .33808 L
.1661 .31618 L
.16642 .33654 L
.16675 .38608 L
.16707 .35223 L
.16739 .34317 L
.16772 .3485 L
.16804 .41579 L
.16836 .32352 L
.16869 .33923 L
.16901 .33836 L
Mistroke
.16933 .45197 L
.16966 .46555 L
.16998 .36899 L
.1703 .40389 L
.17063 .40461 L
.17095 .38054 L
.17128 .3915 L
.1716 .3661 L
.17192 .42485 L
.17225 .4073 L
.17257 .39785 L
.17289 .35089 L
.17322 .43019 L
.17354 .38896 L
.17386 .39621 L
.17419 .39192 L
.17451 .33836 L
.17483 .37124 L
.17516 .3813 L
.17548 .3501 L
.1758 .3024 L
.17613 .34281 L
.17645 .38826 L
.17677 .37159 L
.1771 .37462 L
.17742 .364 L
.17774 .34928 L
.17807 .37638 L
.17839 .38776 L
.17871 .39264 L
.17904 .33365 L
.17936 .34956 L
.17968 .2837 L
.18001 .33147 L
.18033 .31367 L
.18065 .38012 L
.18098 .32548 L
.1813 .33056 L
.18162 .39715 L
.18195 .37343 L
.18227 .3889 L
.18259 .36322 L
.18292 .28257 L
.18324 .35759 L
.18356 .374 L
.18389 .34775 L
.18421 .38621 L
.18453 .33907 L
.18486 .41761 L
.18518 .37856 L
Mistroke
.1855 .38658 L
.18583 .32114 L
.18615 .40173 L
.18647 .42441 L
.1868 .33155 L
.18712 .37976 L
.18744 .36752 L
.18777 .33114 L
.18809 .365 L
.18841 .30777 L
.18874 .36103 L
.18906 .39885 L
.18938 .37393 L
.18971 .36603 L
.19003 .39564 L
.19036 .27185 L
.19068 .31396 L
.191 .35576 L
.19133 .41121 L
.19165 .35829 L
.19197 .37587 L
.1923 .35484 L
.19262 .32127 L
.19294 .33782 L
.19327 .35186 L
.19359 .3872 L
.19391 .41803 L
.19424 .37101 L
.19456 .36272 L
.19488 .38791 L
.19521 .34667 L
.19553 .35005 L
.19585 .35977 L
.19618 .4716 L
.1965 .32774 L
.19682 .41157 L
.19715 .34885 L
.19747 .4437 L
.19779 .39213 L
.19812 .3834 L
.19844 .3608 L
.19876 .339 L
.19909 .39663 L
.19941 .4309 L
.19973 .399 L
.20006 .38756 L
.20038 .36631 L
.2007 .3979 L
.20113 .41669 L
.20157 .44223 L
Mistroke
.202 .44576 L
.20232 .33891 L
.20264 .38073 L
.20297 .34984 L
.20329 .40198 L
.20361 .40698 L
.20394 .39227 L
.20426 .43765 L
.20458 .38629 L
.20491 .39127 L
.20523 .42415 L
.20555 .39381 L
.20588 .36785 L
.2062 .30071 L
.20652 .35764 L
.20685 .41183 L
.20717 .39793 L
.20749 .3366 L
.20782 .34815 L
.20814 .43421 L
.20846 .4034 L
.20879 .41098 L
.20911 .42479 L
.20944 .39685 L
.20976 .38085 L
.21008 .42817 L
.21041 .47229 L
.21073 .46222 L
.21105 .44921 L
.21138 .45891 L
.2117 .37138 L
.21202 .47799 L
.21235 .46574 L
.21267 .45434 L
.21299 .40571 L
.21332 .45996 L
.21364 .49838 L
.21396 .54218 L
.21429 .46842 L
.21461 .4725 L
.21493 .42571 L
.21526 .48375 L
.21558 .45373 L
.2159 .50326 L
.21623 .50213 L
.21655 .45496 L
.21687 .48458 L
.2172 .48067 L
.21752 .47224 L
.21784 .47342 L
Mistroke
.21817 .47786 L
.21849 .47962 L
.21881 .40709 L
.21914 .48525 L
.21946 .43844 L
.21978 .42741 L
.22011 .42585 L
.22043 .41305 L
.22075 .51194 L
.22108 .47514 L
.2214 .42057 L
.22172 .4466 L
.22205 .39939 L
.22237 .37169 L
.22269 .42348 L
.22302 .44656 L
.22334 .41749 L
.22366 .4552 L
.22399 .43823 L
.22431 .48249 L
.22463 .43211 L
.22496 .48236 L
.22528 .47667 L
.2256 .34063 L
.22593 .45547 L
.22625 .42352 L
.22657 .40987 L
.2269 .41234 L
.22722 .43428 L
.22754 .4901 L
.22787 .52875 L
.22819 .4041 L
.22852 .39812 L
.22884 .34173 L
.22916 .43625 L
.22949 .36511 L
.22981 .46179 L
.23013 .3338 L
.23046 .37596 L
.23078 .40221 L
.2311 .44197 L
.23143 .35562 L
.23175 .35928 L
.23207 .41783 L
.2324 .39389 L
.23272 .35518 L
.23304 .35384 L
.23337 .38579 L
.23369 .46329 L
.23401 .38706 L
Mistroke
.23434 .34359 L
.23466 .39701 L
.23498 .4195 L
.23531 .35758 L
.23563 .35449 L
.23595 .34047 L
.23628 .36012 L
.2366 .38256 L
.23692 .31719 L
.23725 .38089 L
.23757 .35412 L
.23789 .34894 L
.23822 .4271 L
.23854 .35695 L
.23886 .3245 L
.23919 .31404 L
.23951 .30847 L
.23983 .30768 L
.24016 .31171 L
.24048 .35759 L
.2408 .37778 L
.24113 .3215 L
.24145 .30627 L
.24177 .35068 L
.2421 .3437 L
.24242 .38046 L
.24274 .39508 L
.24307 .37826 L
.24339 .41935 L
.24371 .46615 L
.24404 .46926 L
.24436 .37841 L
.24468 .33187 L
.24501 .41169 L
.24533 .40493 L
.24565 .40408 L
.24598 .37453 L
.2463 .31844 L
.24662 .37334 L
.24695 .48514 L
.24727 .37813 L
.2476 .39775 L
.24792 .40299 L
.24824 .42943 L
.24857 .40276 L
.24889 .36567 L
.24921 .36883 L
.24954 .33204 L
.24986 .38832 L
.25018 .362 L
Mistroke
.25051 .42591 L
.25083 .45855 L
.25115 .32737 L
.25148 .38205 L
.2518 .43047 L
.25212 .3922 L
.25245 .32261 L
.25277 .36861 L
.25309 .41851 L
.25342 .29987 L
.25374 .43618 L
.25406 .32449 L
.25439 .34379 L
.25471 .33314 L
.25503 .3461 L
.25536 .34625 L
.25568 .30521 L
.256 .35145 L
.25633 .34884 L
.25665 .38109 L
.25697 .34435 L
.2573 .36048 L
.25762 .40881 L
.25794 .37039 L
.25827 .32682 L
.25859 .32656 L
.25891 .37677 L
.25924 .32048 L
.25956 .38198 L
.25988 .39516 L
.26021 .38017 L
.26053 .31275 L
.26085 .35862 L
.26118 .31952 L
.2615 .37177 L
.26182 .42634 L
.26215 .4395 L
.26247 .35695 L
.26279 .38727 L
.26312 .38082 L
.26344 .39271 L
.26376 .33544 L
.26409 .32783 L
.26441 .37482 L
.26473 .38842 L
.26506 .37884 L
.26538 .35427 L
.2657 .42487 L
.26603 .40818 L
.26635 .35983 L
Mistroke
.26668 .4461 L
.267 .31169 L
.26732 .34077 L
.26765 .39308 L
.26797 .31931 L
.26829 .29854 L
.26862 .39411 L
.26894 .36184 L
.26926 .31272 L
.26959 .3794 L
.26991 .36928 L
.27023 .4626 L
.27056 .39681 L
.27088 .41671 L
.2712 .41412 L
.27153 .46071 L
.27185 .39108 L
.27217 .38447 L
.2725 .40665 L
.27282 .36449 L
.27314 .43443 L
.27347 .3906 L
.27379 .40149 L
.27411 .37596 L
.27444 .39471 L
.27476 .41292 L
.27508 .4609 L
.27541 .41396 L
.27573 .36415 L
.27605 .35962 L
.27638 .39236 L
.2767 .3685 L
.27702 .32093 L
.27735 .32844 L
.27767 .35132 L
.27799 .34745 L
.27832 .36097 L
.27864 .31037 L
.27896 .38327 L
.27929 .31627 L
.27961 .32734 L
.27993 .397 L
.28026 .38448 L
.28058 .30137 L
.2809 .33677 L
.28123 .32099 L
.28155 .29672 L
.28187 .33064 L
.2822 .36414 L
.28252 .37258 L
Mistroke
.28284 .30856 L
.28317 .39641 L
.28349 .30728 L
.28381 .38426 L
.28414 .38763 L
.28446 .41904 L
.28478 .36302 L
.28511 .26638 L
.28543 .40821 L
.28576 .36048 L
.28608 .38073 L
.2864 .31748 L
.28673 .3466 L
.28705 .31917 L
.28737 .37765 L
.2877 .42571 L
.28802 .33071 L
.28834 .34731 L
.28867 .33499 L
.28899 .30374 L
.28931 .32935 L
.28964 .32556 L
.28996 .3682 L
.29028 .34154 L
.29061 .28724 L
.29093 .36435 L
.29125 .30798 L
.29158 .27876 L
.2919 .37131 L
.29222 .4215 L
.29255 .36112 L
.29287 .34873 L
.29319 .36619 L
.29352 .30123 L
.29384 .33207 L
.29416 .32784 L
.29449 .4101 L
.29481 .36916 L
.29513 .37246 L
.29546 .38758 L
.29578 .37153 L
.2961 .35091 L
.29643 .36261 L
.29675 .34028 L
.29707 .33635 L
.2974 .29068 L
.29772 .43311 L
.29804 .38172 L
.29837 .33254 L
.29869 .3457 L
Mistroke
.29901 .36519 L
.29934 .43609 L
.29966 .33077 L
.29998 .30931 L
.30031 .36737 L
.30063 .35659 L
.30095 .38241 L
.30128 .35328 L
.3016 .39306 L
.30192 .32225 L
.30225 .42436 L
.30257 .33653 L
.30289 .34324 L
.30322 .37891 L
.30354 .33493 L
.30386 .31063 L
.30419 .28494 L
.30451 .32057 L
.30483 .25503 L
.30516 .33141 L
.30548 .28437 L
.30581 .23519 L
.30613 .23513 L
.30645 .24033 L
.30678 .30978 L
.3071 .2425 L
.30742 .27228 L
.30775 .32033 L
.30807 .28304 L
.30839 .23208 L
.30872 .26965 L
.30904 .20696 L
.30936 .26262 L
.30969 .23785 L
.31001 .29098 L
.31033 .28403 L
.31066 .2829 L
.31098 .27296 L
.3113 .23511 L
.31163 .21146 L
.31195 .20935 L
.31227 .21386 L
.3126 .20957 L
.31292 .20076 L
.31324 .30311 L
.31357 .31379 L
.31389 .27361 L
.31421 .243 L
.31454 .26987 L
.31486 .34131 L
Mistroke
.31518 .30865 L
.31551 .17304 L
.31583 .33209 L
.31615 .29923 L
.31648 .32309 L
.3168 .29251 L
.31712 .26187 L
.31745 .34222 L
.31777 .40831 L
.31809 .30952 L
.31842 .33154 L
.31874 .35661 L
.31906 .3794 L
.31939 .28606 L
.31971 .39078 L
.32003 .27798 L
.32036 .31353 L
.32068 .32676 L
.321 .32521 L
.32133 .31303 L
.32165 .35161 L
.32197 .33429 L
.3223 .32718 L
.32262 .3511 L
.32294 .32599 L
.32327 .36533 L
.32359 .40122 L
.32391 .35597 L
.32424 .38053 L
.32456 .40916 L
.32489 .40496 L
.32521 .38383 L
.32553 .3882 L
.32586 .37554 L
.32618 .42049 L
.3265 .35486 L
.32683 .30431 L
.32715 .40692 L
.32747 .34239 L
.3278 .3499 L
.32812 .34688 L
.32844 .37518 L
.32877 .31865 L
.32909 .35619 L
.32941 .35778 L
.32974 .32971 L
.33006 .39256 L
.33038 .31613 L
.33071 .34548 L
.33103 .36174 L
Mistroke
.33135 .40022 L
.33168 .42409 L
.332 .36153 L
.33232 .36067 L
.33265 .3504 L
.33297 .32895 L
.33329 .3024 L
.33362 .382 L
.33394 .30846 L
.33426 .3229 L
.33459 .32091 L
.33491 .2993 L
.33523 .26137 L
.33556 .27094 L
.33588 .28488 L
.3362 .2518 L
.33653 .35434 L
.33685 .33497 L
.33717 .315 L
.3375 .25786 L
.33782 .24517 L
.33814 .25476 L
.33847 .27698 L
.33879 .26263 L
.33911 .19739 L
.33944 .22567 L
.33976 .26466 L
.34008 .22328 L
.34041 .25779 L
.34073 .2689 L
.34105 .31653 L
.34138 .18644 L
.3417 .25284 L
.34202 .23856 L
.34235 .26278 L
.34267 .26413 L
.34299 .24806 L
.34332 .26045 L
.34364 .31548 L
.34397 .22463 L
.34429 .15736 L
.34461 .28578 L
.34494 .22943 L
.34526 .26987 L
.34558 .32162 L
.34591 .3333 L
.34623 .34365 L
.34655 .21444 L
.34688 .29875 L
.3472 .3585 L
Mistroke
.34752 .28741 L
.34785 .30198 L
.34817 .22181 L
.34849 .2995 L
.34882 .31992 L
.34914 .26784 L
.34946 .24505 L
.34979 .25181 L
.35011 .26433 L
.35043 .31711 L
.35076 .30444 L
.35108 .28974 L
.3514 .29551 L
.35173 .28909 L
.35205 .25371 L
.35237 .26793 L
.3527 .2639 L
.35302 .30248 L
.35334 .31106 L
.35367 .28285 L
.35399 .26335 L
.35431 .31197 L
.35464 .29233 L
.35496 .3214 L
.35528 .291 L
.35561 .29135 L
.35593 .2829 L
.35625 .25807 L
.35658 .22822 L
.3569 .30733 L
.35722 .19762 L
.35755 .25378 L
.35787 .25954 L
.35819 .28199 L
.35852 .26202 L
.35884 .21781 L
.35916 .23357 L
.35949 .27708 L
.35981 .2447 L
.36013 .35406 L
.36046 .2682 L
.36078 .26497 L
.3611 .35151 L
.36143 .27233 L
.36175 .3017 L
.36207 .31119 L
.3624 .26322 L
.36272 .30304 L
.36304 .29041 L
.36337 .33216 L
Mistroke
.36369 .315 L
.36401 .34808 L
.36434 .33332 L
.36466 .2955 L
.36498 .3202 L
.36531 .27981 L
.36563 .31627 L
.36595 .28677 L
.36628 .33323 L
.3666 .33153 L
.36692 .36854 L
.36725 .28199 L
.36757 .30198 L
.36789 .33145 L
.36822 .32851 L
.36854 .29833 L
.36887 .33688 L
.36919 .34721 L
.36951 .33963 L
.36984 .38876 L
.37016 .37712 L
.37048 .32548 L
.37081 .36602 L
.37113 .32499 L
.37145 .34306 L
.37178 .40916 L
.3721 .3556 L
.37242 .32273 L
.37275 .29601 L
.37307 .33483 L
.37339 .41021 L
.37372 .33145 L
.37404 .33646 L
.37436 .39199 L
.37469 .29824 L
.37501 .36701 L
.37533 .32941 L
.37566 .3559 L
.37598 .32085 L
.3763 .36912 L
.37663 .33125 L
.37695 .34288 L
.37727 .35229 L
.3776 .35343 L
.37792 .37328 L
.37824 .34683 L
.37857 .36847 L
.37889 .36806 L
.37921 .39439 L
.37954 .37193 L
Mistroke
.37986 .3779 L
.38018 .30495 L
.38051 .32804 L
.38083 .38299 L
.38115 .32212 L
.38148 .29073 L
.3818 .31676 L
.38212 .34766 L
.38245 .28278 L
.38277 .32872 L
.38309 .30826 L
.38342 .264 L
.38374 .31171 L
.38406 .32163 L
.38439 .36138 L
.38471 .27976 L
.38503 .36314 L
.38536 .30546 L
.38568 .3264 L
.386 .29046 L
.38633 .33478 L
.38665 .3236 L
.38697 .2673 L
.3873 .29975 L
.38762 .29164 L
.38795 .25431 L
.38827 .3205 L
.38859 .27018 L
.38892 .33408 L
.38924 .28848 L
.38956 .27997 L
.38989 .32839 L
.39021 .2417 L
.39053 .33486 L
.39086 .29935 L
.39118 .25279 L
.39139 .02017 L
.39172 .04039 L
.39204 .0796 L
.39236 .01114 L
Mfstroke
.39236 .01114 m
.39252 0 L
s
.39277 0 m
.39301 .03539 L
.39333 .09378 L
.39366 .04863 L
.39398 .00843 L
.3943 .09205 L
s
.3943 .09205 m
.39453 0 L
s
.39513 0 m
.39528 .05432 L
.3956 .07952 L
.39592 .0044 L
s
.39592 .0044 m
.39605 0 L
s
.39627 0 m
.39657 .06709 L
.39689 .05998 L
s
.39689 .05998 m
.3971 0 L
s
.39742 0 m
.39754 .01818 L
.39786 .01087 L
s
.39786 .01087 m
.39803 0 L
s
.39877 0 m
.39883 .00701 L
s
.39883 .00701 m
.39893 0 L
s
.39932 0 m
.39948 .0159 L
s
.39948 .0159 m
.39961 0 L
s
.3999 0 m
.40013 .05785 L
.40045 .02435 L
s
.40045 .02435 m
.4007 0 L
s
.40119 0 m
.40142 .05062 L
.40174 .0613 L
.40207 .03739 L
.40239 .03013 L
s
.40239 .03013 m
.40257 0 L
s
.40354 0 m
.40368 .02781 L
.40401 .01233 L
.40433 .04934 L
.40465 .06961 L
s
.40465 .06961 m
.40496 0 L
s
.40505 0 m
.4053 .01144 L
s
.4053 .01144 m
.40542 0 L
s
.40584 0 m
.40595 .00952 L
.40627 .03182 L
.40659 .05753 L
.40692 .05394 L
.40724 .06103 L
s
.40724 .06103 m
.40743 0 L
s
.40803 0 m
.40821 .05137 L
.43473 .42601 L
.43505 .41307 L
.43538 .42369 L
.4357 .37752 L
.43602 .40814 L
.43635 .3712 L
.43667 .37896 L
.43699 .34566 L
.43732 .40035 L
.43764 .33417 L
.43796 .38289 L
.43829 .42164 L
.43861 .41264 L
.43893 .37859 L
.43926 .31665 L
.43958 .35508 L
.4399 .3458 L
.44023 .40307 L
.44055 .46604 L
.44087 .32799 L
.4412 .3284 L
.44152 .3849 L
.44184 .46049 L
.44217 .45168 L
.44249 .3398 L
.44281 .43964 L
.44314 .41208 L
.44346 .42755 L
.44378 .41425 L
.44411 .44365 L
.44443 .45549 L
.44475 .43767 L
.44508 .406 L
.4454 .46076 L
.44572 .52071 L
.44605 .4305 L
.44637 .44859 L
.44669 .49827 L
.44702 .47039 L
.44734 .41094 L
.44766 .4471 L
.44799 .47314 L
.44831 .43332 L
.44863 .39118 L
.44896 .40622 L
.44928 .45274 L
.4496 .47596 L
.44993 .46563 L
Mistroke
.45025 .43155 L
.45057 .47701 L
.4509 .53656 L
.45122 .54098 L
.45154 .46113 L
.45187 .4319 L
.45219 .44021 L
.45252 .55049 L
.45284 .39596 L
.45316 .44718 L
.45349 .40242 L
.45381 .42509 L
.45413 .50131 L
.45446 .4695 L
.45478 .42122 L
.4551 .44164 L
.45543 .44064 L
.45575 .50003 L
.45607 .40265 L
.4564 .40503 L
.45672 .46732 L
.45704 .45212 L
.45737 .44796 L
.45769 .44733 L
.45801 .53185 L
.45834 .53521 L
.45866 .46372 L
.45898 .42219 L
.45931 .47681 L
.45963 .45105 L
.45995 .4676 L
.46028 .43648 L
.4606 .44572 L
.46092 .47236 L
.46125 .44409 L
.46157 .41516 L
.46189 .48096 L
.46222 .4428 L
.46254 .4823 L
.46286 .48821 L
.46319 .4644 L
.46351 .44008 L
.46383 .51628 L
.46416 .52979 L
.46448 .49995 L
.4648 .47517 L
.46513 .46181 L
.46545 .50742 L
.46577 .45167 L
.4661 .49292 L
Mistroke
.46642 .4614 L
.46674 .50332 L
.46707 .45075 L
.46739 .48708 L
.46771 .49995 L
.46804 .50481 L
.46836 .46997 L
.46868 .54042 L
.46901 .49207 L
.46933 .49953 L
.46965 .43943 L
.46998 .50099 L
.4703 .45071 L
.47062 .41757 L
.47095 .5037 L
.47127 .52943 L
.4716 .51247 L
.47192 .44527 L
.47224 .44358 L
.47257 .52323 L
.47289 .41052 L
.47321 .51923 L
.47354 .48488 L
.47386 .54654 L
.47418 .50945 L
.47451 .52817 L
.47483 .53979 L
.47515 .48413 L
.47548 .60332 L
.4758 .53429 L
.47612 .52712 L
.47645 .50172 L
.47677 .50945 L
.47709 .53403 L
.47742 .45696 L
.47774 .50248 L
.47806 .53551 L
.47839 .4709 L
.47871 .56655 L
.47903 .57492 L
.47936 .50812 L
.47968 .52734 L
.48 .50933 L
.48033 .54149 L
.48065 .51186 L
.48097 .4626 L
.4813 .50608 L
.48162 .54436 L
.48194 .51412 L
.48227 .50241 L
Mistroke
.48259 .54562 L
.48291 .47733 L
.48324 .54353 L
.48356 .50469 L
.48388 .54825 L
.48421 .52045 L
.48453 .56575 L
.48485 .45613 L
.48518 .49131 L
.4855 .40885 L
.48582 .4531 L
.48615 .50102 L
.48647 .54373 L
.48679 .42706 L
.48712 .53833 L
.48744 .52883 L
.48776 .47161 L
.48809 .51763 L
.48841 .50771 L
.48873 .47591 L
.48906 .48405 L
.48938 .46639 L
.4897 .57673 L
.49003 .49927 L
.49035 .53782 L
.49068 .54181 L
.491 .49812 L
.49132 .5628 L
.49165 .56011 L
.49197 .45887 L
.49229 .47525 L
.49262 .5034 L
.49294 .48421 L
.49326 .46864 L
.49359 .51135 L
.49391 .50792 L
.49423 .45344 L
.49456 .46393 L
.49488 .47948 L
.4952 .45673 L
.49553 .4908 L
.49585 .46815 L
.49617 .48179 L
.4965 .4946 L
.49682 .45 L
.49714 .48898 L
.49747 .4443 L
.49779 .4063 L
.49811 .50129 L
.49844 .49342 L
Mistroke
.49876 .49018 L
.49908 .44043 L
.49941 .42762 L
.49973 .49319 L
.50005 .52958 L
.50038 .51896 L
.5007 .4738 L
.50102 .50447 L
.50135 .46154 L
.50167 .46681 L
.50199 .4664 L
.50232 .49665 L
.50264 .44971 L
.50296 .41713 L
.50329 .51487 L
.50361 .50459 L
.50393 .47596 L
.50426 .50362 L
.50458 .5174 L
.5049 .50382 L
.50523 .50292 L
.50555 .44261 L
.50587 .41981 L
.5062 .42387 L
.50652 .48081 L
.50684 .46885 L
.50717 .41693 L
.50749 .46823 L
.50781 .39898 L
.50814 .49869 L
.50846 .42656 L
.50878 .45133 L
.50911 .47259 L
.50943 .54283 L
.50976 .43226 L
.51008 .45034 L
.5104 .49786 L
.51073 .46393 L
.51105 .46197 L
.51137 .52051 L
.5117 .49004 L
.51202 .45141 L
.51234 .46838 L
.51267 .47963 L
.51299 .53693 L
.51331 .49512 L
.51364 .48991 L
.51396 .47098 L
.51428 .45397 L
.51461 .45234 L
Mistroke
.51493 .43989 L
.51525 .49478 L
.51558 .51146 L
.5159 .4968 L
.51622 .49878 L
.51655 .4531 L
.51687 .50095 L
.51719 .52727 L
.51752 .49356 L
.51784 .53586 L
.51816 .49179 L
.51849 .49864 L
.51881 .39223 L
.51913 .48547 L
.51946 .45211 L
.51978 .46689 L
.5201 .49393 L
.52043 .53731 L
.52075 .54885 L
.52107 .50088 L
.5214 .4782 L
.52172 .49327 L
.52204 .49341 L
.52237 .49806 L
.52269 .58729 L
.52301 .53888 L
.52334 .52938 L
.52366 .44543 L
.52398 .52149 L
.52431 .53112 L
.52463 .48109 L
.52495 .50938 L
.52528 .41334 L
.5256 .4516 L
.52592 .47365 L
.52625 .46414 L
.52657 .48005 L
.52689 .53816 L
.52722 .44528 L
.52754 .34423 L
.52786 .47525 L
.52819 .40199 L
.52851 .39369 L
.52884 .47778 L
.52916 .46779 L
.52948 .4481 L
.52981 .44807 L
.53013 .3982 L
.53045 .47328 L
.53078 .40346 L
Mistroke
.5311 .48137 L
.53142 .47673 L
.53175 .5348 L
.53207 .41918 L
.53239 .43162 L
.53272 .42677 L
.53304 .41544 L
.53336 .37272 L
.53369 .50002 L
.53401 .46837 L
.53433 .36794 L
.53466 .44633 L
.53498 .43014 L
.5353 .48995 L
.53563 .45583 L
.53595 .46025 L
.53627 .39734 L
.5366 .42557 L
.53692 .40332 L
.53724 .43358 L
.53757 .37925 L
.53789 .37383 L
.53821 .4143 L
.53854 .37559 L
.53886 .41606 L
.53918 .36475 L
.53951 .42689 L
.53983 .40212 L
.54015 .38248 L
.54048 .34146 L
.5408 .34934 L
.54112 .42872 L
.54145 .37341 L
.54177 .41549 L
.54209 .39826 L
.54242 .41726 L
.54274 .44773 L
.54306 .37757 L
.54339 .40867 L
.54371 .44948 L
.54403 .45252 L
.54436 .46053 L
.54468 .4924 L
.545 .42907 L
.54533 .46793 L
.54565 .49868 L
.54597 .43352 L
.5463 .41761 L
.54662 .46033 L
.54694 .468 L
Mistroke
.54727 .51093 L
.54759 .40247 L
.54792 .36553 L
.54824 .39522 L
.54856 .39326 L
.54889 .41184 L
.54921 .44393 L
.54953 .46672 L
.54986 .4193 L
.55018 .53322 L
.5505 .45609 L
.55083 .46301 L
.55115 .48538 L
.55147 .42013 L
.5518 .43829 L
.55212 .4414 L
.55244 .47602 L
.55277 .42338 L
.55309 .39363 L
.55341 .4027 L
.55374 .49635 L
.55406 .39124 L
.55438 .45434 L
.55471 .42379 L
.55503 .40388 L
.55535 .42557 L
.55568 .44666 L
.556 .44999 L
.55632 .45412 L
.55665 .47849 L
.55697 .45658 L
.55729 .38545 L
.55762 .3934 L
.55794 .50537 L
.55826 .48713 L
.55859 .39544 L
.55891 .4758 L
.55923 .46341 L
.55956 .45434 L
.55988 .47573 L
.5602 .44829 L
.56053 .39593 L
.56085 .46392 L
.56117 .45236 L
.5615 .41367 L
.56182 .42957 L
.56214 .49418 L
.56247 .48179 L
.56279 .50799 L
.56311 .42318 L
Mistroke
.56344 .34569 L
.56376 .4701 L
.56408 .36483 L
.56441 .46638 L
.56473 .46419 L
.56505 .42428 L
.56538 .45137 L
.5657 .42338 L
.56602 .48101 L
.56635 .4471 L
.56667 .47476 L
.56699 .48313 L
.56732 .36842 L
.56764 .40993 L
.56797 .46187 L
.56829 .46447 L
.56861 .46004 L
.56894 .47392 L
.56926 .43922 L
.56958 .4855 L
.56991 .40079 L
.57023 .40375 L
.57055 .45666 L
.57088 .44568 L
.5712 .41486 L
.57152 .4594 L
.57185 .40355 L
.57217 .48658 L
.57249 .42253 L
.57282 .47003 L
.57314 .36293 L
.57346 .41148 L
.57379 .41789 L
.57411 .46193 L
.57443 .49565 L
.57476 .54821 L
.57508 .40889 L
.5754 .43302 L
.57573 .43887 L
.57605 .53521 L
.57637 .51691 L
.5767 .48157 L
.57702 .46315 L
.57734 .45554 L
.57767 .4364 L
.57799 .44323 L
.57831 .44154 L
.57864 .48566 L
.57896 .43956 L
.57928 .4077 L
Mistroke
.57961 .41107 L
.57993 .47728 L
.58025 .47166 L
.58058 .52036 L
.5809 .46096 L
.58122 .47279 L
.58155 .4851 L
.58187 .40889 L
.58219 .34401 L
.58252 .38722 L
.58284 .37532 L
.58316 .38736 L
.58349 .50031 L
.58381 .44521 L
.58413 .37849 L
.58446 .473 L
.58478 .42986 L
.5851 .42332 L
.58543 .39757 L
.58575 .38609 L
.58607 .4003 L
.5864 .43641 L
.58672 .39812 L
.58705 .4024 L
.58737 .43534 L
.58769 .44224 L
.58802 .42732 L
.58834 .39355 L
.58866 .37653 L
.58899 .4314 L
.58931 .37541 L
.58963 .45751 L
.58996 .32832 L
.59028 .42924 L
.5906 .44134 L
.59093 .44239 L
.59125 .37061 L
.59157 .41263 L
.5919 .45624 L
.59222 .44155 L
.59254 .47117 L
.59287 .44577 L
.59319 .42163 L
.59351 .41453 L
.59384 .36147 L
.59416 .50144 L
.59448 .41325 L
.59481 .4958 L
.59513 .42979 L
.59545 .48476 L
Mistroke
.59578 .42228 L
.5961 .52022 L
.59642 .41616 L
.59675 .4286 L
.59707 .42359 L
.59739 .4462 L
.59772 .46497 L
.59804 .5255 L
.59836 .51269 L
.59869 .47329 L
.59901 .47173 L
.59933 .51331 L
.59966 .49776 L
.59998 .43831 L
.6003 .47848 L
.60063 .46068 L
.60095 .41451 L
.60127 .5196 L
.6016 .52077 L
.60192 .43114 L
.60224 .48167 L
.60257 .48291 L
.60289 .40944 L
.60321 .41644 L
.60354 .40202 L
.60386 .30646 L
.60418 .44106 L
.60451 .47117 L
.60483 .40861 L
.60515 .43014 L
.60548 .47912 L
.74518 .47207 L
.74551 .43366 L
.74583 .43034 L
.74615 .41542 L
.74648 .46096 L
.7468 .41112 L
.74712 .4418 L
.74745 .46771 L
.74777 .43499 L
.74809 .36728 L
.74842 .39304 L
.74874 .45116 L
.74906 .34795 L
.74939 .3951 L
.74971 .47044 L
.75003 .44892 L
.75036 .47425 L
.75068 .3642 L
.751 .37912 L
Mistroke
.75133 .44358 L
.75165 .39995 L
.75197 .40572 L
.7523 .39734 L
.75262 .44012 L
.75294 .31804 L
.75327 .48346 L
.75359 .45238 L
.75391 .41092 L
.75424 .47933 L
.75456 .47384 L
.75488 .39853 L
.75521 .44589 L
.75553 .46059 L
.75585 .40431 L
.75618 .40339 L
.7565 .38319 L
.75682 .40628 L
.75715 .38989 L
.75747 .42605 L
.75779 .32263 L
.75812 .31148 L
.75844 .35829 L
.75876 .37201 L
.75909 .34374 L
.75941 .41804 L
.75974 .35541 L
.76006 .37517 L
.76038 .44992 L
.76071 .3597 L
.76103 .35831 L
Mfstroke
.76103 .35831 m
.76959 0 L
s
.95863 0 m
.95873 .33462 L
.95905 .25019 L
.95937 .28656 L
.9597 .29177 L
.96002 .29142 L
.96034 .23541 L
.96067 .29979 L
.96099 .31198 L
.96131 .29044 L
.96164 .2948 L
.96196 .37459 L
.96228 .32534 L
.96261 .28628 L
.96293 .3005 L
.96325 .31055 L
.96358 .28313 L
.9639 .32456 L
.96423 .27517 L
.96455 .26187 L
.96487 .3176 L
.9652 .31653 L
.96552 .38296 L
.96584 .33202 L
.96617 .3304 L
.96649 .29943 L
.96681 .33061 L
.96714 .30809 L
.96746 .28967 L
.96778 .20967 L
.96811 .3036 L
.96843 .31493 L
.96875 .30309 L
.96908 .32392 L
.9694 .29094 L
.96972 .27215 L
.97005 .2573 L
.97037 .30415 L
.97069 .3038 L
.97102 .3406 L
.97134 .28002 L
.97166 .27538 L
.97199 .30339 L
.97231 .26461 L
.97263 .29051 L
.97296 .32125 L
.97328 .30044 L
.9736 .24991 L
.97393 .23069 L
.97425 .28594 L
Mistroke
.97457 .26989 L
.9749 .34117 L
.97522 .2464 L
.97554 .30289 L
.97587 .27876 L
.97619 .21424 L
Mfstroke
0 g
.007 w
.02381 .39102 Mdot
.02413 .35036 Mdot
.02446 .3932 Mdot
.02478 .46048 Mdot
.0251 .40241 Mdot
.02543 .4474 Mdot
.02575 .35225 Mdot
.02607 .38463 Mdot
.0264 .44092 Mdot
.02672 .44007 Mdot
.02704 .44648 Mdot
.02737 .40665 Mdot
.02769 .39094 Mdot
.02801 .37362 Mdot
.02834 .34886 Mdot
.02866 .33703 Mdot
.02898 .37766 Mdot
.02931 .43092 Mdot
.02963 .34753 Mdot
.02995 .464 Mdot
.03028 .38511 Mdot
.0306 .37948 Mdot
.03092 .41142 Mdot
.03125 .40066 Mdot
.03157 .36252 Mdot
.03189 .38772 Mdot
.03222 .43627 Mdot
.03254 .41271 Mdot
.03286 .43692 Mdot
.03319 .43316 Mdot
.03351 .31093 Mdot
.03383 .33643 Mdot
.03416 .39622 Mdot
.03448 .3915 Mdot
.0348 .41713 Mdot
.03513 .35456 Mdot
.03545 .33322 Mdot
.03577 .37068 Mdot
.0361 .34555 Mdot
.03642 .40314 Mdot
.03675 .3664 Mdot
.03707 .34267 Mdot
.03739 .38483 Mdot
.03772 .33378 Mdot
.03804 .35617 Mdot
.03836 .38793 Mdot
.03869 .36567 Mdot
.03901 .35328 Mdot
.03933 .33526 Mdot
.03966 .32831 Mdot
.03998 .3188 Mdot
.0403 .37016 Mdot
.04063 .31387 Mdot
.04095 .33372 Mdot
.04127 .30437 Mdot
.0416 .3083 Mdot
.04192 .34486 Mdot
.04224 .29212 Mdot
.04257 .30094 Mdot
.04289 .36032 Mdot
.04321 .32266 Mdot
.04354 .34815 Mdot
.04386 .36024 Mdot
.04418 .36522 Mdot
.04451 .30401 Mdot
.04483 .42999 Mdot
.04515 .39929 Mdot
.04548 .37769 Mdot
.0458 .4161 Mdot
.04612 .38627 Mdot
.04645 .32195 Mdot
.04677 .22785 Mdot
.04709 .37972 Mdot
.04742 .40084 Mdot
.04774 .35186 Mdot
.04806 .35235 Mdot
.04839 .40049 Mdot
.04871 .45772 Mdot
.04903 .43435 Mdot
.04936 .34504 Mdot
.04968 .35087 Mdot
.05 .32257 Mdot
.05033 .37169 Mdot
.05065 .38228 Mdot
.05097 .37253 Mdot
.0513 .36804 Mdot
.05162 .34376 Mdot
.05194 .40881 Mdot
.05227 .37952 Mdot
.05259 .37127 Mdot
.05291 .42715 Mdot
.05324 .38724 Mdot
.05356 .41835 Mdot
.05388 .4423 Mdot
.05421 .42892 Mdot
.05453 .48409 Mdot
.05485 .43506 Mdot
.05518 .43541 Mdot
.0555 .46544 Mdot
.05583 .44492 Mdot
.05615 .40467 Mdot
.05647 .45187 Mdot
.0568 .49326 Mdot
.05712 .44786 Mdot
.05744 .44822 Mdot
.05777 .45027 Mdot
.05809 .42029 Mdot
.05841 .47585 Mdot
.05874 .35525 Mdot
.05906 .42253 Mdot
.05938 .46905 Mdot
.05971 .40255 Mdot
.06003 .42859 Mdot
.06035 .43443 Mdot
.06068 .43794 Mdot
.061 .51431 Mdot
.06132 .42823 Mdot
.06165 .40889 Mdot
.06197 .41839 Mdot
.06229 .54126 Mdot
.06262 .43413 Mdot
.06294 .47439 Mdot
.06326 .41825 Mdot
.06359 .48319 Mdot
.06391 .51698 Mdot
.06423 .47375 Mdot
.06456 .45781 Mdot
.06488 .4495 Mdot
.0652 .38198 Mdot
.06553 .37834 Mdot
.06585 .44214 Mdot
.06617 .41724 Mdot
.0665 .40302 Mdot
.06682 .40016 Mdot
.06714 .45572 Mdot
.06747 .48474 Mdot
.06779 .46439 Mdot
.06811 .45181 Mdot
.06844 .47012 Mdot
.06876 .47387 Mdot
.06908 .46645 Mdot
.06941 .43668 Mdot
.06973 .497 Mdot
.07005 .39776 Mdot
.07038 .4463 Mdot
.0707 .42494 Mdot
.07102 .4478 Mdot
.07135 .43332 Mdot
.07167 .42624 Mdot
.07199 .39664 Mdot
.07232 .38136 Mdot
.07264 .49413 Mdot
.07296 .45084 Mdot
.07329 .41627 Mdot
.07361 .46002 Mdot
.07393 .36728 Mdot
.07426 .43711 Mdot
.07458 .42782 Mdot
.07491 .45237 Mdot
.07523 .48397 Mdot
.07555 .38523 Mdot
.07588 .36835 Mdot
.0762 .47336 Mdot
.07652 .47981 Mdot
.07685 .47995 Mdot
.07717 .37082 Mdot
.07749 .4564 Mdot
.07782 .45908 Mdot
.07814 .47745 Mdot
.07846 .41125 Mdot
.07879 .45295 Mdot
.07911 .39383 Mdot
.07943 .4253 Mdot
.07976 .41475 Mdot
.08008 .36834 Mdot
.0804 .39558 Mdot
.08073 .37862 Mdot
.08105 .49434 Mdot
.08137 .38632 Mdot
.0817 .43465 Mdot
.08202 .41178 Mdot
.08234 .43438 Mdot
.08267 .50023 Mdot
.08299 .37524 Mdot
.08331 .40382 Mdot
.08364 .43788 Mdot
.08396 .49249 Mdot
.08428 .46181 Mdot
.08461 .44809 Mdot
.08493 .47962 Mdot
.08525 .41796 Mdot
.08558 .39474 Mdot
.0859 .45507 Mdot
.08622 .39623 Mdot
.08655 .43094 Mdot
.08687 .46724 Mdot
.08719 .3949 Mdot
.08752 .44563 Mdot
.08784 .42967 Mdot
.08816 .47034 Mdot
.08849 .4008 Mdot
.08881 .4585 Mdot
.08913 .42591 Mdot
.08946 .43132 Mdot
.08978 .44154 Mdot
.0901 .44473 Mdot
.09043 .4514 Mdot
.09075 .47301 Mdot
.09107 .4956 Mdot
.0914 .50735 Mdot
.09172 .47555 Mdot
.09204 .44142 Mdot
.09237 .50059 Mdot
.09269 .53288 Mdot
.09301 .49814 Mdot
.09334 .45582 Mdot
.09366 .50321 Mdot
.09399 .44343 Mdot
.09431 .50607 Mdot
.09463 .4302 Mdot
.09496 .5051 Mdot
.09528 .50557 Mdot
.0956 .42543 Mdot
.09593 .37876 Mdot
.09625 .49017 Mdot
.09657 .44815 Mdot
.0969 .38826 Mdot
.09722 .4438 Mdot
.09754 .44295 Mdot
.09787 .44626 Mdot
.09819 .46756 Mdot
.09851 .454 Mdot
.09884 .48448 Mdot
.09916 .44674 Mdot
.09948 .41134 Mdot
.09981 .49031 Mdot
.10013 .44772 Mdot
.10045 .51606 Mdot
.10078 .49584 Mdot
.1011 .47778 Mdot
.10142 .46835 Mdot
.10175 .47348 Mdot
.10207 .38454 Mdot
.10239 .42634 Mdot
.10272 .44757 Mdot
.10304 .37924 Mdot
.10336 .39328 Mdot
.10369 .43069 Mdot
.10401 .37129 Mdot
.10433 .46722 Mdot
.10466 .4703 Mdot
.10498 .42148 Mdot
.1053 .4492 Mdot
.10563 .45067 Mdot
.10595 .4029 Mdot
.10627 .36026 Mdot
.1066 .37467 Mdot
.10692 .46877 Mdot
.10724 .41309 Mdot
.10757 .34574 Mdot
.10789 .36356 Mdot
.10821 .49488 Mdot
.10854 .42501 Mdot
.10886 .46745 Mdot
.10918 .48749 Mdot
.10951 .42429 Mdot
.10983 .44444 Mdot
.11015 .4257 Mdot
.11048 .45584 Mdot
.1108 .48004 Mdot
.11112 .51521 Mdot
.11145 .44105 Mdot
.11177 .44762 Mdot
.11209 .41824 Mdot
.11242 .4388 Mdot
.11274 .45379 Mdot
.11307 .49509 Mdot
.11339 .45176 Mdot
.11371 .46732 Mdot
.11404 .44755 Mdot
.11436 .43761 Mdot
.11468 .49335 Mdot
.11501 .47674 Mdot
.11533 .50808 Mdot
.11565 .47309 Mdot
.11598 .52894 Mdot
.1163 .4954 Mdot
.11662 .47286 Mdot
.11695 .51319 Mdot
.11727 .51412 Mdot
.11759 .49216 Mdot
.11792 .50348 Mdot
.11824 .50259 Mdot
.11856 .49118 Mdot
.11889 .48248 Mdot
.11921 .49053 Mdot
.11953 .52771 Mdot
.11986 .4488 Mdot
.12018 .49062 Mdot
.1205 .47912 Mdot
.12083 .45577 Mdot
.12115 .46049 Mdot
.12147 .43353 Mdot
.1218 .46575 Mdot
.12212 .46477 Mdot
.12244 .46323 Mdot
.12277 .44811 Mdot
.12309 .48168 Mdot
.12341 .48689 Mdot
.12374 .37223 Mdot
.12406 .46726 Mdot
.12438 .4298 Mdot
.12471 .42889 Mdot
.12503 .5277 Mdot
.12535 .45288 Mdot
.12568 .52049 Mdot
.126 .43187 Mdot
.12632 .44627 Mdot
.12665 .38415 Mdot
.12697 .43032 Mdot
.12729 .4612 Mdot
.12762 .49673 Mdot
.12794 .41248 Mdot
.12826 .4441 Mdot
.12859 .45117 Mdot
.12891 .43487 Mdot
.12923 .40213 Mdot
.12956 .43328 Mdot
.12988 .46414 Mdot
.1302 .50151 Mdot
.13053 .44879 Mdot
.13085 .52464 Mdot
.13117 .45909 Mdot
.1315 .4409 Mdot
.13182 .46266 Mdot
.13215 .47477 Mdot
.13247 .42268 Mdot
.13279 .40502 Mdot
.13312 .39517 Mdot
.13344 .40923 Mdot
.13376 .36068 Mdot
.13409 .493 Mdot
.13441 .44359 Mdot
.13473 .33521 Mdot
.13506 .40437 Mdot
.13538 .46732 Mdot
.1357 .35268 Mdot
.13603 .40799 Mdot
.13635 .46845 Mdot
.13667 .45902 Mdot
.137 .43459 Mdot
.13732 .44458 Mdot
.13764 .41335 Mdot
.13797 .3913 Mdot
.13829 .45148 Mdot
.13861 .43705 Mdot
.13894 .39172 Mdot
.13926 .45549 Mdot
.13958 .47596 Mdot
.13991 .45463 Mdot
.14023 .48202 Mdot
.14055 .48039 Mdot
.14088 .47701 Mdot
.1412 .4903 Mdot
.14152 .42506 Mdot
.14185 .477 Mdot
.14217 .41001 Mdot
.14249 .47348 Mdot
.14282 .40045 Mdot
.14314 .50361 Mdot
.14346 .39849 Mdot
.14379 .42815 Mdot
.14411 .39145 Mdot
.14443 .40671 Mdot
.14476 .41507 Mdot
.14508 .41644 Mdot
.1454 .41422 Mdot
.14573 .37171 Mdot
.14605 .37996 Mdot
.14637 .38479 Mdot
.1467 .43055 Mdot
.14702 .46334 Mdot
.14734 .41606 Mdot
.14767 .42754 Mdot
.14799 .34392 Mdot
.14831 .38749 Mdot
.14864 .42998 Mdot
.14896 .36962 Mdot
.14928 .41535 Mdot
.14961 .38818 Mdot
.14993 .32846 Mdot
.15025 .3965 Mdot
.15058 .43406 Mdot
.1509 .3722 Mdot
.15122 .35497 Mdot
.15155 .31084 Mdot
.15187 .38613 Mdot
.1522 .35799 Mdot
.15252 .29389 Mdot
.15284 .42175 Mdot
.15317 .4117 Mdot
.15349 .38473 Mdot
.15381 .31668 Mdot
.15414 .4017 Mdot
.15446 .35875 Mdot
.15478 .36642 Mdot
.15511 .37227 Mdot
.15543 .46129 Mdot
.15575 .36637 Mdot
.15608 .41865 Mdot
.1564 .43885 Mdot
.15672 .42801 Mdot
.15705 .42458 Mdot
.15737 .44611 Mdot
.15769 .33294 Mdot
.15802 .37924 Mdot
.15834 .35404 Mdot
.15866 .39782 Mdot
.15899 .34484 Mdot
.15931 .41845 Mdot
.15963 .37115 Mdot
.15996 .28783 Mdot
.16028 .35405 Mdot
.1606 .40787 Mdot
.16093 .29796 Mdot
.16125 .33561 Mdot
.16157 .36228 Mdot
.1619 .32908 Mdot
.16222 .38755 Mdot
.16254 .39565 Mdot
.16287 .36509 Mdot
.16319 .38663 Mdot
.16351 .41937 Mdot
.16384 .40818 Mdot
.16416 .29818 Mdot
.16448 .42125 Mdot
.16481 .34702 Mdot
.16513 .31437 Mdot
.16545 .30183 Mdot
.16578 .33808 Mdot
.1661 .31618 Mdot
.16642 .33654 Mdot
.16675 .38608 Mdot
.16707 .35223 Mdot
.16739 .34317 Mdot
.16772 .3485 Mdot
.16804 .41579 Mdot
.16836 .32352 Mdot
.16869 .33923 Mdot
.16901 .33836 Mdot
.16933 .45197 Mdot
.16966 .46555 Mdot
.16998 .36899 Mdot
.1703 .40389 Mdot
.17063 .40461 Mdot
.17095 .38054 Mdot
.17128 .3915 Mdot
.1716 .3661 Mdot
.17192 .42485 Mdot
.17225 .4073 Mdot
.17257 .39785 Mdot
.17289 .35089 Mdot
.17322 .43019 Mdot
.17354 .38896 Mdot
.17386 .39621 Mdot
.17419 .39192 Mdot
.17451 .33836 Mdot
.17483 .37124 Mdot
.17516 .3813 Mdot
.17548 .3501 Mdot
.1758 .3024 Mdot
.17613 .34281 Mdot
.17645 .38826 Mdot
.17677 .37159 Mdot
.1771 .37462 Mdot
.17742 .364 Mdot
.17774 .34928 Mdot
.17807 .37638 Mdot
.17839 .38776 Mdot
.17871 .39264 Mdot
.17904 .33365 Mdot
.17936 .34956 Mdot
.17968 .2837 Mdot
.18001 .33147 Mdot
.18033 .31367 Mdot
.18065 .38012 Mdot
.18098 .32548 Mdot
.1813 .33056 Mdot
.18162 .39715 Mdot
.18195 .37343 Mdot
.18227 .3889 Mdot
.18259 .36322 Mdot
.18292 .28257 Mdot
.18324 .35759 Mdot
.18356 .374 Mdot
.18389 .34775 Mdot
.18421 .38621 Mdot
.18453 .33907 Mdot
.18486 .41761 Mdot
.18518 .37856 Mdot
.1855 .38658 Mdot
.18583 .32114 Mdot
.18615 .40173 Mdot
.18647 .42441 Mdot
.1868 .33155 Mdot
.18712 .37976 Mdot
.18744 .36752 Mdot
.18777 .33114 Mdot
.18809 .365 Mdot
.18841 .30777 Mdot
.18874 .36103 Mdot
.18906 .39885 Mdot
.18938 .37393 Mdot
.18971 .36603 Mdot
.19003 .39564 Mdot
.19036 .27185 Mdot
.19068 .31396 Mdot
.191 .35576 Mdot
.19133 .41121 Mdot
.19165 .35829 Mdot
.19197 .37587 Mdot
.1923 .35484 Mdot
.19262 .32127 Mdot
.19294 .33782 Mdot
.19327 .35186 Mdot
.19359 .3872 Mdot
.19391 .41803 Mdot
.19424 .37101 Mdot
.19456 .36272 Mdot
.19488 .38791 Mdot
.19521 .34667 Mdot
.19553 .35005 Mdot
.19585 .35977 Mdot
.19618 .4716 Mdot
.1965 .32774 Mdot
.19682 .41157 Mdot
.19715 .34885 Mdot
.19747 .4437 Mdot
.19779 .39213 Mdot
.19812 .3834 Mdot
.19844 .3608 Mdot
.19876 .339 Mdot
.19909 .39663 Mdot
.19941 .4309 Mdot
.19973 .399 Mdot
.20006 .38756 Mdot
.20038 .36631 Mdot
.2007 .3979 Mdot
.20113 .41669 Mdot
.20157 .44223 Mdot
.202 .44576 Mdot
.20232 .33891 Mdot
.20264 .38073 Mdot
.20297 .34984 Mdot
.20329 .40198 Mdot
.20361 .40698 Mdot
.20394 .39227 Mdot
.20426 .43765 Mdot
.20458 .38629 Mdot
.20491 .39127 Mdot
.20523 .42415 Mdot
.20555 .39381 Mdot
.20588 .36785 Mdot
.2062 .30071 Mdot
.20652 .35764 Mdot
.20685 .41183 Mdot
.20717 .39793 Mdot
.20749 .3366 Mdot
.20782 .34815 Mdot
.20814 .43421 Mdot
.20846 .4034 Mdot
.20879 .41098 Mdot
.20911 .42479 Mdot
.20944 .39685 Mdot
.20976 .38085 Mdot
.21008 .42817 Mdot
.21041 .47229 Mdot
.21073 .46222 Mdot
.21105 .44921 Mdot
.21138 .45891 Mdot
.2117 .37138 Mdot
.21202 .47799 Mdot
.21235 .46574 Mdot
.21267 .45434 Mdot
.21299 .40571 Mdot
.21332 .45996 Mdot
.21364 .49838 Mdot
.21396 .54218 Mdot
.21429 .46842 Mdot
.21461 .4725 Mdot
.21493 .42571 Mdot
.21526 .48375 Mdot
.21558 .45373 Mdot
.2159 .50326 Mdot
.21623 .50213 Mdot
.21655 .45496 Mdot
.21687 .48458 Mdot
.2172 .48067 Mdot
.21752 .47224 Mdot
.21784 .47342 Mdot
.21817 .47786 Mdot
.21849 .47962 Mdot
.21881 .40709 Mdot
.21914 .48525 Mdot
.21946 .43844 Mdot
.21978 .42741 Mdot
.22011 .42585 Mdot
.22043 .41305 Mdot
.22075 .51194 Mdot
.22108 .47514 Mdot
.2214 .42057 Mdot
.22172 .4466 Mdot
.22205 .39939 Mdot
.22237 .37169 Mdot
.22269 .42348 Mdot
.22302 .44656 Mdot
.22334 .41749 Mdot
.22366 .4552 Mdot
.22399 .43823 Mdot
.22431 .48249 Mdot
.22463 .43211 Mdot
.22496 .48236 Mdot
.22528 .47667 Mdot
.2256 .34063 Mdot
.22593 .45547 Mdot
.22625 .42352 Mdot
.22657 .40987 Mdot
.2269 .41234 Mdot
.22722 .43428 Mdot
.22754 .4901 Mdot
.22787 .52875 Mdot
.22819 .4041 Mdot
.22852 .39812 Mdot
.22884 .34173 Mdot
.22916 .43625 Mdot
.22949 .36511 Mdot
.22981 .46179 Mdot
.23013 .3338 Mdot
.23046 .37596 Mdot
.23078 .40221 Mdot
.2311 .44197 Mdot
.23143 .35562 Mdot
.23175 .35928 Mdot
.23207 .41783 Mdot
.2324 .39389 Mdot
.23272 .35518 Mdot
.23304 .35384 Mdot
.23337 .38579 Mdot
.23369 .46329 Mdot
.23401 .38706 Mdot
.23434 .34359 Mdot
.23466 .39701 Mdot
.23498 .4195 Mdot
.23531 .35758 Mdot
.23563 .35449 Mdot
.23595 .34047 Mdot
.23628 .36012 Mdot
.2366 .38256 Mdot
.23692 .31719 Mdot
.23725 .38089 Mdot
.23757 .35412 Mdot
.23789 .34894 Mdot
.23822 .4271 Mdot
.23854 .35695 Mdot
.23886 .3245 Mdot
.23919 .31404 Mdot
.23951 .30847 Mdot
.23983 .30768 Mdot
.24016 .31171 Mdot
.24048 .35759 Mdot
.2408 .37778 Mdot
.24113 .3215 Mdot
.24145 .30627 Mdot
.24177 .35068 Mdot
.2421 .3437 Mdot
.24242 .38046 Mdot
.24274 .39508 Mdot
.24307 .37826 Mdot
.24339 .41935 Mdot
.24371 .46615 Mdot
.24404 .46926 Mdot
.24436 .37841 Mdot
.24468 .33187 Mdot
.24501 .41169 Mdot
.24533 .40493 Mdot
.24565 .40408 Mdot
.24598 .37453 Mdot
.2463 .31844 Mdot
.24662 .37334 Mdot
.24695 .48514 Mdot
.24727 .37813 Mdot
.2476 .39775 Mdot
.24792 .40299 Mdot
.24824 .42943 Mdot
.24857 .40276 Mdot
.24889 .36567 Mdot
.24921 .36883 Mdot
.24954 .33204 Mdot
.24986 .38832 Mdot
.25018 .362 Mdot
.25051 .42591 Mdot
.25083 .45855 Mdot
.25115 .32737 Mdot
.25148 .38205 Mdot
.2518 .43047 Mdot
.25212 .3922 Mdot
.25245 .32261 Mdot
.25277 .36861 Mdot
.25309 .41851 Mdot
.25342 .29987 Mdot
.25374 .43618 Mdot
.25406 .32449 Mdot
.25439 .34379 Mdot
.25471 .33314 Mdot
.25503 .3461 Mdot
.25536 .34625 Mdot
.25568 .30521 Mdot
.256 .35145 Mdot
.25633 .34884 Mdot
.25665 .38109 Mdot
.25697 .34435 Mdot
.2573 .36048 Mdot
.25762 .40881 Mdot
.25794 .37039 Mdot
.25827 .32682 Mdot
.25859 .32656 Mdot
.25891 .37677 Mdot
.25924 .32048 Mdot
.25956 .38198 Mdot
.25988 .39516 Mdot
.26021 .38017 Mdot
.26053 .31275 Mdot
.26085 .35862 Mdot
.26118 .31952 Mdot
.2615 .37177 Mdot
.26182 .42634 Mdot
.26215 .4395 Mdot
.26247 .35695 Mdot
.26279 .38727 Mdot
.26312 .38082 Mdot
.26344 .39271 Mdot
.26376 .33544 Mdot
.26409 .32783 Mdot
.26441 .37482 Mdot
.26473 .38842 Mdot
.26506 .37884 Mdot
.26538 .35427 Mdot
.2657 .42487 Mdot
.26603 .40818 Mdot
.26635 .35983 Mdot
.26668 .4461 Mdot
.267 .31169 Mdot
.26732 .34077 Mdot
.26765 .39308 Mdot
.26797 .31931 Mdot
.26829 .29854 Mdot
.26862 .39411 Mdot
.26894 .36184 Mdot
.26926 .31272 Mdot
.26959 .3794 Mdot
.26991 .36928 Mdot
.27023 .4626 Mdot
.27056 .39681 Mdot
.27088 .41671 Mdot
.2712 .41412 Mdot
.27153 .46071 Mdot
.27185 .39108 Mdot
.27217 .38447 Mdot
.2725 .40665 Mdot
.27282 .36449 Mdot
.27314 .43443 Mdot
.27347 .3906 Mdot
.27379 .40149 Mdot
.27411 .37596 Mdot
.27444 .39471 Mdot
.27476 .41292 Mdot
.27508 .4609 Mdot
.27541 .41396 Mdot
.27573 .36415 Mdot
.27605 .35962 Mdot
.27638 .39236 Mdot
.2767 .3685 Mdot
.27702 .32093 Mdot
.27735 .32844 Mdot
.27767 .35132 Mdot
.27799 .34745 Mdot
.27832 .36097 Mdot
.27864 .31037 Mdot
.27896 .38327 Mdot
.27929 .31627 Mdot
.27961 .32734 Mdot
.27993 .397 Mdot
.28026 .38448 Mdot
.28058 .30137 Mdot
.2809 .33677 Mdot
.28123 .32099 Mdot
.28155 .29672 Mdot
.28187 .33064 Mdot
.2822 .36414 Mdot
.28252 .37258 Mdot
.28284 .30856 Mdot
.28317 .39641 Mdot
.28349 .30728 Mdot
.28381 .38426 Mdot
.28414 .38763 Mdot
.28446 .41904 Mdot
.28478 .36302 Mdot
.28511 .26638 Mdot
.28543 .40821 Mdot
.28576 .36048 Mdot
.28608 .38073 Mdot
.2864 .31748 Mdot
.28673 .3466 Mdot
.28705 .31917 Mdot
.28737 .37765 Mdot
.2877 .42571 Mdot
.28802 .33071 Mdot
.28834 .34731 Mdot
.28867 .33499 Mdot
.28899 .30374 Mdot
.28931 .32935 Mdot
.28964 .32556 Mdot
.28996 .3682 Mdot
.29028 .34154 Mdot
.29061 .28724 Mdot
.29093 .36435 Mdot
.29125 .30798 Mdot
.29158 .27876 Mdot
.2919 .37131 Mdot
.29222 .4215 Mdot
.29255 .36112 Mdot
.29287 .34873 Mdot
.29319 .36619 Mdot
.29352 .30123 Mdot
.29384 .33207 Mdot
.29416 .32784 Mdot
.29449 .4101 Mdot
.29481 .36916 Mdot
.29513 .37246 Mdot
.29546 .38758 Mdot
.29578 .37153 Mdot
.2961 .35091 Mdot
.29643 .36261 Mdot
.29675 .34028 Mdot
.29707 .33635 Mdot
.2974 .29068 Mdot
.29772 .43311 Mdot
.29804 .38172 Mdot
.29837 .33254 Mdot
.29869 .3457 Mdot
.29901 .36519 Mdot
.29934 .43609 Mdot
.29966 .33077 Mdot
.29998 .30931 Mdot
.30031 .36737 Mdot
.30063 .35659 Mdot
.30095 .38241 Mdot
.30128 .35328 Mdot
.3016 .39306 Mdot
.30192 .32225 Mdot
.30225 .42436 Mdot
.30257 .33653 Mdot
.30289 .34324 Mdot
.30322 .37891 Mdot
.30354 .33493 Mdot
.30386 .31063 Mdot
.30419 .28494 Mdot
.30451 .32057 Mdot
.30483 .25503 Mdot
.30516 .33141 Mdot
.30548 .28437 Mdot
.30581 .23519 Mdot
.30613 .23513 Mdot
.30645 .24033 Mdot
.30678 .30978 Mdot
.3071 .2425 Mdot
.30742 .27228 Mdot
.30775 .32033 Mdot
.30807 .28304 Mdot
.30839 .23208 Mdot
.30872 .26965 Mdot
.30904 .20696 Mdot
.30936 .26262 Mdot
.30969 .23785 Mdot
.31001 .29098 Mdot
.31033 .28403 Mdot
.31066 .2829 Mdot
.31098 .27296 Mdot
.3113 .23511 Mdot
.31163 .21146 Mdot
.31195 .20935 Mdot
.31227 .21386 Mdot
.3126 .20957 Mdot
.31292 .20076 Mdot
.31324 .30311 Mdot
.31357 .31379 Mdot
.31389 .27361 Mdot
.31421 .243 Mdot
.31454 .26987 Mdot
.31486 .34131 Mdot
.31518 .30865 Mdot
.31551 .17304 Mdot
.31583 .33209 Mdot
.31615 .29923 Mdot
.31648 .32309 Mdot
.3168 .29251 Mdot
.31712 .26187 Mdot
.31745 .34222 Mdot
.31777 .40831 Mdot
.31809 .30952 Mdot
.31842 .33154 Mdot
.31874 .35661 Mdot
.31906 .3794 Mdot
.31939 .28606 Mdot
.31971 .39078 Mdot
.32003 .27798 Mdot
.32036 .31353 Mdot
.32068 .32676 Mdot
.321 .32521 Mdot
.32133 .31303 Mdot
.32165 .35161 Mdot
.32197 .33429 Mdot
.3223 .32718 Mdot
.32262 .3511 Mdot
.32294 .32599 Mdot
.32327 .36533 Mdot
.32359 .40122 Mdot
.32391 .35597 Mdot
.32424 .38053 Mdot
.32456 .40916 Mdot
.32489 .40496 Mdot
.32521 .38383 Mdot
.32553 .3882 Mdot
.32586 .37554 Mdot
.32618 .42049 Mdot
.3265 .35486 Mdot
.32683 .30431 Mdot
.32715 .40692 Mdot
.32747 .34239 Mdot
.3278 .3499 Mdot
.32812 .34688 Mdot
.32844 .37518 Mdot
.32877 .31865 Mdot
.32909 .35619 Mdot
.32941 .35778 Mdot
.32974 .32971 Mdot
.33006 .39256 Mdot
.33038 .31613 Mdot
.33071 .34548 Mdot
.33103 .36174 Mdot
.33135 .40022 Mdot
.33168 .42409 Mdot
.332 .36153 Mdot
.33232 .36067 Mdot
.33265 .3504 Mdot
.33297 .32895 Mdot
.33329 .3024 Mdot
.33362 .382 Mdot
.33394 .30846 Mdot
.33426 .3229 Mdot
.33459 .32091 Mdot
.33491 .2993 Mdot
.33523 .26137 Mdot
.33556 .27094 Mdot
.33588 .28488 Mdot
.3362 .2518 Mdot
.33653 .35434 Mdot
.33685 .33497 Mdot
.33717 .315 Mdot
.3375 .25786 Mdot
.33782 .24517 Mdot
.33814 .25476 Mdot
.33847 .27698 Mdot
.33879 .26263 Mdot
.33911 .19739 Mdot
.33944 .22567 Mdot
.33976 .26466 Mdot
.34008 .22328 Mdot
.34041 .25779 Mdot
.34073 .2689 Mdot
.34105 .31653 Mdot
.34138 .18644 Mdot
.3417 .25284 Mdot
.34202 .23856 Mdot
.34235 .26278 Mdot
.34267 .26413 Mdot
.34299 .24806 Mdot
.34332 .26045 Mdot
.34364 .31548 Mdot
.34397 .22463 Mdot
.34429 .15736 Mdot
.34461 .28578 Mdot
.34494 .22943 Mdot
.34526 .26987 Mdot
.34558 .32162 Mdot
.34591 .3333 Mdot
.34623 .34365 Mdot
.34655 .21444 Mdot
.34688 .29875 Mdot
.3472 .3585 Mdot
.34752 .28741 Mdot
.34785 .30198 Mdot
.34817 .22181 Mdot
.34849 .2995 Mdot
.34882 .31992 Mdot
.34914 .26784 Mdot
.34946 .24505 Mdot
.34979 .25181 Mdot
.35011 .26433 Mdot
.35043 .31711 Mdot
.35076 .30444 Mdot
.35108 .28974 Mdot
.3514 .29551 Mdot
.35173 .28909 Mdot
.35205 .25371 Mdot
.35237 .26793 Mdot
.3527 .2639 Mdot
.35302 .30248 Mdot
.35334 .31106 Mdot
.35367 .28285 Mdot
.35399 .26335 Mdot
.35431 .31197 Mdot
.35464 .29233 Mdot
.35496 .3214 Mdot
.35528 .291 Mdot
.35561 .29135 Mdot
.35593 .2829 Mdot
.35625 .25807 Mdot
.35658 .22822 Mdot
.3569 .30733 Mdot
.35722 .19762 Mdot
.35755 .25378 Mdot
.35787 .25954 Mdot
.35819 .28199 Mdot
.35852 .26202 Mdot
.35884 .21781 Mdot
.35916 .23357 Mdot
.35949 .27708 Mdot
.35981 .2447 Mdot
.36013 .35406 Mdot
.36046 .2682 Mdot
.36078 .26497 Mdot
.3611 .35151 Mdot
.36143 .27233 Mdot
.36175 .3017 Mdot
.36207 .31119 Mdot
.3624 .26322 Mdot
.36272 .30304 Mdot
.36304 .29041 Mdot
.36337 .33216 Mdot
.36369 .315 Mdot
.36401 .34808 Mdot
.36434 .33332 Mdot
.36466 .2955 Mdot
.36498 .3202 Mdot
.36531 .27981 Mdot
.36563 .31627 Mdot
.36595 .28677 Mdot
.36628 .33323 Mdot
.3666 .33153 Mdot
.36692 .36854 Mdot
.36725 .28199 Mdot
.36757 .30198 Mdot
.36789 .33145 Mdot
.36822 .32851 Mdot
.36854 .29833 Mdot
.36887 .33688 Mdot
.36919 .34721 Mdot
.36951 .33963 Mdot
.36984 .38876 Mdot
.37016 .37712 Mdot
.37048 .32548 Mdot
.37081 .36602 Mdot
.37113 .32499 Mdot
.37145 .34306 Mdot
.37178 .40916 Mdot
.3721 .3556 Mdot
.37242 .32273 Mdot
.37275 .29601 Mdot
.37307 .33483 Mdot
.37339 .41021 Mdot
.37372 .33145 Mdot
.37404 .33646 Mdot
.37436 .39199 Mdot
.37469 .29824 Mdot
.37501 .36701 Mdot
.37533 .32941 Mdot
.37566 .3559 Mdot
.37598 .32085 Mdot
.3763 .36912 Mdot
.37663 .33125 Mdot
.37695 .34288 Mdot
.37727 .35229 Mdot
.3776 .35343 Mdot
.37792 .37328 Mdot
.37824 .34683 Mdot
.37857 .36847 Mdot
.37889 .36806 Mdot
.37921 .39439 Mdot
.37954 .37193 Mdot
.37986 .3779 Mdot
.38018 .30495 Mdot
.38051 .32804 Mdot
.38083 .38299 Mdot
.38115 .32212 Mdot
.38148 .29073 Mdot
.3818 .31676 Mdot
.38212 .34766 Mdot
.38245 .28278 Mdot
.38277 .32872 Mdot
.38309 .30826 Mdot
.38342 .264 Mdot
.38374 .31171 Mdot
.38406 .32163 Mdot
.38439 .36138 Mdot
.38471 .27976 Mdot
.38503 .36314 Mdot
.38536 .30546 Mdot
.38568 .3264 Mdot
.386 .29046 Mdot
.38633 .33478 Mdot
.38665 .3236 Mdot
.38697 .2673 Mdot
.3873 .29975 Mdot
.38762 .29164 Mdot
.38795 .25431 Mdot
.38827 .3205 Mdot
.38859 .27018 Mdot
.38892 .33408 Mdot
.38924 .28848 Mdot
.38956 .27997 Mdot
.38989 .32839 Mdot
.39021 .2417 Mdot
.39053 .33486 Mdot
.39086 .29935 Mdot
.39118 .25279 Mdot
.39139 .02017 Mdot
.39172 .04039 Mdot
.39204 .0796 Mdot
.39236 .01114 Mdot
.39301 .03539 Mdot
.39333 .09378 Mdot
.39366 .04863 Mdot
.39398 .00843 Mdot
.3943 .09205 Mdot
.39528 .05432 Mdot
.3956 .07952 Mdot
.39592 .0044 Mdot
.39657 .06709 Mdot
.39689 .05998 Mdot
.39754 .01818 Mdot
.39786 .01087 Mdot
.39883 .00701 Mdot
.39948 .0159 Mdot
.40013 .05785 Mdot
.40045 .02435 Mdot
.40142 .05062 Mdot
.40174 .0613 Mdot
.40207 .03739 Mdot
.40239 .03013 Mdot
.40368 .02781 Mdot
.40401 .01233 Mdot
.40433 .04934 Mdot
.40465 .06961 Mdot
.4053 .01144 Mdot
.40595 .00952 Mdot
.40627 .03182 Mdot
.40659 .05753 Mdot
.40692 .05394 Mdot
.40724 .06103 Mdot
.40821 .05137 Mdot
.43473 .42601 Mdot
.43505 .41307 Mdot
.43538 .42369 Mdot
.4357 .37752 Mdot
.43602 .40814 Mdot
.43635 .3712 Mdot
.43667 .37896 Mdot
.43699 .34566 Mdot
.43732 .40035 Mdot
.43764 .33417 Mdot
.43796 .38289 Mdot
.43829 .42164 Mdot
.43861 .41264 Mdot
.43893 .37859 Mdot
.43926 .31665 Mdot
.43958 .35508 Mdot
.4399 .3458 Mdot
.44023 .40307 Mdot
.44055 .46604 Mdot
.44087 .32799 Mdot
.4412 .3284 Mdot
.44152 .3849 Mdot
.44184 .46049 Mdot
.44217 .45168 Mdot
.44249 .3398 Mdot
.44281 .43964 Mdot
.44314 .41208 Mdot
.44346 .42755 Mdot
.44378 .41425 Mdot
.44411 .44365 Mdot
.44443 .45549 Mdot
.44475 .43767 Mdot
.44508 .406 Mdot
.4454 .46076 Mdot
.44572 .52071 Mdot
.44605 .4305 Mdot
.44637 .44859 Mdot
.44669 .49827 Mdot
.44702 .47039 Mdot
.44734 .41094 Mdot
.44766 .4471 Mdot
.44799 .47314 Mdot
.44831 .43332 Mdot
.44863 .39118 Mdot
.44896 .40622 Mdot
.44928 .45274 Mdot
.4496 .47596 Mdot
.44993 .46563 Mdot
.45025 .43155 Mdot
.45057 .47701 Mdot
.4509 .53656 Mdot
.45122 .54098 Mdot
.45154 .46113 Mdot
.45187 .4319 Mdot
.45219 .44021 Mdot
.45252 .55049 Mdot
.45284 .39596 Mdot
.45316 .44718 Mdot
.45349 .40242 Mdot
.45381 .42509 Mdot
.45413 .50131 Mdot
.45446 .4695 Mdot
.45478 .42122 Mdot
.4551 .44164 Mdot
.45543 .44064 Mdot
.45575 .50003 Mdot
.45607 .40265 Mdot
.4564 .40503 Mdot
.45672 .46732 Mdot
.45704 .45212 Mdot
.45737 .44796 Mdot
.45769 .44733 Mdot
.45801 .53185 Mdot
.45834 .53521 Mdot
.45866 .46372 Mdot
.45898 .42219 Mdot
.45931 .47681 Mdot
.45963 .45105 Mdot
.45995 .4676 Mdot
.46028 .43648 Mdot
.4606 .44572 Mdot
.46092 .47236 Mdot
.46125 .44409 Mdot
.46157 .41516 Mdot
.46189 .48096 Mdot
.46222 .4428 Mdot
.46254 .4823 Mdot
.46286 .48821 Mdot
.46319 .4644 Mdot
.46351 .44008 Mdot
.46383 .51628 Mdot
.46416 .52979 Mdot
.46448 .49995 Mdot
.4648 .47517 Mdot
.46513 .46181 Mdot
.46545 .50742 Mdot
.46577 .45167 Mdot
.4661 .49292 Mdot
.46642 .4614 Mdot
.46674 .50332 Mdot
.46707 .45075 Mdot
.46739 .48708 Mdot
.46771 .49995 Mdot
.46804 .50481 Mdot
.46836 .46997 Mdot
.46868 .54042 Mdot
.46901 .49207 Mdot
.46933 .49953 Mdot
.46965 .43943 Mdot
.46998 .50099 Mdot
.4703 .45071 Mdot
.47062 .41757 Mdot
.47095 .5037 Mdot
.47127 .52943 Mdot
.4716 .51247 Mdot
.47192 .44527 Mdot
.47224 .44358 Mdot
.47257 .52323 Mdot
.47289 .41052 Mdot
.47321 .51923 Mdot
.47354 .48488 Mdot
.47386 .54654 Mdot
.47418 .50945 Mdot
.47451 .52817 Mdot
.47483 .53979 Mdot
.47515 .48413 Mdot
.47548 .60332 Mdot
.4758 .53429 Mdot
.47612 .52712 Mdot
.47645 .50172 Mdot
.47677 .50945 Mdot
.47709 .53403 Mdot
.47742 .45696 Mdot
.47774 .50248 Mdot
.47806 .53551 Mdot
.47839 .4709 Mdot
.47871 .56655 Mdot
.47903 .57492 Mdot
.47936 .50812 Mdot
.47968 .52734 Mdot
.48 .50933 Mdot
.48033 .54149 Mdot
.48065 .51186 Mdot
.48097 .4626 Mdot
.4813 .50608 Mdot
.48162 .54436 Mdot
.48194 .51412 Mdot
.48227 .50241 Mdot
.48259 .54562 Mdot
.48291 .47733 Mdot
.48324 .54353 Mdot
.48356 .50469 Mdot
.48388 .54825 Mdot
.48421 .52045 Mdot
.48453 .56575 Mdot
.48485 .45613 Mdot
.48518 .49131 Mdot
.4855 .40885 Mdot
.48582 .4531 Mdot
.48615 .50102 Mdot
.48647 .54373 Mdot
.48679 .42706 Mdot
.48712 .53833 Mdot
.48744 .52883 Mdot
.48776 .47161 Mdot
.48809 .51763 Mdot
.48841 .50771 Mdot
.48873 .47591 Mdot
.48906 .48405 Mdot
.48938 .46639 Mdot
.4897 .57673 Mdot
.49003 .49927 Mdot
.49035 .53782 Mdot
.49068 .54181 Mdot
.491 .49812 Mdot
.49132 .5628 Mdot
.49165 .56011 Mdot
.49197 .45887 Mdot
.49229 .47525 Mdot
.49262 .5034 Mdot
.49294 .48421 Mdot
.49326 .46864 Mdot
.49359 .51135 Mdot
.49391 .50792 Mdot
.49423 .45344 Mdot
.49456 .46393 Mdot
.49488 .47948 Mdot
.4952 .45673 Mdot
.49553 .4908 Mdot
.49585 .46815 Mdot
.49617 .48179 Mdot
.4965 .4946 Mdot
.49682 .45 Mdot
.49714 .48898 Mdot
.49747 .4443 Mdot
.49779 .4063 Mdot
.49811 .50129 Mdot
.49844 .49342 Mdot
.49876 .49018 Mdot
.49908 .44043 Mdot
.49941 .42762 Mdot
.49973 .49319 Mdot
.50005 .52958 Mdot
.50038 .51896 Mdot
.5007 .4738 Mdot
.50102 .50447 Mdot
.50135 .46154 Mdot
.50167 .46681 Mdot
.50199 .4664 Mdot
.50232 .49665 Mdot
.50264 .44971 Mdot
.50296 .41713 Mdot
.50329 .51487 Mdot
.50361 .50459 Mdot
.50393 .47596 Mdot
.50426 .50362 Mdot
.50458 .5174 Mdot
.5049 .50382 Mdot
.50523 .50292 Mdot
.50555 .44261 Mdot
.50587 .41981 Mdot
.5062 .42387 Mdot
.50652 .48081 Mdot
.50684 .46885 Mdot
.50717 .41693 Mdot
.50749 .46823 Mdot
.50781 .39898 Mdot
.50814 .49869 Mdot
.50846 .42656 Mdot
.50878 .45133 Mdot
.50911 .47259 Mdot
.50943 .54283 Mdot
.50976 .43226 Mdot
.51008 .45034 Mdot
.5104 .49786 Mdot
.51073 .46393 Mdot
.51105 .46197 Mdot
.51137 .52051 Mdot
.5117 .49004 Mdot
.51202 .45141 Mdot
.51234 .46838 Mdot
.51267 .47963 Mdot
.51299 .53693 Mdot
.51331 .49512 Mdot
.51364 .48991 Mdot
.51396 .47098 Mdot
.51428 .45397 Mdot
.51461 .45234 Mdot
.51493 .43989 Mdot
.51525 .49478 Mdot
.51558 .51146 Mdot
.5159 .4968 Mdot
.51622 .49878 Mdot
.51655 .4531 Mdot
.51687 .50095 Mdot
.51719 .52727 Mdot
.51752 .49356 Mdot
.51784 .53586 Mdot
.51816 .49179 Mdot
.51849 .49864 Mdot
.51881 .39223 Mdot
.51913 .48547 Mdot
.51946 .45211 Mdot
.51978 .46689 Mdot
.5201 .49393 Mdot
.52043 .53731 Mdot
.52075 .54885 Mdot
.52107 .50088 Mdot
.5214 .4782 Mdot
.52172 .49327 Mdot
.52204 .49341 Mdot
.52237 .49806 Mdot
.52269 .58729 Mdot
.52301 .53888 Mdot
.52334 .52938 Mdot
.52366 .44543 Mdot
.52398 .52149 Mdot
.52431 .53112 Mdot
.52463 .48109 Mdot
.52495 .50938 Mdot
.52528 .41334 Mdot
.5256 .4516 Mdot
.52592 .47365 Mdot
.52625 .46414 Mdot
.52657 .48005 Mdot
.52689 .53816 Mdot
.52722 .44528 Mdot
.52754 .34423 Mdot
.52786 .47525 Mdot
.52819 .40199 Mdot
.52851 .39369 Mdot
.52884 .47778 Mdot
.52916 .46779 Mdot
.52948 .4481 Mdot
.52981 .44807 Mdot
.53013 .3982 Mdot
.53045 .47328 Mdot
.53078 .40346 Mdot
.5311 .48137 Mdot
.53142 .47673 Mdot
.53175 .5348 Mdot
.53207 .41918 Mdot
.53239 .43162 Mdot
.53272 .42677 Mdot
.53304 .41544 Mdot
.53336 .37272 Mdot
.53369 .50002 Mdot
.53401 .46837 Mdot
.53433 .36794 Mdot
.53466 .44633 Mdot
.53498 .43014 Mdot
.5353 .48995 Mdot
.53563 .45583 Mdot
.53595 .46025 Mdot
.53627 .39734 Mdot
.5366 .42557 Mdot
.53692 .40332 Mdot
.53724 .43358 Mdot
.53757 .37925 Mdot
.53789 .37383 Mdot
.53821 .4143 Mdot
.53854 .37559 Mdot
.53886 .41606 Mdot
.53918 .36475 Mdot
.53951 .42689 Mdot
.53983 .40212 Mdot
.54015 .38248 Mdot
.54048 .34146 Mdot
.5408 .34934 Mdot
.54112 .42872 Mdot
.54145 .37341 Mdot
.54177 .41549 Mdot
.54209 .39826 Mdot
.54242 .41726 Mdot
.54274 .44773 Mdot
.54306 .37757 Mdot
.54339 .40867 Mdot
.54371 .44948 Mdot
.54403 .45252 Mdot
.54436 .46053 Mdot
.54468 .4924 Mdot
.545 .42907 Mdot
.54533 .46793 Mdot
.54565 .49868 Mdot
.54597 .43352 Mdot
.5463 .41761 Mdot
.54662 .46033 Mdot
.54694 .468 Mdot
.54727 .51093 Mdot
.54759 .40247 Mdot
.54792 .36553 Mdot
.54824 .39522 Mdot
.54856 .39326 Mdot
.54889 .41184 Mdot
.54921 .44393 Mdot
.54953 .46672 Mdot
.54986 .4193 Mdot
.55018 .53322 Mdot
.5505 .45609 Mdot
.55083 .46301 Mdot
.55115 .48538 Mdot
.55147 .42013 Mdot
.5518 .43829 Mdot
.55212 .4414 Mdot
.55244 .47602 Mdot
.55277 .42338 Mdot
.55309 .39363 Mdot
.55341 .4027 Mdot
.55374 .49635 Mdot
.55406 .39124 Mdot
.55438 .45434 Mdot
.55471 .42379 Mdot
.55503 .40388 Mdot
.55535 .42557 Mdot
.55568 .44666 Mdot
.556 .44999 Mdot
.55632 .45412 Mdot
.55665 .47849 Mdot
.55697 .45658 Mdot
.55729 .38545 Mdot
.55762 .3934 Mdot
.55794 .50537 Mdot
.55826 .48713 Mdot
.55859 .39544 Mdot
.55891 .4758 Mdot
.55923 .46341 Mdot
.55956 .45434 Mdot
.55988 .47573 Mdot
.5602 .44829 Mdot
.56053 .39593 Mdot
.56085 .46392 Mdot
.56117 .45236 Mdot
.5615 .41367 Mdot
.56182 .42957 Mdot
.56214 .49418 Mdot
.56247 .48179 Mdot
.56279 .50799 Mdot
.56311 .42318 Mdot
.56344 .34569 Mdot
.56376 .4701 Mdot
.56408 .36483 Mdot
.56441 .46638 Mdot
.56473 .46419 Mdot
.56505 .42428 Mdot
.56538 .45137 Mdot
.5657 .42338 Mdot
.56602 .48101 Mdot
.56635 .4471 Mdot
.56667 .47476 Mdot
.56699 .48313 Mdot
.56732 .36842 Mdot
.56764 .40993 Mdot
.56797 .46187 Mdot
.56829 .46447 Mdot
.56861 .46004 Mdot
.56894 .47392 Mdot
.56926 .43922 Mdot
.56958 .4855 Mdot
.56991 .40079 Mdot
.57023 .40375 Mdot
.57055 .45666 Mdot
.57088 .44568 Mdot
.5712 .41486 Mdot
.57152 .4594 Mdot
.57185 .40355 Mdot
.57217 .48658 Mdot
.57249 .42253 Mdot
.57282 .47003 Mdot
.57314 .36293 Mdot
.57346 .41148 Mdot
.57379 .41789 Mdot
.57411 .46193 Mdot
.57443 .49565 Mdot
.57476 .54821 Mdot
.57508 .40889 Mdot
.5754 .43302 Mdot
.57573 .43887 Mdot
.57605 .53521 Mdot
.57637 .51691 Mdot
.5767 .48157 Mdot
.57702 .46315 Mdot
.57734 .45554 Mdot
.57767 .4364 Mdot
.57799 .44323 Mdot
.57831 .44154 Mdot
.57864 .48566 Mdot
.57896 .43956 Mdot
.57928 .4077 Mdot
.57961 .41107 Mdot
.57993 .47728 Mdot
.58025 .47166 Mdot
.58058 .52036 Mdot
.5809 .46096 Mdot
.58122 .47279 Mdot
.58155 .4851 Mdot
.58187 .40889 Mdot
.58219 .34401 Mdot
.58252 .38722 Mdot
.58284 .37532 Mdot
.58316 .38736 Mdot
.58349 .50031 Mdot
.58381 .44521 Mdot
.58413 .37849 Mdot
.58446 .473 Mdot
.58478 .42986 Mdot
.5851 .42332 Mdot
.58543 .39757 Mdot
.58575 .38609 Mdot
.58607 .4003 Mdot
.5864 .43641 Mdot
.58672 .39812 Mdot
.58705 .4024 Mdot
.58737 .43534 Mdot
.58769 .44224 Mdot
.58802 .42732 Mdot
.58834 .39355 Mdot
.58866 .37653 Mdot
.58899 .4314 Mdot
.58931 .37541 Mdot
.58963 .45751 Mdot
.58996 .32832 Mdot
.59028 .42924 Mdot
.5906 .44134 Mdot
.59093 .44239 Mdot
.59125 .37061 Mdot
.59157 .41263 Mdot
.5919 .45624 Mdot
.59222 .44155 Mdot
.59254 .47117 Mdot
.59287 .44577 Mdot
.59319 .42163 Mdot
.59351 .41453 Mdot
.59384 .36147 Mdot
.59416 .50144 Mdot
.59448 .41325 Mdot
.59481 .4958 Mdot
.59513 .42979 Mdot
.59545 .48476 Mdot
.59578 .42228 Mdot
.5961 .52022 Mdot
.59642 .41616 Mdot
.59675 .4286 Mdot
.59707 .42359 Mdot
.59739 .4462 Mdot
.59772 .46497 Mdot
.59804 .5255 Mdot
.59836 .51269 Mdot
.59869 .47329 Mdot
.59901 .47173 Mdot
.59933 .51331 Mdot
.59966 .49776 Mdot
.59998 .43831 Mdot
.6003 .47848 Mdot
.60063 .46068 Mdot
.60095 .41451 Mdot
.60127 .5196 Mdot
.6016 .52077 Mdot
.60192 .43114 Mdot
.60224 .48167 Mdot
.60257 .48291 Mdot
.60289 .40944 Mdot
.60321 .41644 Mdot
.60354 .40202 Mdot
.60386 .30646 Mdot
.60418 .44106 Mdot
.60451 .47117 Mdot
.60483 .40861 Mdot
.60515 .43014 Mdot
.60548 .47912 Mdot
.74518 .47207 Mdot
.74551 .43366 Mdot
.74583 .43034 Mdot
.74615 .41542 Mdot
.74648 .46096 Mdot
.7468 .41112 Mdot
.74712 .4418 Mdot
.74745 .46771 Mdot
.74777 .43499 Mdot
.74809 .36728 Mdot
.74842 .39304 Mdot
.74874 .45116 Mdot
.74906 .34795 Mdot
.74939 .3951 Mdot
.74971 .47044 Mdot
.75003 .44892 Mdot
.75036 .47425 Mdot
.75068 .3642 Mdot
.751 .37912 Mdot
.75133 .44358 Mdot
.75165 .39995 Mdot
.75197 .40572 Mdot
.7523 .39734 Mdot
.75262 .44012 Mdot
.75294 .31804 Mdot
.75327 .48346 Mdot
.75359 .45238 Mdot
.75391 .41092 Mdot
.75424 .47933 Mdot
.75456 .47384 Mdot
.75488 .39853 Mdot
.75521 .44589 Mdot
.75553 .46059 Mdot
.75585 .40431 Mdot
.75618 .40339 Mdot
.7565 .38319 Mdot
.75682 .40628 Mdot
.75715 .38989 Mdot
.75747 .42605 Mdot
.75779 .32263 Mdot
.75812 .31148 Mdot
.75844 .35829 Mdot
.75876 .37201 Mdot
.75909 .34374 Mdot
.75941 .41804 Mdot
.75974 .35541 Mdot
.76006 .37517 Mdot
.76038 .44992 Mdot
.76071 .3597 Mdot
.76103 .35831 Mdot
.95873 .33462 Mdot
.95905 .25019 Mdot
.95937 .28656 Mdot
.9597 .29177 Mdot
.96002 .29142 Mdot
.96034 .23541 Mdot
.96067 .29979 Mdot
.96099 .31198 Mdot
.96131 .29044 Mdot
.96164 .2948 Mdot
.96196 .37459 Mdot
.96228 .32534 Mdot
.96261 .28628 Mdot
.96293 .3005 Mdot
.96325 .31055 Mdot
.96358 .28313 Mdot
.9639 .32456 Mdot
.96423 .27517 Mdot
.96455 .26187 Mdot
.96487 .3176 Mdot
.9652 .31653 Mdot
.96552 .38296 Mdot
.96584 .33202 Mdot
.96617 .3304 Mdot
.96649 .29943 Mdot
.96681 .33061 Mdot
.96714 .30809 Mdot
.96746 .28967 Mdot
.96778 .20967 Mdot
.96811 .3036 Mdot
.96843 .31493 Mdot
.96875 .30309 Mdot
.96908 .32392 Mdot
.9694 .29094 Mdot
.96972 .27215 Mdot
.97005 .2573 Mdot
.97037 .30415 Mdot
.97069 .3038 Mdot
.97102 .3406 Mdot
.97134 .28002 Mdot
.97166 .27538 Mdot
.97199 .30339 Mdot
.97231 .26461 Mdot
.97263 .29051 Mdot
.97296 .32125 Mdot
.97328 .30044 Mdot
.9736 .24991 Mdot
.97393 .23069 Mdot
.97425 .28594 Mdot
.97457 .26989 Mdot
.9749 .34117 Mdot
.97522 .2464 Mdot
.97554 .30289 Mdot
.97587 .27876 Mdot
.97619 .21424 Mdot
% End of Graphics
MathPictureEnd

%%PSTrailer
end
grestore


%%EPS Trailer

%%Trailer
%%EOF
