%!PS-Adobe-2.0 EPSF-1.2
%%BoundingBox: 88 4 376 182
%%HiResBoundingBox: 88 4 376 181.938
%%Creator: (Mathematica 4.0 for X)
%%CreationDate: (Monday, May 16, 2005) (9:12:41)
%%Title: Clipboard
%%DocumentNeededResources: font Courier
%%DocumentSuppliedResources:
%%DocumentNeededFonts: Courier
%%DocumentSuppliedFonts:
%%DocumentFonts: Courier
%%EndComments
/MISOfy
{
    /newfontname exch def
    /oldfontname exch def

    oldfontname findfont
    dup length dict begin
        {1 index /FID ne {def} {pop pop} ifelse} forall
        /Encoding ISOLatin1Encoding def
        currentdict
    end

    newfontname exch definefont pop
} def

0 185.938 translate 1 -1 scale
gsave
150 dict begin
/Mfixwid true def
/Mrot 0 def
/Mpstart {
    MathPictureStart
} bind def
/Mpend {
    MathPictureEnd
} bind def
/Mscale {
    0 1 0 1
    5 -1 roll
    MathScale
} bind def
/Plain	/Courier findfont def
/Bold	/Courier-Bold findfont def
/Italic /Courier-Oblique findfont def
/MathPictureStart {
	/Mimatrix
	 matrix currentmatrix
	def
	gsave
	newpath
	Mleft
	Mbottom
	translate
	/Mtmatrix
	matrix currentmatrix
	def
	Plain
	Mfontsize scalefont
	setfont
	0 setgray
	0 setlinewidth
} bind def
/MathPictureEnd {
	grestore
} bind def
/MathSubStart {
 	     Momatrix
        Mgmatrix Mtmatrix
        Mleft Mbottom
        Mwidth Mheight
        9 -2 roll
        moveto
        Mtmatrix setmatrix
        currentpoint
        Mgmatrix setmatrix
        11 -2 roll
        moveto
        Mtmatrix setmatrix
        currentpoint
        2 copy translate
        /Mtmatrix matrix currentmatrix def
        /Mleft 0 def
        /Mbottom 0 def
        3 -1 roll
        exch sub
        /Mheight exch def
        sub
        /Mwidth exch def
} bind def
/MathSubEnd {
        /Mheight exch def
        /Mwidth exch def
        /Mbottom exch def
        /Mleft exch def
        /Mtmatrix exch def
        dup setmatrix
        /Mgmatrix exch def
	      /Momatrix exch def
} bind def
/Mdot {
	moveto
	0 0 rlineto
	stroke
} bind def
/Mtetra {
	moveto
	lineto
	lineto
	lineto
	fill
} bind def
/Metetra {
	moveto
	lineto
	lineto
	lineto
	closepath
	gsave
	fill
	grestore
	0 setgray
	stroke
} bind def
/Mistroke {
	flattenpath
	0 0 0
	{
	4 2 roll
	pop pop
	}
	{
	4 -1 roll
	2 index
	sub dup mul
	4 -1 roll
	2 index
	sub dup mul
	add sqrt
	4 -1 roll
	add
	3 1 roll
	}
	{
	stop
	}
	{
	stop
	}
	pathforall
	pop pop
	currentpoint
	stroke
	moveto
	currentdash
	3 -1 roll
	add
	setdash
} bind def
/Mfstroke {
	stroke
	currentdash
	pop 0
	setdash
} bind def
/Mrotsboxa {
	gsave
	dup
	/Mrot
	exch def
	Mrotcheck
	Mtmatrix
	dup
	setmatrix
	7 1 roll
	4 index
	4 index
	translate
	rotate
	3 index
	-1 mul
	3 index
	-1 mul
	translate
	/Mtmatrix
	matrix
	currentmatrix
	def
	grestore
	Msboxa
	3  -1 roll
	/Mtmatrix
	exch def
	/Mrot
	0 def
} bind def
/Msboxa {
	newpath
	5 -1 roll
	Mvboxa
	pop
	Mboxout
	6 -1 roll
	5 -1 roll
	4 -1 roll
	Msboxa1
	5 -3 roll
	Msboxa1
	Mboxrot
	[
	7 -2 roll
	2 copy
	[
	3 1 roll
	10 -1 roll
	9 -1 roll
	]
	6 1 roll
	5 -2 roll
	]
} bind def
/Msboxa1 {
	sub
	2 div
	dup
	2 index
	1 add
	mul
	3 -1 roll
	-1 add
	3 -1 roll
	mul
} bind def
/Mvboxa	{
	Mfixwid
	{
	Mvboxa1
	}
	{
	dup
	Mwidthcal
	0 exch
	{
	add
	}
	forall
	exch
	Mvboxa1
	4 index
	7 -1 roll
	add
	4 -1 roll
	pop
	3 1 roll
	}
	ifelse
} bind def
/Mvboxa1 {
	gsave
	newpath
	[ true
	3 -1 roll
	{
	Mbbox
	5 -1 roll
	{
	0
	5 1 roll
	}
	{
	7 -1 roll
	exch sub
	(m) stringwidth pop
	.3 mul
	sub
	7 1 roll
	6 -1 roll
	4 -1 roll
	Mmin
	3 -1 roll
	5 index
	add
	5 -1 roll
	4 -1 roll
	Mmax
	4 -1 roll
	}
	ifelse
	false
	}
	forall
	{ stop } if
	counttomark
	1 add
	4 roll
	]
	grestore
} bind def
/Mbbox {
	0 0 moveto
	false charpath
	flattenpath
	pathbbox
	newpath
} bind def
/Mmin {
	2 copy
	gt
	{ exch } if
	pop
} bind def
/Mmax {
	2 copy
	lt
	{ exch } if
	pop
} bind def
/Mrotshowa {
	dup
	/Mrot
	exch def
	Mrotcheck
	Mtmatrix
	dup
	setmatrix
	7 1 roll
	4 index
	4 index
	translate
	rotate
	3 index
	-1 mul
	3 index
	-1 mul
	translate
	/Mtmatrix
	matrix
	currentmatrix
	def
	Mgmatrix setmatrix
	Mshowa
	/Mtmatrix
	exch def
	/Mrot 0 def
} bind def
/Mshowa {
	4 -2 roll
	moveto
	2 index
	Mtmatrix setmatrix
	Mvboxa
	7 1 roll
	Mboxout
	6 -1 roll
	5 -1 roll
	4 -1 roll
	Mshowa1
	4 1 roll
	Mshowa1
	rmoveto
	currentpoint
	Mfixwid
	{
	Mshowax
	}
	{
	Mshoway
	}
	ifelse
	pop pop pop pop
	Mgmatrix setmatrix
} bind def
/Mshowax {
	0 1
        4 index length
        -1 add
        {
        2 index
        4 index
        2 index
        get
        3 index
        add
        moveto
        4 index
        exch get
        show
        } for
} bind def
/Mshoway {
        3 index
        Mwidthcal
        5 1 roll
	0 1
	4 index length
	-1 add
	{
	2 index
	4 index
	2 index
	get
	3 index
	add
	moveto
	4 index
	exch get
	[
	6 index
	aload
	length
	2 add
	-1 roll
	{
	pop
	Strform
	stringwidth
	pop
	neg
	exch
	add
	0 rmoveto
	}
	exch
	kshow
	cleartomark
	} for
	pop
} bind def
/Mwidthcal {
	[
	exch
	{
	Mwidthcal1
	}
	forall
	]
	[
	exch
	dup
	Maxlen
	-1 add
	0 1
	3 -1 roll
	{
	[
	exch
	2 index
	{
	1 index
	Mget
	exch
	}
	forall
	pop
	Maxget
	exch
	}
	for
	pop
	]
	Mreva
} bind def
/Mreva	{
	[
	exch
	aload
	length
	-1 1
	{1 roll}
	for
	]
} bind def
/Mget	{
	1 index
	length
	-1 add
	1 index
	ge
	{
	get
	}
	{
	pop pop
	0
	}
	ifelse
} bind def
/Maxlen	{
	[
	exch
	{
	length
	}
	forall
	Maxget
} bind def
/Maxget	{
	counttomark
	-1 add
	1 1
	3 -1 roll
	{
	pop
	Mmax
	}
	for
	exch
	pop
} bind def
/Mwidthcal1 {
	[
	exch
	{
	Strform
	stringwidth
	pop
	}
	forall
	]
} bind def
/Strform {
	/tem (x) def
	tem 0
	3 -1 roll
	put
	tem
} bind def
/Mshowa1 {
	2 copy
	add
	4 1 roll
	sub
	mul
	sub
	-2 div
} bind def
/MathScale {
	Mwidth
	Mheight
	Mlp
	translate
	scale
	/yscale exch def
	/ybias exch def
	/xscale exch def
	/xbias exch def
	/Momatrix
	xscale yscale matrix scale
	xbias ybias matrix translate
	matrix concatmatrix def
	/Mgmatrix
	matrix currentmatrix
	def
} bind def
/Mlp {
	3 copy
	Mlpfirst
	{
	Mnodistort
	{
	Mmin
	dup
	} if
	4 index
	2 index
	2 index
	Mlprun
	11 index
	11 -1 roll
	10 -4 roll
	Mlp1
	8 index
	9 -5 roll
	Mlp1
	4 -1 roll
	and
	{ exit } if
	3 -1 roll
	pop pop
	} loop
	exch
	3 1 roll
	7 -3 roll
	pop pop pop
} bind def
/Mlpfirst {
	3 -1 roll
	dup length
	2 copy
	-2 add
	get
	aload
	pop pop pop
	4 -2 roll
	-1 add
	get
	aload
	pop pop pop
	6 -1 roll
	3 -1 roll
	5 -1 roll
	sub
	dup /MsaveAx exch def
	div
	4 1 roll
	exch sub
	dup /MsaveAy exch def
	div
} bind def
/Mlprun {
	2 copy
	4 index
	0 get
	dup
	4 1 roll
	Mlprun1
	3 copy
	8 -2 roll
	9 -1 roll
	{
	3 copy
	Mlprun1
	3 copy
	11 -3 roll
	/gt Mlpminmax
	8 3 roll
	11 -3 roll
	/lt Mlpminmax
	8 3 roll
	} forall
	pop pop pop pop
	3 1 roll
	pop pop
	aload pop
	5 -1 roll
	aload pop
	exch
	6 -1 roll
	Mlprun2
	8 2 roll
	4 -1 roll
	Mlprun2
	6 2 roll
	3 -1 roll
	Mlprun2
	4 2 roll
	exch
	Mlprun2
	6 2 roll
} bind def
/Mlprun1 {
	aload pop
	exch
	6 -1 roll
	5 -1 roll
	mul add
	4 -2 roll
	mul
	3 -1 roll
	add
} bind def
/Mlprun2 {
	2 copy
	add 2 div
	3 1 roll
	exch sub
} bind def
/Mlpminmax {
	cvx
	2 index
	6 index
	2 index
	exec
	{
	7 -3 roll
	4 -1 roll
	} if
	1 index
	5 index
	3 -1 roll
	exec
	{
	4 1 roll
	pop
	5 -1 roll
	aload
	pop pop
	4 -1 roll
	aload pop
	[
	8 -2 roll
	pop
	5 -2 roll
	pop
	6 -2 roll
	pop
	5 -1 roll
	]
	4 1 roll
	pop
	}
	{
	pop pop pop
	} ifelse
} bind def
/Mlp1 {
	5 index
	3 index	sub
	5 index
	2 index mul
	1 index
	le
	1 index
	0 le
	or
	dup
	not
	{
	1 index
	3 index	div
	.99999 mul
	8 -1 roll
	pop
	7 1 roll
	}
	if
	8 -1 roll
	2 div
	7 -2 roll
	pop sub
	5 index
	6 -3 roll
	pop pop
	mul sub
	exch
} bind def
/intop 0 def
/inrht 0 def
/inflag 0 def
/outflag 0 def
/xadrht 0 def
/xadlft 0 def
/yadtop 0 def
/yadbot 0 def
/Minner {
	outflag
	1
	eq
	{
	/outflag 0 def
	/intop 0 def
	/inrht 0 def
	} if
	5 index
	gsave
	Mtmatrix setmatrix
	Mvboxa pop
	grestore
	3 -1 roll
	pop
	dup
	intop
	gt
	{
	/intop
	exch def
	}
	{ pop }
	ifelse
	dup
	inrht
	gt
	{
	/inrht
	exch def
	}
	{ pop }
	ifelse
	pop
	/inflag
	1 def
} bind def
/Mouter {
	/xadrht 0 def
	/xadlft 0 def
	/yadtop 0 def
	/yadbot 0 def
	inflag
	1 eq
	{
	dup
	0 lt
	{
	dup
	intop
	mul
	neg
	/yadtop
	exch def
	} if
	dup
	0 gt
	{
	dup
	intop
	mul
	/yadbot
	exch def
	}
	if
	pop
	dup
	0 lt
	{
	dup
	inrht
	mul
	neg
	/xadrht
	exch def
	} if
	dup
	0 gt
	{
	dup
	inrht
	mul
	/xadlft
	exch def
	} if
	pop
	/outflag 1 def
	}
	{ pop pop}
	ifelse
	/inflag 0 def
	/inrht 0 def
	/intop 0 def
} bind def
/Mboxout {
	outflag
	1
	eq
	{
	4 -1
	roll
	xadlft
	leadjust
	add
	sub
	4 1 roll
	3 -1
	roll
	yadbot
	leadjust
	add
	sub
	3 1
	roll
	exch
	xadrht
	leadjust
	add
	add
	exch
	yadtop
	leadjust
	add
	add
	/outflag 0 def
	/xadlft 0 def
	/yadbot 0 def
	/xadrht 0 def
	/yadtop 0 def
	} if
} bind def
/leadjust {
	(m) stringwidth pop
	.5 mul
} bind def
/Mrotcheck {
	dup
	90
	eq
	{
	yadbot
	/yadbot
	xadrht
	def
	/xadrht
	yadtop
	def
	/yadtop
	xadlft
	def
	/xadlft
	exch
	def
	}
	if
	dup
	cos
	1 index
	sin
	Checkaux
	dup
	cos
	1 index
	sin neg
	exch
	Checkaux
	3 1 roll
	pop pop
} bind def
/Checkaux {
	4 index
	exch
	4 index
	mul
	3 1 roll
	mul add
	4 1 roll
} bind def
/Mboxrot {
	Mrot
	90 eq
	{
	brotaux
	4 2
	roll
	}
	if
	Mrot
	180 eq
	{
	4 2
        roll
	brotaux
	4 2
	roll
	brotaux
	}
	if
	Mrot
	270 eq
	{
	4 2
	roll
	brotaux
	}
	if
} bind def
/brotaux {
	neg
	exch
	neg
} bind def
/Mabsproc {
        0
        matrix defaultmatrix
        dtransform idtransform
        dup mul exch
        dup mul
        add sqrt
} bind def
/Mabswid {
        Mabsproc
        setlinewidth
} bind def
/Mabsdash {
        exch
        [
        exch
        {
        Mabsproc
        }
        forall
        ]
        exch
        setdash
} bind def
/MBeginOrig { Momatrix concat} bind def
/MEndOrig { Mgmatrix setmatrix} bind def
/sampledsound where
{ pop}
{ /sampledsound {
exch
pop
exch
5 1 roll
mul
4 idiv
mul
2 idiv
exch pop
exch
/Mtempproc exch def
{ Mtempproc pop }
repeat
} bind def
} ifelse
% Here are the short operators
/g { setgray} bind def
/k { setcmykcolor} bind def
/m { moveto} bind def
/p { gsave} bind def
/r { setrgbcolor} bind def
/w { setlinewidth} bind def
/C { curveto} bind def
/F { fill} bind def
/L { lineto} bind def
/P { grestore} bind def
/s { stroke} bind def

/MFill {
	0 0 		moveto
	Mwidth 0 	lineto
	Mwidth Mheight 	lineto
	0 Mheight 	lineto
	fill
} bind def

/MPlotRegion {
	3 index
	Mwidth mul
	2 index
	Mheight mul
	translate
	exch sub
	Mheight mul
	/Mheight
	exch def
	exch sub
	Mwidth mul
	/Mwidth
	exch def
} bind def

/Mcharproc
{
  	currentfile
  	(x)
  	readhexstring
  	pop
  	0 get
  	exch
 	div
} bind def

/Mshadeproc
{
	dup
	3 1
	roll
	{
	dup
	Mcharproc
	3 1
	roll
	} repeat
	1 eq
	{
	setgray
	}
	{
	3 eq
	{
	setrgbcolor
	}
	{
	setcmykcolor
	} ifelse
	} ifelse
} bind def

/Mrectproc
{
	3 index
	2 index
	moveto
	2 index
	3 -1
	roll
	lineto
	dup
	3 1
	roll
	lineto
	lineto
	fill
} bind def

/_Mcolorimage
{
	7 1
	roll
	pop
	pop
	matrix
	invertmatrix
	concat
	2 exch exp
	1 sub
	3 1 roll
	1 1
	2 index
	{
	1 1
	4 index
	{
	dup
	1 sub
	exch
	2 index
	dup
	1 sub
	exch
	7 index
	9 index
	Mshadeproc
	Mrectproc
	} for
	pop
	} for
	pop pop pop pop
} bind def

/_Mimage
{
	pop
	matrix
	invertmatrix
	concat
	2 exch exp
	1 sub
	3 1 roll
	1 1
	2 index
	{
	1 1
	4 index
	{
	dup
	1 sub 
	exch
	2 index
	dup
	1 sub
	exch
	7 index
	Mcharproc
	setgray
	Mrectproc
	} for
	pop
	} for
	pop pop pop
} bind def

/Mimage {
	4 index
	4 index
	mul 1600 gt
	{ image }
	{ _Mimage }
	ifelse
} def

/Mcolorimage {
	6 index
	6 index
	mul 1600 gt
	{ colorimage }
	{ _Mcolorimage }
	ifelse
} def
/Mnodistort true def
1.000000 1.000000 scale
88.000000 181.937500 translate
1.000000 -1.000000 scale
-0.000000 -0.000000 translate
/Mleft		0.000000 def
/Mbottom	0.000000 def
/Mwidth		288.000000 def
/Mheight	177.937500 def
0 setgray
0 setlinewidth
/Courier findfont 12 scalefont setfont
/Mfontsize 12 def
/Plain /Courier findfont def

%!
%%Creator: Mathematica
%%AspectRatio: .61803 
MathPictureStart
/Mabs {
Mgmatrix idtransform
Mtmatrix dtransform
} bind def
/Mabsadd { Mabs
3 -1 roll add
3 1 roll add
exch } bind def
%% Graphics
%%IncludeResource: font Courier
%%IncludeFont: Courier
/Courier findfont 10  scalefont  setfont
% Scaling calculations
-1.04083e-17 0.001 0.0147151 0.000144301 [
[.2 .00222 -12 -9 ]
[.2 .00222 12 0 ]
[.4 .00222 -12 -9 ]
[.4 .00222 12 0 ]
[.6 .00222 -12 -9 ]
[.6 .00222 12 0 ]
[.8 .00222 -12 -9 ]
[.8 .00222 12 0 ]
[1 .00222 -15 -9 ]
[1 .00222 15 0 ]
[-0.0125 .15902 -24 -4.5 ]
[-0.0125 .15902 0 4.5 ]
[-0.0125 .30332 -24 -4.5 ]
[-0.0125 .30332 0 4.5 ]
[-0.0125 .44762 -24 -4.5 ]
[-0.0125 .44762 0 4.5 ]
[-0.0125 .59192 -24 -4.5 ]
[-0.0125 .59192 0 4.5 ]
[ 0 0 0 0 ]
[ 1 .61803 0 0 ]
] MathScale
% Start of Graphics
1 setlinecap
1 setlinejoin
newpath
0 g
.25 Mabswid
[ ] 0 setdash
.2 .01472 m
.2 .02097 L
s
[(200.)] .2 .00222 0 1 Mshowa
.4 .01472 m
.4 .02097 L
s
[(400.)] .4 .00222 0 1 Mshowa
.6 .01472 m
.6 .02097 L
s
[(600.)] .6 .00222 0 1 Mshowa
.8 .01472 m
.8 .02097 L
s
[(800.)] .8 .00222 0 1 Mshowa
1 .01472 m
1 .02097 L
s
[(1000.)] 1 .00222 0 1 Mshowa
0 .01472 m
1 .01472 L
s
0 .15902 m
.00625 .15902 L
s
[(1000)] -0.0125 .15902 1 0 Mshowa
0 .30332 m
.00625 .30332 L
s
[(2000)] -0.0125 .30332 1 0 Mshowa
0 .44762 m
.00625 .44762 L
s
[(3000)] -0.0125 .44762 1 0 Mshowa
0 .59192 m
.00625 .59192 L
s
[(4000)] -0.0125 .59192 1 0 Mshowa
.125 Mabswid
0 .04358 m
.00375 .04358 L
s
0 .07244 m
.00375 .07244 L
s
0 .1013 m
.00375 .1013 L
s
0 .13016 m
.00375 .13016 L
s
0 .18788 m
.00375 .18788 L
s
0 .21674 m
.00375 .21674 L
s
0 .2456 m
.00375 .2456 L
s
0 .27446 m
.00375 .27446 L
s
0 .33218 m
.00375 .33218 L
s
0 .36104 m
.00375 .36104 L
s
0 .3899 m
.00375 .3899 L
s
0 .41876 m
.00375 .41876 L
s
0 .47648 m
.00375 .47648 L
s
0 .50534 m
.00375 .50534 L
s
0 .5342 m
.00375 .5342 L
s
0 .56306 m
.00375 .56306 L
s
.25 Mabswid
0 0 m
0 .61803 L
s
0 0 m
1 0 L
1 .61803 L
0 .61803 L
closepath
clip
newpath
1 0 0 r
0 .01472 m
0 .24199 L
.01 .24199 L
.01 .01472 L
F
0 g
.5 Mabswid
0 .01472 m
0 .24199 L
.01 .24199 L
.01 .01472 L
0 .01472 L
s
1 0 0 r
.01 .01472 m
.01 .60332 L
.02 .60332 L
.02 .01472 L
F
0 g
.01 .01472 m
.01 .60332 L
.02 .60332 L
.02 .01472 L
.01 .01472 L
s
1 0 0 r
.02 .01472 m
.02 .46364 L
.03 .46364 L
.03 .01472 L
F
0 g
.02 .01472 m
.02 .46364 L
.03 .46364 L
.03 .01472 L
.02 .01472 L
s
1 0 0 r
.03 .01472 m
.03 .29264 L
.04 .29264 L
.04 .01472 L
F
0 g
.03 .01472 m
.03 .29264 L
.04 .29264 L
.04 .01472 L
.03 .01472 L
s
1 0 0 r
.04 .01472 m
.04 .17316 L
.05 .17316 L
.05 .01472 L
F
0 g
.04 .01472 m
.04 .17316 L
.05 .17316 L
.05 .01472 L
.04 .01472 L
s
1 0 0 r
.05 .01472 m
.05 .11226 L
.06 .11226 L
.06 .01472 L
F
0 g
.05 .01472 m
.05 .11226 L
.06 .11226 L
.06 .01472 L
.05 .01472 L
s
1 0 0 r
.06 .01472 m
.06 .07143 L
.07 .07143 L
.07 .01472 L
F
0 g
.06 .01472 m
.06 .07143 L
.07 .07143 L
.07 .01472 L
.06 .01472 L
s
1 0 0 r
.07 .01472 m
.07 .04632 L
.08 .04632 L
.08 .01472 L
F
0 g
.07 .01472 m
.07 .04632 L
.08 .04632 L
.08 .01472 L
.07 .01472 L
s
1 0 0 r
.08 .01472 m
.08 .03766 L
.09 .03766 L
.09 .01472 L
F
0 g
.08 .01472 m
.08 .03766 L
.09 .03766 L
.09 .01472 L
.08 .01472 L
s
1 0 0 r
.09 .01472 m
.09 .0342 L
.1 .0342 L
.1 .01472 L
F
0 g
.09 .01472 m
.09 .0342 L
.1 .0342 L
.1 .01472 L
.09 .01472 L
s
1 0 0 r
.1 .01472 m
.1 .0264 L
.11 .0264 L
.11 .01472 L
F
0 g
.1 .01472 m
.1 .0264 L
.11 .0264 L
.11 .01472 L
.1 .01472 L
s
1 0 0 r
.11 .01472 m
.11 .02424 L
.12 .02424 L
.12 .01472 L
F
0 g
.11 .01472 m
.11 .02424 L
.12 .02424 L
.12 .01472 L
.11 .01472 L
s
1 0 0 r
.12 .01472 m
.12 .02409 L
.13 .02409 L
.13 .01472 L
F
0 g
.12 .01472 m
.12 .02409 L
.13 .02409 L
.13 .01472 L
.12 .01472 L
s
1 0 0 r
.13 .01472 m
.13 .0215 L
.14 .0215 L
.14 .01472 L
F
0 g
.13 .01472 m
.13 .0215 L
.14 .0215 L
.14 .01472 L
.13 .01472 L
s
1 0 0 r
.14 .01472 m
.14 .01818 L
.15 .01818 L
.15 .01472 L
F
0 g
.14 .01472 m
.14 .01818 L
.15 .01818 L
.15 .01472 L
.14 .01472 L
s
1 0 0 r
.15 .01472 m
.15 .01991 L
.16 .01991 L
.16 .01472 L
F
0 g
.15 .01472 m
.15 .01991 L
.16 .01991 L
.16 .01472 L
.15 .01472 L
s
1 0 0 r
.16 .01472 m
.16 .01789 L
.17 .01789 L
.17 .01472 L
F
0 g
.16 .01472 m
.16 .01789 L
.17 .01789 L
.17 .01472 L
.16 .01472 L
s
1 0 0 r
.17 .01472 m
.17 .01818 L
.18 .01818 L
.18 .01472 L
F
0 g
.17 .01472 m
.17 .01818 L
.18 .01818 L
.18 .01472 L
.17 .01472 L
s
1 0 0 r
.18 .01472 m
.18 .0176 L
.19 .0176 L
.19 .01472 L
F
0 g
.18 .01472 m
.18 .0176 L
.19 .0176 L
.19 .01472 L
.18 .01472 L
s
1 0 0 r
.19 .01472 m
.19 .01789 L
.2 .01789 L
.2 .01472 L
F
0 g
.19 .01472 m
.19 .01789 L
.2 .01789 L
.2 .01472 L
.19 .01472 L
s
1 0 0 r
.2 .01472 m
.2 .01616 L
.21 .01616 L
.21 .01472 L
F
0 g
.2 .01472 m
.2 .01616 L
.21 .01616 L
.21 .01472 L
.2 .01472 L
s
1 0 0 r
.21 .01472 m
.21 .01731 L
.22 .01731 L
.22 .01472 L
F
0 g
.21 .01472 m
.21 .01731 L
.22 .01731 L
.22 .01472 L
.21 .01472 L
s
1 0 0 r
.22 .01472 m
.22 .01601 L
.23 .01601 L
.23 .01472 L
F
0 g
.22 .01472 m
.22 .01601 L
.23 .01601 L
.23 .01472 L
.22 .01472 L
s
1 0 0 r
.23 .01472 m
.23 .01645 L
.24 .01645 L
.24 .01472 L
F
0 g
.23 .01472 m
.23 .01645 L
.24 .01645 L
.24 .01472 L
.23 .01472 L
s
1 0 0 r
.24 .01472 m
.24 .0163 L
.25 .0163 L
.25 .01472 L
F
0 g
.24 .01472 m
.24 .0163 L
.25 .0163 L
.25 .01472 L
.24 .01472 L
s
1 0 0 r
.25 .01472 m
.25 .01674 L
.26 .01674 L
.26 .01472 L
F
0 g
.25 .01472 m
.25 .01674 L
.26 .01674 L
.26 .01472 L
.25 .01472 L
s
1 0 0 r
.26 .01472 m
.26 .01544 L
.27 .01544 L
.27 .01472 L
F
0 g
.26 .01472 m
.26 .01544 L
.27 .01544 L
.27 .01472 L
.26 .01472 L
s
1 0 0 r
.27 .01472 m
.27 .01573 L
.28 .01573 L
.28 .01472 L
F
0 g
.27 .01472 m
.27 .01573 L
.28 .01573 L
.28 .01472 L
.27 .01472 L
s
1 0 0 r
.28 .01472 m
.28 .01616 L
.29 .01616 L
.29 .01472 L
F
0 g
.28 .01472 m
.28 .01616 L
.29 .01616 L
.29 .01472 L
.28 .01472 L
s
1 0 0 r
.29 .01472 m
.29 .01544 L
.3 .01544 L
.3 .01472 L
F
0 g
.29 .01472 m
.29 .01544 L
.3 .01544 L
.3 .01472 L
.29 .01472 L
s
1 0 0 r
.3 .01472 m
.3 .01601 L
.31 .01601 L
.31 .01472 L
F
0 g
.3 .01472 m
.3 .01601 L
.31 .01601 L
.31 .01472 L
.3 .01472 L
s
1 0 0 r
.31 .01472 m
.31 .01616 L
.32 .01616 L
.32 .01472 L
F
0 g
.31 .01472 m
.31 .01616 L
.32 .01616 L
.32 .01472 L
.31 .01472 L
s
1 0 0 r
.32 .01472 m
.32 .01515 L
.33 .01515 L
.33 .01472 L
F
0 g
.32 .01472 m
.32 .01515 L
.33 .01515 L
.33 .01472 L
.32 .01472 L
s
1 0 0 r
.33 .01472 m
.33 .01544 L
.34 .01544 L
.34 .01472 L
F
0 g
.33 .01472 m
.33 .01544 L
.34 .01544 L
.34 .01472 L
.33 .01472 L
s
1 0 0 r
.34 .01472 m
.34 .01529 L
.35 .01529 L
.35 .01472 L
F
0 g
.34 .01472 m
.34 .01529 L
.35 .01529 L
.35 .01472 L
.34 .01472 L
s
1 0 0 r
.35 .01472 m
.35 .0163 L
.36 .0163 L
.36 .01472 L
F
0 g
.35 .01472 m
.35 .0163 L
.36 .0163 L
.36 .01472 L
.35 .01472 L
s
1 0 0 r
.36 .01472 m
.36 .01515 L
.37 .01515 L
.37 .01472 L
F
0 g
.36 .01472 m
.36 .01515 L
.37 .01515 L
.37 .01472 L
.36 .01472 L
s
1 0 0 r
.37 .01472 m
.37 .01544 L
.38 .01544 L
.38 .01472 L
F
0 g
.37 .01472 m
.37 .01544 L
.38 .01544 L
.38 .01472 L
.37 .01472 L
s
1 0 0 r
.38 .01472 m
.38 .01645 L
.39 .01645 L
.39 .01472 L
F
0 g
.38 .01472 m
.38 .01645 L
.39 .01645 L
.39 .01472 L
.38 .01472 L
s
1 0 0 r
.39 .01472 m
.39 .01544 L
.4 .01544 L
.4 .01472 L
F
0 g
.39 .01472 m
.39 .01544 L
.4 .01544 L
.4 .01472 L
.39 .01472 L
s
1 0 0 r
.4 .01472 m
.4 .01573 L
.41 .01573 L
.41 .01472 L
F
0 g
.4 .01472 m
.4 .01573 L
.41 .01573 L
.41 .01472 L
.4 .01472 L
s
1 0 0 r
.41 .01472 m
.41 .01616 L
.42 .01616 L
.42 .01472 L
F
0 g
.41 .01472 m
.41 .01616 L
.42 .01616 L
.42 .01472 L
.41 .01472 L
s
1 0 0 r
.42 .01472 m
.42 .01529 L
.43 .01529 L
.43 .01472 L
F
0 g
.42 .01472 m
.42 .01529 L
.43 .01529 L
.43 .01472 L
.42 .01472 L
s
1 0 0 r
.43 .01472 m
.43 .01515 L
.44 .01515 L
.44 .01472 L
F
0 g
.43 .01472 m
.43 .01515 L
.44 .01515 L
.44 .01472 L
.43 .01472 L
s
1 0 0 r
.44 .01472 m
.44 .01573 L
.45 .01573 L
.45 .01472 L
F
0 g
.44 .01472 m
.44 .01573 L
.45 .01573 L
.45 .01472 L
.44 .01472 L
s
1 0 0 r
.45 .01472 m
.45 .01544 L
.46 .01544 L
.46 .01472 L
F
0 g
.45 .01472 m
.45 .01544 L
.46 .01544 L
.46 .01472 L
.45 .01472 L
s
1 0 0 r
.46 .01472 m
.46 .01529 L
.47 .01529 L
.47 .01472 L
F
0 g
.46 .01472 m
.46 .01529 L
.47 .01529 L
.47 .01472 L
.46 .01472 L
s
1 0 0 r
.47 .01472 m
.47 .01544 L
.48 .01544 L
.48 .01472 L
F
0 g
.47 .01472 m
.47 .01544 L
.48 .01544 L
.48 .01472 L
.47 .01472 L
s
1 0 0 r
.48 .01472 m
.48 .01544 L
.49 .01544 L
.49 .01472 L
F
0 g
.48 .01472 m
.48 .01544 L
.49 .01544 L
.49 .01472 L
.48 .01472 L
s
1 0 0 r
.49 .01472 m
.49 .01616 L
.5 .01616 L
.5 .01472 L
F
0 g
.49 .01472 m
.49 .01616 L
.5 .01616 L
.5 .01472 L
.49 .01472 L
s
1 0 0 r
.5 .01472 m
.5 .01529 L
.51 .01529 L
.51 .01472 L
F
0 g
.5 .01472 m
.5 .01529 L
.51 .01529 L
.51 .01472 L
.5 .01472 L
s
1 0 0 r
.51 .01472 m
.51 .01529 L
.52 .01529 L
.52 .01472 L
F
0 g
.51 .01472 m
.51 .01529 L
.52 .01529 L
.52 .01472 L
.51 .01472 L
s
1 0 0 r
.52 .01472 m
.52 .01544 L
.53 .01544 L
.53 .01472 L
F
0 g
.52 .01472 m
.52 .01544 L
.53 .01544 L
.53 .01472 L
.52 .01472 L
s
1 0 0 r
.53 .01472 m
.53 .01587 L
.54 .01587 L
.54 .01472 L
F
0 g
.53 .01472 m
.53 .01587 L
.54 .01587 L
.54 .01472 L
.53 .01472 L
s
1 0 0 r
.54 .01472 m
.54 .015 L
.55 .015 L
.55 .01472 L
F
0 g
.54 .01472 m
.54 .015 L
.55 .015 L
.55 .01472 L
.54 .01472 L
s
1 0 0 r
.55 .01472 m
.55 .01529 L
.56 .01529 L
.56 .01472 L
F
0 g
.55 .01472 m
.55 .01529 L
.56 .01529 L
.56 .01472 L
.55 .01472 L
s
1 0 0 r
.56 .01472 m
.56 .01529 L
.57 .01529 L
.57 .01472 L
F
0 g
.56 .01472 m
.56 .01529 L
.57 .01529 L
.57 .01472 L
.56 .01472 L
s
1 0 0 r
.57 .01472 m
.57 .01529 L
.58 .01529 L
.58 .01472 L
F
0 g
.57 .01472 m
.57 .01529 L
.58 .01529 L
.58 .01472 L
.57 .01472 L
s
1 0 0 r
.58 .01472 m
.58 .01529 L
.59 .01529 L
.59 .01472 L
F
0 g
.58 .01472 m
.58 .01529 L
.59 .01529 L
.59 .01472 L
.58 .01472 L
s
1 0 0 r
.59 .01472 m
.59 .015 L
.6 .015 L
.6 .01472 L
F
0 g
.59 .01472 m
.59 .015 L
.6 .015 L
.6 .01472 L
.59 .01472 L
s
1 0 0 r
.6 .01472 m
.6 .01529 L
.61 .01529 L
.61 .01472 L
F
0 g
.6 .01472 m
.6 .01529 L
.61 .01529 L
.61 .01472 L
.6 .01472 L
s
1 0 0 r
.61 .01472 m
.61 .01486 L
.62 .01486 L
.62 .01472 L
F
0 g
.61 .01472 m
.61 .01486 L
.62 .01486 L
.62 .01472 L
.61 .01472 L
s
1 0 0 r
.62 .01472 m
.62 .01515 L
.63 .01515 L
.63 .01472 L
F
0 g
.62 .01472 m
.62 .01515 L
.63 .01515 L
.63 .01472 L
.62 .01472 L
s
1 0 0 r
.63 .01472 m
.63 .015 L
.64 .015 L
.64 .01472 L
F
0 g
.63 .01472 m
.63 .015 L
.64 .015 L
.64 .01472 L
.63 .01472 L
s
1 0 0 r
.64 .01472 m
.64 .01515 L
.65 .01515 L
.65 .01472 L
F
0 g
.64 .01472 m
.64 .01515 L
.65 .01515 L
.65 .01472 L
.64 .01472 L
s
1 0 0 r
.65 .01472 m
.65 .01486 L
.66 .01486 L
.66 .01472 L
F
0 g
.65 .01472 m
.65 .01486 L
.66 .01486 L
.66 .01472 L
.65 .01472 L
s
1 0 0 r
.66 .01472 m
.66 .015 L
.67 .015 L
.67 .01472 L
F
0 g
.66 .01472 m
.66 .015 L
.67 .015 L
.67 .01472 L
.66 .01472 L
s
1 0 0 r
.67 .01472 m
.67 .01544 L
.68 .01544 L
.68 .01472 L
F
0 g
.67 .01472 m
.67 .01544 L
.68 .01544 L
.68 .01472 L
.67 .01472 L
s
1 0 0 r
.68 .01472 m
.68 .01486 L
.69 .01486 L
.69 .01472 L
F
0 g
.68 .01472 m
.68 .01486 L
.69 .01486 L
.69 .01472 L
.68 .01472 L
s
1 0 0 r
.69 .01472 m
.69 .015 L
.7 .015 L
.7 .01472 L
F
0 g
.69 .01472 m
.69 .015 L
.7 .015 L
.7 .01472 L
.69 .01472 L
s
1 0 0 r
.7 .01472 m
.7 .015 L
.71 .015 L
.71 .01472 L
F
0 g
.7 .01472 m
.7 .015 L
.71 .015 L
.71 .01472 L
.7 .01472 L
s
1 0 0 r
.71 .01472 m
.71 .01472 L
.72 .01472 L
.72 .01472 L
F
0 g
.71 .01472 m
.71 .01472 L
.72 .01472 L
.72 .01472 L
.71 .01472 L
s
1 0 0 r
.72 .01472 m
.72 .015 L
.73 .015 L
.73 .01472 L
F
0 g
.72 .01472 m
.72 .015 L
.73 .015 L
.73 .01472 L
.72 .01472 L
s
1 0 0 r
.73 .01472 m
.73 .015 L
.74 .015 L
.74 .01472 L
F
0 g
.73 .01472 m
.73 .015 L
.74 .015 L
.74 .01472 L
.73 .01472 L
s
1 0 0 r
.74 .01472 m
.74 .01573 L
.75 .01573 L
.75 .01472 L
F
0 g
.74 .01472 m
.74 .01573 L
.75 .01573 L
.75 .01472 L
.74 .01472 L
s
1 0 0 r
.75 .01472 m
.75 .01472 L
.76 .01472 L
.76 .01472 L
F
0 g
.75 .01472 m
.75 .01472 L
.76 .01472 L
.76 .01472 L
.75 .01472 L
s
1 0 0 r
.76 .01472 m
.76 .01515 L
.77 .01515 L
.77 .01472 L
F
0 g
.76 .01472 m
.76 .01515 L
.77 .01515 L
.77 .01472 L
.76 .01472 L
s
1 0 0 r
.77 .01472 m
.77 .01472 L
.78 .01472 L
.78 .01472 L
F
0 g
.77 .01472 m
.77 .01472 L
.78 .01472 L
.78 .01472 L
.77 .01472 L
s
1 0 0 r
.78 .01472 m
.78 .01515 L
.79 .01515 L
.79 .01472 L
F
0 g
.78 .01472 m
.78 .01515 L
.79 .01515 L
.79 .01472 L
.78 .01472 L
s
1 0 0 r
.79 .01472 m
.79 .01529 L
.8 .01529 L
.8 .01472 L
F
0 g
.79 .01472 m
.79 .01529 L
.8 .01529 L
.8 .01472 L
.79 .01472 L
s
1 0 0 r
.8 .01472 m
.8 .015 L
.81 .015 L
.81 .01472 L
F
0 g
.8 .01472 m
.8 .015 L
.81 .015 L
.81 .01472 L
.8 .01472 L
s
1 0 0 r
.81 .01472 m
.81 .01529 L
.82 .01529 L
.82 .01472 L
F
0 g
.81 .01472 m
.81 .01529 L
.82 .01529 L
.82 .01472 L
.81 .01472 L
s
1 0 0 r
.82 .01472 m
.82 .015 L
.83 .015 L
.83 .01472 L
F
0 g
.82 .01472 m
.82 .015 L
.83 .015 L
.83 .01472 L
.82 .01472 L
s
1 0 0 r
.83 .01472 m
.83 .015 L
.84 .015 L
.84 .01472 L
F
0 g
.83 .01472 m
.83 .015 L
.84 .015 L
.84 .01472 L
.83 .01472 L
s
1 0 0 r
.84 .01472 m
.84 .01486 L
.85 .01486 L
.85 .01472 L
F
0 g
.84 .01472 m
.84 .01486 L
.85 .01486 L
.85 .01472 L
.84 .01472 L
s
1 0 0 r
.85 .01472 m
.85 .01515 L
.86 .01515 L
.86 .01472 L
F
0 g
.85 .01472 m
.85 .01515 L
.86 .01515 L
.86 .01472 L
.85 .01472 L
s
1 0 0 r
.86 .01472 m
.86 .015 L
.87 .015 L
.87 .01472 L
F
0 g
.86 .01472 m
.86 .015 L
.87 .015 L
.87 .01472 L
.86 .01472 L
s
1 0 0 r
.87 .01472 m
.87 .01472 L
.88 .01472 L
.88 .01472 L
F
0 g
.87 .01472 m
.87 .01472 L
.88 .01472 L
.88 .01472 L
.87 .01472 L
s
1 0 0 r
.88 .01472 m
.88 .01486 L
.89 .01486 L
.89 .01472 L
F
0 g
.88 .01472 m
.88 .01486 L
.89 .01486 L
.89 .01472 L
.88 .01472 L
s
1 0 0 r
.89 .01472 m
.89 .01515 L
.9 .01515 L
.9 .01472 L
F
0 g
.89 .01472 m
.89 .01515 L
.9 .01515 L
.9 .01472 L
.89 .01472 L
s
1 0 0 r
.9 .01472 m
.9 .015 L
.91 .015 L
.91 .01472 L
F
0 g
.9 .01472 m
.9 .015 L
.91 .015 L
.91 .01472 L
.9 .01472 L
s
1 0 0 r
.91 .01472 m
.91 .01515 L
.92 .01515 L
.92 .01472 L
F
0 g
.91 .01472 m
.91 .01515 L
.92 .01515 L
.92 .01472 L
.91 .01472 L
s
1 0 0 r
.92 .01472 m
.92 .01486 L
.93 .01486 L
.93 .01472 L
F
0 g
.92 .01472 m
.92 .01486 L
.93 .01486 L
.93 .01472 L
.92 .01472 L
s
1 0 0 r
.93 .01472 m
.93 .01529 L
.94 .01529 L
.94 .01472 L
F
0 g
.93 .01472 m
.93 .01529 L
.94 .01529 L
.94 .01472 L
.93 .01472 L
s
1 0 0 r
.94 .01472 m
.94 .01486 L
.95 .01486 L
.95 .01472 L
F
0 g
.94 .01472 m
.94 .01486 L
.95 .01486 L
.95 .01472 L
.94 .01472 L
s
1 0 0 r
.95 .01472 m
.95 .015 L
.96 .015 L
.96 .01472 L
F
0 g
.95 .01472 m
.95 .015 L
.96 .015 L
.96 .01472 L
.95 .01472 L
s
1 0 0 r
.96 .01472 m
.96 .01486 L
.97 .01486 L
.97 .01472 L
F
0 g
.96 .01472 m
.96 .01486 L
.97 .01486 L
.97 .01472 L
.96 .01472 L
s
1 0 0 r
.97 .01472 m
.97 .01515 L
.98 .01515 L
.98 .01472 L
F
0 g
.97 .01472 m
.97 .01515 L
.98 .01515 L
.98 .01472 L
.97 .01472 L
s
1 0 0 r
.98 .01472 m
.98 .01472 L
.99 .01472 L
.99 .01472 L
F
0 g
.98 .01472 m
.98 .01472 L
.99 .01472 L
.99 .01472 L
.98 .01472 L
s
1 0 0 r
.99 .01472 m
.99 .015 L
1 .015 L
1 .01472 L
F
0 g
.99 .01472 m
.99 .015 L
1 .015 L
1 .01472 L
.99 .01472 L
s
% End of Graphics
MathPictureEnd

%%PSTrailer
end
grestore


%%EPS Trailer

%%Trailer
%%EOF
