%!PS-Adobe-2.0 EPSF-1.2
%%BoundingBox: 150 50 410 220
%%HiResBoundingBox: 153 8 154 9
%%Creator: (Mathematica 4.0 for X)
%%CreationDate: (Wednesday, May 4, 2005) (12:48:00)
%%Title: Clipboard
%%DocumentNeededResources: font Courier
%%+ font Times-Roman
%%DocumentSuppliedResources:
%%DocumentNeededFonts: Courier
%%+ Times-Roman
%%DocumentSuppliedFonts:
%%DocumentFonts: Courier
%%+ Times-Roman
%%EndComments
/MISOfy
{
    /newfontname exch def
    /oldfontname exch def

    oldfontname findfont
    dup length dict begin
        {1 index /FID ne {def} {pop pop} ifelse} forall
        /Encoding ISOLatin1Encoding def
        currentdict
    end

    newfontname exch definefont pop
} def

0 17 translate 1 -1 scale
0.000 0.000 0.000 setrgbcolor
%%IncludeResource: font Times-Roman
%%IncludeFont: Times-Roman
/Times-Roman findfont 10.000 scalefont
[1 0 0 -1 0 0 ] makefont setfont
0.000 0.000 0.000 setrgbcolor
0.850 0.850 0.850 setrgbcolor
newpath
 153.000 9.000 moveto
 154.000 9.000 lineto
 154.000 8.000 lineto
 153.000 8.000 lineto
 153.000 9.000 lineto
closepath
fill
0.000 0.000 0.000 setrgbcolor
%%IncludeResource: font Times-Roman
%%IncludeFont: Times-Roman
/Times-Roman findfont 10.000 scalefont
[1 0 0 -1 0 0 ] makefont setfont
0.000 0.000 0.000 setrgbcolor
gsave
150 dict begin
/Mfixwid true def
/Mrot 0 def
/Mpstart {
    MathPictureStart
} bind def
/Mpend {
    MathPictureEnd
} bind def
/Mscale {
    0 1 0 1
    5 -1 roll
    MathScale
} bind def
/Plain	/Courier findfont def
/Bold	/Courier-Bold findfont def
/Italic /Courier-Oblique findfont def
/MathPictureStart {
	/Mimatrix
	 matrix currentmatrix
	def
	gsave
	newpath
	Mleft
	Mbottom
	translate
	/Mtmatrix
	matrix currentmatrix
	def
	Plain
	Mfontsize scalefont
	setfont
	0 setgray
	0 setlinewidth
} bind def
/MathPictureEnd {
	grestore
} bind def
/MathSubStart {
 	     Momatrix
        Mgmatrix Mtmatrix
        Mleft Mbottom
        Mwidth Mheight
        9 -2 roll
        moveto
        Mtmatrix setmatrix
        currentpoint
        Mgmatrix setmatrix
        11 -2 roll
        moveto
        Mtmatrix setmatrix
        currentpoint
        2 copy translate
        /Mtmatrix matrix currentmatrix def
        /Mleft 0 def
        /Mbottom 0 def
        3 -1 roll
        exch sub
        /Mheight exch def
        sub
        /Mwidth exch def
} bind def
/MathSubEnd {
        /Mheight exch def
        /Mwidth exch def
        /Mbottom exch def
        /Mleft exch def
        /Mtmatrix exch def
        dup setmatrix
        /Mgmatrix exch def
	      /Momatrix exch def
} bind def
/Mdot {
	moveto
	0 0 rlineto
	stroke
} bind def
/Mtetra {
	moveto
	lineto
	lineto
	lineto
	fill
} bind def
/Metetra {
	moveto
	lineto
	lineto
	lineto
	closepath
	gsave
	fill
	grestore
	0 setgray
	stroke
} bind def
/Mistroke {
	flattenpath
	0 0 0
	{
	4 2 roll
	pop pop
	}
	{
	4 -1 roll
	2 index
	sub dup mul
	4 -1 roll
	2 index
	sub dup mul
	add sqrt
	4 -1 roll
	add
	3 1 roll
	}
	{
	stop
	}
	{
	stop
	}
	pathforall
	pop pop
	currentpoint
	stroke
	moveto
	currentdash
	3 -1 roll
	add
	setdash
} bind def
/Mfstroke {
	stroke
	currentdash
	pop 0
	setdash
} bind def
/Mrotsboxa {
	gsave
	dup
	/Mrot
	exch def
	Mrotcheck
	Mtmatrix
	dup
	setmatrix
	7 1 roll
	4 index
	4 index
	translate
	rotate
	3 index
	-1 mul
	3 index
	-1 mul
	translate
	/Mtmatrix
	matrix
	currentmatrix
	def
	grestore
	Msboxa
	3  -1 roll
	/Mtmatrix
	exch def
	/Mrot
	0 def
} bind def
/Msboxa {
	newpath
	5 -1 roll
	Mvboxa
	pop
	Mboxout
	6 -1 roll
	5 -1 roll
	4 -1 roll
	Msboxa1
	5 -3 roll
	Msboxa1
	Mboxrot
	[
	7 -2 roll
	2 copy
	[
	3 1 roll
	10 -1 roll
	9 -1 roll
	]
	6 1 roll
	5 -2 roll
	]
} bind def
/Msboxa1 {
	sub
	2 div
	dup
	2 index
	1 add
	mul
	3 -1 roll
	-1 add
	3 -1 roll
	mul
} bind def
/Mvboxa	{
	Mfixwid
	{
	Mvboxa1
	}
	{
	dup
	Mwidthcal
	0 exch
	{
	add
	}
	forall
	exch
	Mvboxa1
	4 index
	7 -1 roll
	add
	4 -1 roll
	pop
	3 1 roll
	}
	ifelse
} bind def
/Mvboxa1 {
	gsave
	newpath
	[ true
	3 -1 roll
	{
	Mbbox
	5 -1 roll
	{
	0
	5 1 roll
	}
	{
	7 -1 roll
	exch sub
	(m) stringwidth pop
	.3 mul
	sub
	7 1 roll
	6 -1 roll
	4 -1 roll
	Mmin
	3 -1 roll
	5 index
	add
	5 -1 roll
	4 -1 roll
	Mmax
	4 -1 roll
	}
	ifelse
	false
	}
	forall
	{ stop } if
	counttomark
	1 add
	4 roll
	]
	grestore
} bind def
/Mbbox {
	0 0 moveto
	false charpath
	flattenpath
	pathbbox
	newpath
} bind def
/Mmin {
	2 copy
	gt
	{ exch } if
	pop
} bind def
/Mmax {
	2 copy
	lt
	{ exch } if
	pop
} bind def
/Mrotshowa {
	dup
	/Mrot
	exch def
	Mrotcheck
	Mtmatrix
	dup
	setmatrix
	7 1 roll
	4 index
	4 index
	translate
	rotate
	3 index
	-1 mul
	3 index
	-1 mul
	translate
	/Mtmatrix
	matrix
	currentmatrix
	def
	Mgmatrix setmatrix
	Mshowa
	/Mtmatrix
	exch def
	/Mrot 0 def
} bind def
/Mshowa {
	4 -2 roll
	moveto
	2 index
	Mtmatrix setmatrix
	Mvboxa
	7 1 roll
	Mboxout
	6 -1 roll
	5 -1 roll
	4 -1 roll
	Mshowa1
	4 1 roll
	Mshowa1
	rmoveto
	currentpoint
	Mfixwid
	{
	Mshowax
	}
	{
	Mshoway
	}
	ifelse
	pop pop pop pop
	Mgmatrix setmatrix
} bind def
/Mshowax {
	0 1
        4 index length
        -1 add
        {
        2 index
        4 index
        2 index
        get
        3 index
        add
        moveto
        4 index
        exch get
        show
        } for
} bind def
/Mshoway {
        3 index
        Mwidthcal
        5 1 roll
	0 1
	4 index length
	-1 add
	{
	2 index
	4 index
	2 index
	get
	3 index
	add
	moveto
	4 index
	exch get
	[
	6 index
	aload
	length
	2 add
	-1 roll
	{
	pop
	Strform
	stringwidth
	pop
	neg
	exch
	add
	0 rmoveto
	}
	exch
	kshow
	cleartomark
	} for
	pop
} bind def
/Mwidthcal {
	[
	exch
	{
	Mwidthcal1
	}
	forall
	]
	[
	exch
	dup
	Maxlen
	-1 add
	0 1
	3 -1 roll
	{
	[
	exch
	2 index
	{
	1 index
	Mget
	exch
	}
	forall
	pop
	Maxget
	exch
	}
	for
	pop
	]
	Mreva
} bind def
/Mreva	{
	[
	exch
	aload
	length
	-1 1
	{1 roll}
	for
	]
} bind def
/Mget	{
	1 index
	length
	-1 add
	1 index
	ge
	{
	get
	}
	{
	pop pop
	0
	}
	ifelse
} bind def
/Maxlen	{
	[
	exch
	{
	length
	}
	forall
	Maxget
} bind def
/Maxget	{
	counttomark
	-1 add
	1 1
	3 -1 roll
	{
	pop
	Mmax
	}
	for
	exch
	pop
} bind def
/Mwidthcal1 {
	[
	exch
	{
	Strform
	stringwidth
	pop
	}
	forall
	]
} bind def
/Strform {
	/tem (x) def
	tem 0
	3 -1 roll
	put
	tem
} bind def
/Mshowa1 {
	2 copy
	add
	4 1 roll
	sub
	mul
	sub
	-2 div
} bind def
/MathScale {
	Mwidth
	Mheight
	Mlp
	translate
	scale
	/yscale exch def
	/ybias exch def
	/xscale exch def
	/xbias exch def
	/Momatrix
	xscale yscale matrix scale
	xbias ybias matrix translate
	matrix concatmatrix def
	/Mgmatrix
	matrix currentmatrix
	def
} bind def
/Mlp {
	3 copy
	Mlpfirst
	{
	Mnodistort
	{
	Mmin
	dup
	} if
	4 index
	2 index
	2 index
	Mlprun
	11 index
	11 -1 roll
	10 -4 roll
	Mlp1
	8 index
	9 -5 roll
	Mlp1
	4 -1 roll
	and
	{ exit } if
	3 -1 roll
	pop pop
	} loop
	exch
	3 1 roll
	7 -3 roll
	pop pop pop
} bind def
/Mlpfirst {
	3 -1 roll
	dup length
	2 copy
	-2 add
	get
	aload
	pop pop pop
	4 -2 roll
	-1 add
	get
	aload
	pop pop pop
	6 -1 roll
	3 -1 roll
	5 -1 roll
	sub
	dup /MsaveAx exch def
	div
	4 1 roll
	exch sub
	dup /MsaveAy exch def
	div
} bind def
/Mlprun {
	2 copy
	4 index
	0 get
	dup
	4 1 roll
	Mlprun1
	3 copy
	8 -2 roll
	9 -1 roll
	{
	3 copy
	Mlprun1
	3 copy
	11 -3 roll
	/gt Mlpminmax
	8 3 roll
	11 -3 roll
	/lt Mlpminmax
	8 3 roll
	} forall
	pop pop pop pop
	3 1 roll
	pop pop
	aload pop
	5 -1 roll
	aload pop
	exch
	6 -1 roll
	Mlprun2
	8 2 roll
	4 -1 roll
	Mlprun2
	6 2 roll
	3 -1 roll
	Mlprun2
	4 2 roll
	exch
	Mlprun2
	6 2 roll
} bind def
/Mlprun1 {
	aload pop
	exch
	6 -1 roll
	5 -1 roll
	mul add
	4 -2 roll
	mul
	3 -1 roll
	add
} bind def
/Mlprun2 {
	2 copy
	add 2 div
	3 1 roll
	exch sub
} bind def
/Mlpminmax {
	cvx
	2 index
	6 index
	2 index
	exec
	{
	7 -3 roll
	4 -1 roll
	} if
	1 index
	5 index
	3 -1 roll
	exec
	{
	4 1 roll
	pop
	5 -1 roll
	aload
	pop pop
	4 -1 roll
	aload pop
	[
	8 -2 roll
	pop
	5 -2 roll
	pop
	6 -2 roll
	pop
	5 -1 roll
	]
	4 1 roll
	pop
	}
	{
	pop pop pop
	} ifelse
} bind def
/Mlp1 {
	5 index
	3 index	sub
	5 index
	2 index mul
	1 index
	le
	1 index
	0 le
	or
	dup
	not
	{
	1 index
	3 index	div
	.99999 mul
	8 -1 roll
	pop
	7 1 roll
	}
	if
	8 -1 roll
	2 div
	7 -2 roll
	pop sub
	5 index
	6 -3 roll
	pop pop
	mul sub
	exch
} bind def
/intop 0 def
/inrht 0 def
/inflag 0 def
/outflag 0 def
/xadrht 0 def
/xadlft 0 def
/yadtop 0 def
/yadbot 0 def
/Minner {
	outflag
	1
	eq
	{
	/outflag 0 def
	/intop 0 def
	/inrht 0 def
	} if
	5 index
	gsave
	Mtmatrix setmatrix
	Mvboxa pop
	grestore
	3 -1 roll
	pop
	dup
	intop
	gt
	{
	/intop
	exch def
	}
	{ pop }
	ifelse
	dup
	inrht
	gt
	{
	/inrht
	exch def
	}
	{ pop }
	ifelse
	pop
	/inflag
	1 def
} bind def
/Mouter {
	/xadrht 0 def
	/xadlft 0 def
	/yadtop 0 def
	/yadbot 0 def
	inflag
	1 eq
	{
	dup
	0 lt
	{
	dup
	intop
	mul
	neg
	/yadtop
	exch def
	} if
	dup
	0 gt
	{
	dup
	intop
	mul
	/yadbot
	exch def
	}
	if
	pop
	dup
	0 lt
	{
	dup
	inrht
	mul
	neg
	/xadrht
	exch def
	} if
	dup
	0 gt
	{
	dup
	inrht
	mul
	/xadlft
	exch def
	} if
	pop
	/outflag 1 def
	}
	{ pop pop}
	ifelse
	/inflag 0 def
	/inrht 0 def
	/intop 0 def
} bind def
/Mboxout {
	outflag
	1
	eq
	{
	4 -1
	roll
	xadlft
	leadjust
	add
	sub
	4 1 roll
	3 -1
	roll
	yadbot
	leadjust
	add
	sub
	3 1
	roll
	exch
	xadrht
	leadjust
	add
	add
	exch
	yadtop
	leadjust
	add
	add
	/outflag 0 def
	/xadlft 0 def
	/yadbot 0 def
	/xadrht 0 def
	/yadtop 0 def
	} if
} bind def
/leadjust {
	(m) stringwidth pop
	.5 mul
} bind def
/Mrotcheck {
	dup
	90
	eq
	{
	yadbot
	/yadbot
	xadrht
	def
	/xadrht
	yadtop
	def
	/yadtop
	xadlft
	def
	/xadlft
	exch
	def
	}
	if
	dup
	cos
	1 index
	sin
	Checkaux
	dup
	cos
	1 index
	sin neg
	exch
	Checkaux
	3 1 roll
	pop pop
} bind def
/Checkaux {
	4 index
	exch
	4 index
	mul
	3 1 roll
	mul add
	4 1 roll
} bind def
/Mboxrot {
	Mrot
	90 eq
	{
	brotaux
	4 2
	roll
	}
	if
	Mrot
	180 eq
	{
	4 2
        roll
	brotaux
	4 2
	roll
	brotaux
	}
	if
	Mrot
	270 eq
	{
	4 2
	roll
	brotaux
	}
	if
} bind def
/brotaux {
	neg
	exch
	neg
} bind def
/Mabsproc {
        0
        matrix defaultmatrix
        dtransform idtransform
        dup mul exch
        dup mul
        add sqrt
} bind def
/Mabswid {
        Mabsproc
        setlinewidth
} bind def
/Mabsdash {
        exch
        [
        exch
        {
        Mabsproc
        }
        forall
        ]
        exch
        setdash
} bind def
/MBeginOrig { Momatrix concat} bind def
/MEndOrig { Mgmatrix setmatrix} bind def
/sampledsound where
{ pop}
{ /sampledsound {
exch
pop
exch
5 1 roll
mul
4 idiv
mul
2 idiv
exch pop
exch
/Mtempproc exch def
{ Mtempproc pop }
repeat
} bind def
} ifelse
% Here are the short operators
/g { setgray} bind def
/k { setcmykcolor} bind def
/m { moveto} bind def
/p { gsave} bind def
/r { setrgbcolor} bind def
/w { setlinewidth} bind def
/C { curveto} bind def
/F { fill} bind def
/L { lineto} bind def
/P { grestore} bind def
/s { stroke} bind def

/MFill {
	0 0 		moveto
	Mwidth 0 	lineto
	Mwidth Mheight 	lineto
	0 Mheight 	lineto
	fill
} bind def

/MPlotRegion {
	3 index
	Mwidth mul
	2 index
	Mheight mul
	translate
	exch sub
	Mheight mul
	/Mheight
	exch def
	exch sub
	Mwidth mul
	/Mwidth
	exch def
} bind def

/Mcharproc
{
  	currentfile
  	(x)
  	readhexstring
  	pop
  	0 get
  	exch
 	div
} bind def

/Mshadeproc
{
	dup
	3 1
	roll
	{
	dup
	Mcharproc
	3 1
	roll
	} repeat
	1 eq
	{
	setgray
	}
	{
	3 eq
	{
	setrgbcolor
	}
	{
	setcmykcolor
	} ifelse
	} ifelse
} bind def

/Mrectproc
{
	3 index
	2 index
	moveto
	2 index
	3 -1
	roll
	lineto
	dup
	3 1
	roll
	lineto
	lineto
	fill
} bind def

/_Mcolorimage
{
	7 1
	roll
	pop
	pop
	matrix
	invertmatrix
	concat
	2 exch exp
	1 sub
	3 1 roll
	1 1
	2 index
	{
	1 1
	4 index
	{
	dup
	1 sub
	exch
	2 index
	dup
	1 sub
	exch
	7 index
	9 index
	Mshadeproc
	Mrectproc
	} for
	pop
	} for
	pop pop pop pop
} bind def

/_Mimage
{
	pop
	matrix
	invertmatrix
	concat
	2 exch exp
	1 sub
	3 1 roll
	1 1
	2 index
	{
	1 1
	4 index
	{
	dup
	1 sub 
	exch
	2 index
	dup
	1 sub
	exch
	7 index
	Mcharproc
	setgray
	Mrectproc
	} for
	pop
	} for
	pop pop pop
} bind def

/Mimage {
	4 index
	4 index
	mul 1600 gt
	{ image }
	{ _Mimage }
	ifelse
} def

/Mcolorimage {
	6 index
	6 index
	mul 1600 gt
	{ colorimage }
	{ _Mcolorimage }
	ifelse
} def
/Mnodistort true def
1.000000 1.000000 scale
153.000000 9.000000 translate
1.000000 -1.000000 scale
-0.000000 -0.000000 translate
/Mleft		0.000000 def
/Mbottom	0.000000 def
/Mwidth		250.0000 def
/Mheight	250.0000 def
0 setgray
0 setlinewidth
/Courier findfont 12 scalefont setfont
/Mfontsize 12 def
/Plain /Courier findfont def

%!
%%Creator: Mathematica
%%AspectRatio: .61803 
MathPictureStart
/Mabs {
Mgmatrix idtransform
Mtmatrix dtransform
} bind def
/Mabsadd { Mabs
3 -1 roll add
3 1 roll add
exch } bind def
%% Graphics
%%IncludeResource: font Courier
%%IncludeFont: Courier
/Courier findfont 10  scalefont  setfont
% Scaling calculations
2.77556e-17 0.010582 0.0147151 0.000289953 [
[.21164 .00222 -9 -9 ]
[.21164 .00222 9 0 ]
[.42328 .00222 -9 -9 ]
[.42328 .00222 9 0 ]
[.63492 .00222 -9 -9 ]
[.63492 .00222 9 0 ]
[.84656 .00222 -9 -9 ]
[.84656 .00222 9 0 ]
[-0.0125 .15969 -18 -4.5 ]
[-0.0125 .15969 0 4.5 ]
[-0.0125 .30467 -24 -4.5 ]
[-0.0125 .30467 0 4.5 ]
[-0.0125 .44964 -24 -4.5 ]
[-0.0125 .44964 0 4.5 ]
[-0.0125 .59462 -24 -4.5 ]
[-0.0125 .59462 0 4.5 ]
[ 0 0 0 0 ]
[ 1 .61803 0 0 ]
] MathScale
% Start of Graphics
1 setlinecap
1 setlinejoin
newpath
0 g
.25 Mabswid
[ ] 0 setdash
.21164 .01472 m
.21164 .02097 L
s
[(20.)] .21164 .00222 0 1 Mshowa
.42328 .01472 m
.42328 .02097 L
s
[(40.)] .42328 .00222 0 1 Mshowa
.63492 .01472 m
.63492 .02097 L
s
[(60.)] .63492 .00222 0 1 Mshowa
.84656 .01472 m
.84656 .02097 L
s
[(80.)] .84656 .00222 0 1 Mshowa
0 .01472 m
1 .01472 L
s
0 .15969 m
.00625 .15969 L
s
[(500)] -0.0125 .15969 1 0 Mshowa
0 .30467 m
.00625 .30467 L
s
[(1000)] -0.0125 .30467 1 0 Mshowa
0 .44964 m
.00625 .44964 L
s
[(1500)] -0.0125 .44964 1 0 Mshowa
0 .59462 m
.00625 .59462 L
s
[(2000)] -0.0125 .59462 1 0 Mshowa
.125 Mabswid
0 .04371 m
.00375 .04371 L
s
0 .07271 m
.00375 .07271 L
s
0 .1017 m
.00375 .1017 L
s
0 .1307 m
.00375 .1307 L
s
0 .18869 m
.00375 .18869 L
s
0 .21768 m
.00375 .21768 L
s
0 .24668 m
.00375 .24668 L
s
0 .27567 m
.00375 .27567 L
s
0 .33366 m
.00375 .33366 L
s
0 .36266 m
.00375 .36266 L
s
0 .39165 m
.00375 .39165 L
s
0 .42065 m
.00375 .42065 L
s
0 .47864 m
.00375 .47864 L
s
0 .50763 m
.00375 .50763 L
s
0 .53663 m
.00375 .53663 L
s
0 .56563 m
.00375 .56563 L
s
.25 Mabswid
0 0 m
0 .61803 L
s
0 0 m
1 0 L
1 .61803 L
0 .61803 L
closepath
clip
newpath
1 0 0 r
0 .01472 m
0 .01645 L
.00529 .01645 L
.00529 .01472 L
F
0 g
.5 Mabswid
0 .01472 m
0 .01645 L
.00529 .01645 L
.00529 .01472 L
0 .01472 L
s
1 0 0 r
.00529 .01472 m
.00529 .0295 L
.01058 .0295 L
.01058 .01472 L
F
0 g
.00529 .01472 m
.00529 .0295 L
.01058 .0295 L
.01058 .01472 L
.00529 .01472 L
s
1 0 0 r
.01058 .01472 m
.01058 .05299 L
.01587 .05299 L
.01587 .01472 L
F
0 g
.01058 .01472 m
.01058 .05299 L
.01587 .05299 L
.01587 .01472 L
.01058 .01472 L
s
1 0 0 r
.01587 .01472 m
.01587 .08111 L
.02116 .08111 L
.02116 .01472 L
F
0 g
.01587 .01472 m
.01587 .08111 L
.02116 .08111 L
.02116 .01472 L
.01587 .01472 L
s
1 0 0 r
.02116 .01472 m
.02116 .13186 L
.02646 .13186 L
.02646 .01472 L
F
0 g
.02116 .01472 m
.02116 .13186 L
.02646 .13186 L
.02646 .01472 L
.02116 .01472 L
s
1 0 0 r
.02646 .01472 m
.02646 .16868 L
.03175 .16868 L
.03175 .01472 L
F
0 g
.02646 .01472 m
.02646 .16868 L
.03175 .16868 L
.03175 .01472 L
.02646 .01472 L
s
1 0 0 r
.03175 .01472 m
.03175 .22696 L
.03704 .22696 L
.03704 .01472 L
F
0 g
.03175 .01472 m
.03175 .22696 L
.03704 .22696 L
.03704 .01472 L
.03175 .01472 L
s
1 0 0 r
.03704 .01472 m
.03704 .27509 L
.04233 .27509 L
.04233 .01472 L
F
0 g
.03704 .01472 m
.03704 .27509 L
.04233 .27509 L
.04233 .01472 L
.03704 .01472 L
s
1 0 0 r
.04233 .01472 m
.04233 .3154 L
.04762 .3154 L
.04762 .01472 L
F
0 g
.04233 .01472 m
.04233 .3154 L
.04762 .3154 L
.04762 .01472 L
.04233 .01472 L
s
1 0 0 r
.04762 .01472 m
.04762 .38238 L
.05291 .38238 L
.05291 .01472 L
F
0 g
.04762 .01472 m
.04762 .38238 L
.05291 .38238 L
.05291 .01472 L
.04762 .01472 L
s
1 0 0 r
.05291 .01472 m
.05291 .4308 L
.0582 .4308 L
.0582 .01472 L
F
0 g
.05291 .01472 m
.05291 .4308 L
.0582 .4308 L
.0582 .01472 L
.05291 .01472 L
s
1 0 0 r
.0582 .01472 m
.0582 .44848 L
.06349 .44848 L
.06349 .01472 L
F
0 g
.0582 .01472 m
.0582 .44848 L
.06349 .44848 L
.06349 .01472 L
.0582 .01472 L
s
1 0 0 r
.06349 .01472 m
.06349 .49488 L
.06878 .49488 L
.06878 .01472 L
F
0 g
.06349 .01472 m
.06349 .49488 L
.06878 .49488 L
.06878 .01472 L
.06349 .01472 L
s
1 0 0 r
.06878 .01472 m
.06878 .5085 L
.07407 .5085 L
.07407 .01472 L
F
0 g
.06878 .01472 m
.06878 .5085 L
.07407 .5085 L
.07407 .01472 L
.06878 .01472 L
s
1 0 0 r
.07407 .01472 m
.07407 .51952 L
.07937 .51952 L
.07937 .01472 L
F
0 g
.07407 .01472 m
.07407 .51952 L
.07937 .51952 L
.07937 .01472 L
.07407 .01472 L
s
1 0 0 r
.07937 .01472 m
.07937 .54591 L
.08466 .54591 L
.08466 .01472 L
F
0 g
.07937 .01472 m
.07937 .54591 L
.08466 .54591 L
.08466 .01472 L
.07937 .01472 L
s
1 0 0 r
.08466 .01472 m
.08466 .60332 L
.08995 .60332 L
.08995 .01472 L
F
0 g
.08466 .01472 m
.08466 .60332 L
.08995 .60332 L
.08995 .01472 L
.08466 .01472 L
s
1 0 0 r
.08995 .01472 m
.08995 .56707 L
.09524 .56707 L
.09524 .01472 L
F
0 g
.08995 .01472 m
.08995 .56707 L
.09524 .56707 L
.09524 .01472 L
.08995 .01472 L
s
1 0 0 r
.09524 .01472 m
.09524 .56244 L
.10053 .56244 L
.10053 .01472 L
F
0 g
.09524 .01472 m
.09524 .56244 L
.10053 .56244 L
.10053 .01472 L
.09524 .01472 L
s
1 0 0 r
.10053 .01472 m
.10053 .54823 L
.10582 .54823 L
.10582 .01472 L
F
0 g
.10053 .01472 m
.10053 .54823 L
.10582 .54823 L
.10582 .01472 L
.10053 .01472 L
s
1 0 0 r
.10582 .01472 m
.10582 .52938 L
.11111 .52938 L
.11111 .01472 L
F
0 g
.10582 .01472 m
.10582 .52938 L
.11111 .52938 L
.11111 .01472 L
.10582 .01472 L
s
1 0 0 r
.11111 .01472 m
.11111 .51633 L
.1164 .51633 L
.1164 .01472 L
F
0 g
.11111 .01472 m
.11111 .51633 L
.1164 .51633 L
.1164 .01472 L
.11111 .01472 L
s
1 0 0 r
.1164 .01472 m
.1164 .49981 L
.12169 .49981 L
.12169 .01472 L
F
0 g
.1164 .01472 m
.1164 .49981 L
.12169 .49981 L
.12169 .01472 L
.1164 .01472 L
s
1 0 0 r
.12169 .01472 m
.12169 .51459 L
.12698 .51459 L
.12698 .01472 L
F
0 g
.12169 .01472 m
.12169 .51459 L
.12698 .51459 L
.12698 .01472 L
.12169 .01472 L
s
1 0 0 r
.12698 .01472 m
.12698 .4479 L
.13228 .4479 L
.13228 .01472 L
F
0 g
.12698 .01472 m
.12698 .4479 L
.13228 .4479 L
.13228 .01472 L
.12698 .01472 L
s
1 0 0 r
.13228 .01472 m
.13228 .42703 L
.13757 .42703 L
.13757 .01472 L
F
0 g
.13228 .01472 m
.13228 .42703 L
.13757 .42703 L
.13757 .01472 L
.13228 .01472 L
s
1 0 0 r
.13757 .01472 m
.13757 .40209 L
.14286 .40209 L
.14286 .01472 L
F
0 g
.13757 .01472 m
.13757 .40209 L
.14286 .40209 L
.14286 .01472 L
.13757 .01472 L
s
1 0 0 r
.14286 .01472 m
.14286 .39165 L
.14815 .39165 L
.14815 .01472 L
F
0 g
.14286 .01472 m
.14286 .39165 L
.14815 .39165 L
.14815 .01472 L
.14286 .01472 L
s
1 0 0 r
.14815 .01472 m
.14815 .34816 L
.15344 .34816 L
.15344 .01472 L
F
0 g
.14815 .01472 m
.14815 .34816 L
.15344 .34816 L
.15344 .01472 L
.14815 .01472 L
s
1 0 0 r
.15344 .01472 m
.15344 .36382 L
.15873 .36382 L
.15873 .01472 L
F
0 g
.15344 .01472 m
.15344 .36382 L
.15873 .36382 L
.15873 .01472 L
.15344 .01472 L
s
1 0 0 r
.15873 .01472 m
.15873 .29481 L
.16402 .29481 L
.16402 .01472 L
F
0 g
.15873 .01472 m
.15873 .29481 L
.16402 .29481 L
.16402 .01472 L
.15873 .01472 L
s
1 0 0 r
.16402 .01472 m
.16402 .29365 L
.16931 .29365 L
.16931 .01472 L
F
0 g
.16402 .01472 m
.16402 .29365 L
.16931 .29365 L
.16931 .01472 L
.16402 .01472 L
s
1 0 0 r
.16931 .01472 m
.16931 .28089 L
.1746 .28089 L
.1746 .01472 L
F
0 g
.16931 .01472 m
.16931 .28089 L
.1746 .28089 L
.1746 .01472 L
.16931 .01472 L
s
1 0 0 r
.1746 .01472 m
.1746 .26552 L
.17989 .26552 L
.17989 .01472 L
F
0 g
.1746 .01472 m
.1746 .26552 L
.17989 .26552 L
.17989 .01472 L
.1746 .01472 L
s
1 0 0 r
.17989 .01472 m
.17989 .26784 L
.18519 .26784 L
.18519 .01472 L
F
0 g
.17989 .01472 m
.17989 .26784 L
.18519 .26784 L
.18519 .01472 L
.17989 .01472 L
s
1 0 0 r
.18519 .01472 m
.18519 .23711 L
.19048 .23711 L
.19048 .01472 L
F
0 g
.18519 .01472 m
.18519 .23711 L
.19048 .23711 L
.19048 .01472 L
.18519 .01472 L
s
1 0 0 r
.19048 .01472 m
.19048 .22696 L
.19577 .22696 L
.19577 .01472 L
F
0 g
.19048 .01472 m
.19048 .22696 L
.19577 .22696 L
.19577 .01472 L
.19048 .01472 L
s
1 0 0 r
.19577 .01472 m
.19577 .21681 L
.20106 .21681 L
.20106 .01472 L
F
0 g
.19577 .01472 m
.19577 .21681 L
.20106 .21681 L
.20106 .01472 L
.19577 .01472 L
s
1 0 0 r
.20106 .01472 m
.20106 .21652 L
.20635 .21652 L
.20635 .01472 L
F
0 g
.20106 .01472 m
.20106 .21652 L
.20635 .21652 L
.20635 .01472 L
.20106 .01472 L
s
1 0 0 r
.20635 .01472 m
.20635 .18666 L
.21164 .18666 L
.21164 .01472 L
F
0 g
.20635 .01472 m
.20635 .18666 L
.21164 .18666 L
.21164 .01472 L
.20635 .01472 L
s
1 0 0 r
.21164 .01472 m
.21164 .17796 L
.21693 .17796 L
.21693 .01472 L
F
0 g
.21164 .01472 m
.21164 .17796 L
.21693 .17796 L
.21693 .01472 L
.21164 .01472 L
s
1 0 0 r
.21693 .01472 m
.21693 .1826 L
.22222 .1826 L
.22222 .01472 L
F
0 g
.21693 .01472 m
.21693 .1826 L
.22222 .1826 L
.22222 .01472 L
.21693 .01472 L
s
1 0 0 r
.22222 .01472 m
.22222 .15447 L
.22751 .15447 L
.22751 .01472 L
F
0 g
.22222 .01472 m
.22222 .15447 L
.22751 .15447 L
.22751 .01472 L
.22222 .01472 L
s
1 0 0 r
.22751 .01472 m
.22751 .14548 L
.2328 .14548 L
.2328 .01472 L
F
0 g
.22751 .01472 m
.22751 .14548 L
.2328 .14548 L
.2328 .01472 L
.22751 .01472 L
s
1 0 0 r
.2328 .01472 m
.2328 .15041 L
.2381 .15041 L
.2381 .01472 L
F
0 g
.2328 .01472 m
.2328 .15041 L
.2381 .15041 L
.2381 .01472 L
.2328 .01472 L
s
1 0 0 r
.2381 .01472 m
.2381 .12664 L
.24339 .12664 L
.24339 .01472 L
F
0 g
.2381 .01472 m
.2381 .12664 L
.24339 .12664 L
.24339 .01472 L
.2381 .01472 L
s
1 0 0 r
.24339 .01472 m
.24339 .11678 L
.24868 .11678 L
.24868 .01472 L
F
0 g
.24339 .01472 m
.24339 .11678 L
.24868 .11678 L
.24868 .01472 L
.24339 .01472 L
s
1 0 0 r
.24868 .01472 m
.24868 .13012 L
.25397 .13012 L
.25397 .01472 L
F
0 g
.24868 .01472 m
.24868 .13012 L
.25397 .13012 L
.25397 .01472 L
.24868 .01472 L
s
1 0 0 r
.25397 .01472 m
.25397 .10199 L
.25926 .10199 L
.25926 .01472 L
F
0 g
.25397 .01472 m
.25397 .10199 L
.25926 .10199 L
.25926 .01472 L
.25397 .01472 L
s
1 0 0 r
.25926 .01472 m
.25926 .10257 L
.26455 .10257 L
.26455 .01472 L
F
0 g
.25926 .01472 m
.25926 .10257 L
.26455 .10257 L
.26455 .01472 L
.25926 .01472 L
s
1 0 0 r
.26455 .01472 m
.26455 .10083 L
.26984 .10083 L
.26984 .01472 L
F
0 g
.26455 .01472 m
.26455 .10083 L
.26984 .10083 L
.26984 .01472 L
.26455 .01472 L
s
1 0 0 r
.26984 .01472 m
.26984 .08169 L
.27513 .08169 L
.27513 .01472 L
F
0 g
.26984 .01472 m
.26984 .08169 L
.27513 .08169 L
.27513 .01472 L
.26984 .01472 L
s
1 0 0 r
.27513 .01472 m
.27513 .08981 L
.28042 .08981 L
.28042 .01472 L
F
0 g
.27513 .01472 m
.27513 .08981 L
.28042 .08981 L
.28042 .01472 L
.27513 .01472 L
s
1 0 0 r
.28042 .01472 m
.28042 .0701 L
.28571 .0701 L
.28571 .01472 L
F
0 g
.28042 .01472 m
.28042 .0701 L
.28571 .0701 L
.28571 .01472 L
.28042 .01472 L
s
1 0 0 r
.28571 .01472 m
.28571 .07242 L
.29101 .07242 L
.29101 .01472 L
F
0 g
.28571 .01472 m
.28571 .07242 L
.29101 .07242 L
.29101 .01472 L
.28571 .01472 L
s
1 0 0 r
.29101 .01472 m
.29101 .07445 L
.2963 .07445 L
.2963 .01472 L
F
0 g
.29101 .01472 m
.29101 .07445 L
.2963 .07445 L
.2963 .01472 L
.29101 .01472 L
s
1 0 0 r
.2963 .01472 m
.2963 .0759 L
.30159 .0759 L
.30159 .01472 L
F
0 g
.2963 .01472 m
.2963 .0759 L
.30159 .0759 L
.30159 .01472 L
.2963 .01472 L
s
1 0 0 r
.30159 .01472 m
.30159 .08053 L
.30688 .08053 L
.30688 .01472 L
F
0 g
.30159 .01472 m
.30159 .08053 L
.30688 .08053 L
.30688 .01472 L
.30159 .01472 L
s
1 0 0 r
.30688 .01472 m
.30688 .09213 L
.31217 .09213 L
.31217 .01472 L
F
0 g
.30688 .01472 m
.30688 .09213 L
.31217 .09213 L
.31217 .01472 L
.30688 .01472 L
s
1 0 0 r
.31217 .01472 m
.31217 .08256 L
.31746 .08256 L
.31746 .01472 L
F
0 g
.31217 .01472 m
.31217 .08256 L
.31746 .08256 L
.31746 .01472 L
.31217 .01472 L
s
1 0 0 r
.31746 .01472 m
.31746 .05009 L
.32275 .05009 L
.32275 .01472 L
F
0 g
.31746 .01472 m
.31746 .05009 L
.32275 .05009 L
.32275 .01472 L
.31746 .01472 L
s
1 0 0 r
.32275 .01472 m
.32275 .04371 L
.32804 .04371 L
.32804 .01472 L
F
0 g
.32275 .01472 m
.32275 .04371 L
.32804 .04371 L
.32804 .01472 L
.32275 .01472 L
s
1 0 0 r
.32804 .01472 m
.32804 .04835 L
.33333 .04835 L
.33333 .01472 L
F
0 g
.32804 .01472 m
.32804 .04835 L
.33333 .04835 L
.33333 .01472 L
.32804 .01472 L
s
1 0 0 r
.33333 .01472 m
.33333 .05531 L
.33862 .05531 L
.33862 .01472 L
F
0 g
.33333 .01472 m
.33333 .05531 L
.33862 .05531 L
.33862 .01472 L
.33333 .01472 L
s
1 0 0 r
.33862 .01472 m
.33862 .05009 L
.34392 .05009 L
.34392 .01472 L
F
0 g
.33862 .01472 m
.33862 .05009 L
.34392 .05009 L
.34392 .01472 L
.33862 .01472 L
s
1 0 0 r
.34392 .01472 m
.34392 .03791 L
.34921 .03791 L
.34921 .01472 L
F
0 g
.34392 .01472 m
.34392 .03791 L
.34921 .03791 L
.34921 .01472 L
.34392 .01472 L
s
1 0 0 r
.34921 .01472 m
.34921 .04487 L
.3545 .04487 L
.3545 .01472 L
F
0 g
.34921 .01472 m
.34921 .04487 L
.3545 .04487 L
.3545 .01472 L
.34921 .01472 L
s
1 0 0 r
.3545 .01472 m
.3545 .05531 L
.35979 .05531 L
.35979 .01472 L
F
0 g
.3545 .01472 m
.3545 .05531 L
.35979 .05531 L
.35979 .01472 L
.3545 .01472 L
s
1 0 0 r
.35979 .01472 m
.35979 .03936 L
.36508 .03936 L
.36508 .01472 L
F
0 g
.35979 .01472 m
.35979 .03936 L
.36508 .03936 L
.36508 .01472 L
.35979 .01472 L
s
1 0 0 r
.36508 .01472 m
.36508 .04951 L
.37037 .04951 L
.37037 .01472 L
F
0 g
.36508 .01472 m
.36508 .04951 L
.37037 .04951 L
.37037 .01472 L
.36508 .01472 L
s
1 0 0 r
.37037 .01472 m
.37037 .04023 L
.37566 .04023 L
.37566 .01472 L
F
0 g
.37037 .01472 m
.37037 .04023 L
.37566 .04023 L
.37566 .01472 L
.37037 .01472 L
s
1 0 0 r
.37566 .01472 m
.37566 .03878 L
.38095 .03878 L
.38095 .01472 L
F
0 g
.37566 .01472 m
.37566 .03878 L
.38095 .03878 L
.38095 .01472 L
.37566 .01472 L
s
1 0 0 r
.38095 .01472 m
.38095 .03559 L
.38624 .03559 L
.38624 .01472 L
F
0 g
.38095 .01472 m
.38095 .03559 L
.38624 .03559 L
.38624 .01472 L
.38095 .01472 L
s
1 0 0 r
.38624 .01472 m
.38624 .03008 L
.39153 .03008 L
.39153 .01472 L
F
0 g
.38624 .01472 m
.38624 .03008 L
.39153 .03008 L
.39153 .01472 L
.38624 .01472 L
s
1 0 0 r
.39153 .01472 m
.39153 .03356 L
.39683 .03356 L
.39683 .01472 L
F
0 g
.39153 .01472 m
.39153 .03356 L
.39683 .03356 L
.39683 .01472 L
.39153 .01472 L
s
1 0 0 r
.39683 .01472 m
.39683 .02805 L
.40212 .02805 L
.40212 .01472 L
F
0 g
.39683 .01472 m
.39683 .02805 L
.40212 .02805 L
.40212 .01472 L
.39683 .01472 L
s
1 0 0 r
.40212 .01472 m
.40212 .02863 L
.40741 .02863 L
.40741 .01472 L
F
0 g
.40212 .01472 m
.40212 .02863 L
.40741 .02863 L
.40741 .01472 L
.40212 .01472 L
s
1 0 0 r
.40741 .01472 m
.40741 .02892 L
.4127 .02892 L
.4127 .01472 L
F
0 g
.40741 .01472 m
.40741 .02892 L
.4127 .02892 L
.4127 .01472 L
.40741 .01472 L
s
1 0 0 r
.4127 .01472 m
.4127 .02399 L
.41799 .02399 L
.41799 .01472 L
F
0 g
.4127 .01472 m
.4127 .02399 L
.41799 .02399 L
.41799 .01472 L
.4127 .01472 L
s
1 0 0 r
.41799 .01472 m
.41799 .03211 L
.42328 .03211 L
.42328 .01472 L
F
0 g
.41799 .01472 m
.41799 .03211 L
.42328 .03211 L
.42328 .01472 L
.41799 .01472 L
s
1 0 0 r
.42328 .01472 m
.42328 .02225 L
.42857 .02225 L
.42857 .01472 L
F
0 g
.42328 .01472 m
.42328 .02225 L
.42857 .02225 L
.42857 .01472 L
.42328 .01472 L
s
1 0 0 r
.42857 .01472 m
.42857 .02225 L
.43386 .02225 L
.43386 .01472 L
F
0 g
.42857 .01472 m
.42857 .02225 L
.43386 .02225 L
.43386 .01472 L
.42857 .01472 L
s
1 0 0 r
.43386 .01472 m
.43386 .01964 L
.43915 .01964 L
.43915 .01472 L
F
0 g
.43386 .01472 m
.43386 .01964 L
.43915 .01964 L
.43915 .01472 L
.43386 .01472 L
s
1 0 0 r
.43915 .01472 m
.43915 .03008 L
.44444 .03008 L
.44444 .01472 L
F
0 g
.43915 .01472 m
.43915 .03008 L
.44444 .03008 L
.44444 .01472 L
.43915 .01472 L
s
1 0 0 r
.44444 .01472 m
.44444 .02718 L
.44974 .02718 L
.44974 .01472 L
F
0 g
.44444 .01472 m
.44444 .02718 L
.44974 .02718 L
.44974 .01472 L
.44444 .01472 L
s
1 0 0 r
.44974 .01472 m
.44974 .03646 L
.45503 .03646 L
.45503 .01472 L
F
0 g
.44974 .01472 m
.44974 .03646 L
.45503 .03646 L
.45503 .01472 L
.44974 .01472 L
s
1 0 0 r
.45503 .01472 m
.45503 .0266 L
.46032 .0266 L
.46032 .01472 L
F
0 g
.45503 .01472 m
.45503 .0266 L
.46032 .0266 L
.46032 .01472 L
.45503 .01472 L
s
1 0 0 r
.46032 .01472 m
.46032 .02921 L
.46561 .02921 L
.46561 .01472 L
F
0 g
.46032 .01472 m
.46032 .02921 L
.46561 .02921 L
.46561 .01472 L
.46032 .01472 L
s
1 0 0 r
.46561 .01472 m
.46561 .01906 L
.4709 .01906 L
.4709 .01472 L
F
0 g
.46561 .01472 m
.46561 .01906 L
.4709 .01906 L
.4709 .01472 L
.46561 .01472 L
s
1 0 0 r
.4709 .01472 m
.4709 .01761 L
.47619 .01761 L
.47619 .01472 L
F
0 g
.4709 .01472 m
.4709 .01761 L
.47619 .01761 L
.47619 .01472 L
.4709 .01472 L
s
1 0 0 r
.47619 .01472 m
.47619 .01848 L
.48148 .01848 L
.48148 .01472 L
F
0 g
.47619 .01472 m
.47619 .01848 L
.48148 .01848 L
.48148 .01472 L
.47619 .01472 L
s
1 0 0 r
.48148 .01472 m
.48148 .01935 L
.48677 .01935 L
.48677 .01472 L
F
0 g
.48148 .01472 m
.48148 .01935 L
.48677 .01935 L
.48677 .01472 L
.48148 .01472 L
s
1 0 0 r
.48677 .01472 m
.48677 .01732 L
.49206 .01732 L
.49206 .01472 L
F
0 g
.48677 .01472 m
.48677 .01732 L
.49206 .01732 L
.49206 .01472 L
.48677 .01472 L
s
1 0 0 r
.49206 .01472 m
.49206 .02312 L
.49735 .02312 L
.49735 .01472 L
F
0 g
.49206 .01472 m
.49206 .02312 L
.49735 .02312 L
.49735 .01472 L
.49206 .01472 L
s
1 0 0 r
.49735 .01472 m
.49735 .01761 L
.50265 .01761 L
.50265 .01472 L
F
0 g
.49735 .01472 m
.49735 .01761 L
.50265 .01761 L
.50265 .01472 L
.49735 .01472 L
s
1 0 0 r
.50265 .01472 m
.50265 .01761 L
.50794 .01761 L
.50794 .01472 L
F
0 g
.50265 .01472 m
.50265 .01761 L
.50794 .01761 L
.50794 .01472 L
.50265 .01472 L
s
1 0 0 r
.50794 .01472 m
.50794 .01732 L
.51323 .01732 L
.51323 .01472 L
F
0 g
.50794 .01472 m
.50794 .01732 L
.51323 .01732 L
.51323 .01472 L
.50794 .01472 L
s
1 0 0 r
.51323 .01472 m
.51323 .02515 L
.51852 .02515 L
.51852 .01472 L
F
0 g
.51323 .01472 m
.51323 .02515 L
.51852 .02515 L
.51852 .01472 L
.51323 .01472 L
s
1 0 0 r
.51852 .01472 m
.51852 .01703 L
.52381 .01703 L
.52381 .01472 L
F
0 g
.51852 .01472 m
.51852 .01703 L
.52381 .01703 L
.52381 .01472 L
.51852 .01472 L
s
1 0 0 r
.52381 .01472 m
.52381 .01993 L
.5291 .01993 L
.5291 .01472 L
F
0 g
.52381 .01472 m
.52381 .01993 L
.5291 .01993 L
.5291 .01472 L
.52381 .01472 L
s
1 0 0 r
.5291 .01472 m
.5291 .01732 L
.53439 .01732 L
.53439 .01472 L
F
0 g
.5291 .01472 m
.5291 .01732 L
.53439 .01732 L
.53439 .01472 L
.5291 .01472 L
s
1 0 0 r
.53439 .01472 m
.53439 .01645 L
.53968 .01645 L
.53968 .01472 L
F
0 g
.53439 .01472 m
.53439 .01645 L
.53968 .01645 L
.53968 .01472 L
.53439 .01472 L
s
1 0 0 r
.53968 .01472 m
.53968 .01587 L
.54497 .01587 L
.54497 .01472 L
F
0 g
.53968 .01472 m
.53968 .01587 L
.54497 .01587 L
.54497 .01472 L
.53968 .01472 L
s
1 0 0 r
.54497 .01472 m
.54497 .01674 L
.55026 .01674 L
.55026 .01472 L
F
0 g
.54497 .01472 m
.54497 .01674 L
.55026 .01674 L
.55026 .01472 L
.54497 .01472 L
s
1 0 0 r
.55026 .01472 m
.55026 .01674 L
.55556 .01674 L
.55556 .01472 L
F
0 g
.55026 .01472 m
.55026 .01674 L
.55556 .01674 L
.55556 .01472 L
.55026 .01472 L
s
1 0 0 r
.55556 .01472 m
.55556 .01616 L
.56085 .01616 L
.56085 .01472 L
F
0 g
.55556 .01472 m
.55556 .01616 L
.56085 .01616 L
.56085 .01472 L
.55556 .01472 L
s
1 0 0 r
.56085 .01472 m
.56085 .01558 L
.56614 .01558 L
.56614 .01472 L
F
0 g
.56085 .01472 m
.56085 .01558 L
.56614 .01558 L
.56614 .01472 L
.56085 .01472 L
s
1 0 0 r
.56614 .01472 m
.56614 .0153 L
.57143 .0153 L
.57143 .01472 L
F
0 g
.56614 .01472 m
.56614 .0153 L
.57143 .0153 L
.57143 .01472 L
.56614 .01472 L
s
1 0 0 r
.57143 .01472 m
.57143 .01558 L
.57672 .01558 L
.57672 .01472 L
F
0 g
.57143 .01472 m
.57143 .01558 L
.57672 .01558 L
.57672 .01472 L
.57143 .01472 L
s
1 0 0 r
.57672 .01472 m
.57672 .01558 L
.58201 .01558 L
.58201 .01472 L
F
0 g
.57672 .01472 m
.57672 .01558 L
.58201 .01558 L
.58201 .01472 L
.57672 .01472 L
s
1 0 0 r
.58201 .01472 m
.58201 .01472 L
.5873 .01472 L
.5873 .01472 L
F
0 g
.58201 .01472 m
.58201 .01472 L
.5873 .01472 L
.5873 .01472 L
.58201 .01472 L
s
1 0 0 r
.5873 .01472 m
.5873 .0153 L
.59259 .0153 L
.59259 .01472 L
F
0 g
.5873 .01472 m
.5873 .0153 L
.59259 .0153 L
.59259 .01472 L
.5873 .01472 L
s
1 0 0 r
.59259 .01472 m
.59259 .01472 L
.59788 .01472 L
.59788 .01472 L
F
0 g
.59259 .01472 m
.59259 .01472 L
.59788 .01472 L
.59788 .01472 L
.59259 .01472 L
s
1 0 0 r
.59788 .01472 m
.59788 .01472 L
.60317 .01472 L
.60317 .01472 L
F
0 g
.59788 .01472 m
.59788 .01472 L
.60317 .01472 L
.60317 .01472 L
.59788 .01472 L
s
1 0 0 r
.60317 .01472 m
.60317 .01558 L
.60847 .01558 L
.60847 .01472 L
F
0 g
.60317 .01472 m
.60317 .01558 L
.60847 .01558 L
.60847 .01472 L
.60317 .01472 L
s
1 0 0 r
.60847 .01472 m
.60847 .01501 L
.61376 .01501 L
.61376 .01472 L
F
0 g
.60847 .01472 m
.60847 .01501 L
.61376 .01501 L
.61376 .01472 L
.60847 .01472 L
s
1 0 0 r
.61376 .01472 m
.61376 .02167 L
.61905 .02167 L
.61905 .01472 L
F
0 g
.61376 .01472 m
.61376 .02167 L
.61905 .02167 L
.61905 .01472 L
.61376 .01472 L
s
1 0 0 r
.61905 .01472 m
.61905 .0153 L
.62434 .0153 L
.62434 .01472 L
F
0 g
.61905 .01472 m
.61905 .0153 L
.62434 .0153 L
.62434 .01472 L
.61905 .01472 L
s
1 0 0 r
.62434 .01472 m
.62434 .01501 L
.62963 .01501 L
.62963 .01472 L
F
0 g
.62434 .01472 m
.62434 .01501 L
.62963 .01501 L
.62963 .01472 L
.62434 .01472 L
s
1 0 0 r
.62963 .01472 m
.62963 .01616 L
.63492 .01616 L
.63492 .01472 L
F
0 g
.62963 .01472 m
.62963 .01616 L
.63492 .01616 L
.63492 .01472 L
.62963 .01472 L
s
1 0 0 r
.63492 .01472 m
.63492 .01501 L
.64021 .01501 L
.64021 .01472 L
F
0 g
.63492 .01472 m
.63492 .01501 L
.64021 .01501 L
.64021 .01472 L
.63492 .01472 L
s
1 0 0 r
.64021 .01472 m
.64021 .01501 L
.6455 .01501 L
.6455 .01472 L
F
0 g
.64021 .01472 m
.64021 .01501 L
.6455 .01501 L
.6455 .01472 L
.64021 .01472 L
s
1 0 0 r
.6455 .01472 m
.6455 .01472 L
.65079 .01472 L
.65079 .01472 L
F
0 g
.6455 .01472 m
.6455 .01472 L
.65079 .01472 L
.65079 .01472 L
.6455 .01472 L
s
1 0 0 r
.65079 .01472 m
.65079 .01501 L
.65608 .01501 L
.65608 .01472 L
F
0 g
.65079 .01472 m
.65079 .01501 L
.65608 .01501 L
.65608 .01472 L
.65079 .01472 L
s
1 0 0 r
.65608 .01472 m
.65608 .02399 L
.66138 .02399 L
.66138 .01472 L
F
0 g
.65608 .01472 m
.65608 .02399 L
.66138 .02399 L
.66138 .01472 L
.65608 .01472 L
s
1 0 0 r
.66138 .01472 m
.66138 .01558 L
.66667 .01558 L
.66667 .01472 L
F
0 g
.66138 .01472 m
.66138 .01558 L
.66667 .01558 L
.66667 .01472 L
.66138 .01472 L
s
1 0 0 r
.66667 .01472 m
.66667 .01472 L
.67196 .01472 L
.67196 .01472 L
F
0 g
.66667 .01472 m
.66667 .01472 L
.67196 .01472 L
.67196 .01472 L
.66667 .01472 L
s
1 0 0 r
.67196 .01472 m
.67196 .01501 L
.67725 .01501 L
.67725 .01472 L
F
0 g
.67196 .01472 m
.67196 .01501 L
.67725 .01501 L
.67725 .01472 L
.67196 .01472 L
s
1 0 0 r
.67725 .01472 m
.67725 .01472 L
.68254 .01472 L
.68254 .01472 L
F
0 g
.67725 .01472 m
.67725 .01472 L
.68254 .01472 L
.68254 .01472 L
.67725 .01472 L
s
1 0 0 r
.68254 .01472 m
.68254 .01472 L
.68783 .01472 L
.68783 .01472 L
F
0 g
.68254 .01472 m
.68254 .01472 L
.68783 .01472 L
.68783 .01472 L
.68254 .01472 L
s
1 0 0 r
.68783 .01472 m
.68783 .01472 L
.69312 .01472 L
.69312 .01472 L
F
0 g
.68783 .01472 m
.68783 .01472 L
.69312 .01472 L
.69312 .01472 L
.68783 .01472 L
s
1 0 0 r
.69312 .01472 m
.69312 .01472 L
.69841 .01472 L
.69841 .01472 L
F
0 g
.69312 .01472 m
.69312 .01472 L
.69841 .01472 L
.69841 .01472 L
.69312 .01472 L
s
1 0 0 r
.69841 .01472 m
.69841 .01616 L
.7037 .01616 L
.7037 .01472 L
F
0 g
.69841 .01472 m
.69841 .01616 L
.7037 .01616 L
.7037 .01472 L
.69841 .01472 L
s
1 0 0 r
.7037 .01472 m
.7037 .01472 L
.70899 .01472 L
.70899 .01472 L
F
0 g
.7037 .01472 m
.7037 .01472 L
.70899 .01472 L
.70899 .01472 L
.7037 .01472 L
s
1 0 0 r
.70899 .01472 m
.70899 .01472 L
.71429 .01472 L
.71429 .01472 L
F
0 g
.70899 .01472 m
.70899 .01472 L
.71429 .01472 L
.71429 .01472 L
.70899 .01472 L
s
1 0 0 r
.71429 .01472 m
.71429 .01501 L
.71958 .01501 L
.71958 .01472 L
F
0 g
.71429 .01472 m
.71429 .01501 L
.71958 .01501 L
.71958 .01472 L
.71429 .01472 L
s
1 0 0 r
.71958 .01472 m
.71958 .01472 L
.72487 .01472 L
.72487 .01472 L
F
0 g
.71958 .01472 m
.71958 .01472 L
.72487 .01472 L
.72487 .01472 L
.71958 .01472 L
s
1 0 0 r
.72487 .01472 m
.72487 .01472 L
.73016 .01472 L
.73016 .01472 L
F
0 g
.72487 .01472 m
.72487 .01472 L
.73016 .01472 L
.73016 .01472 L
.72487 .01472 L
s
1 0 0 r
.73016 .01472 m
.73016 .01501 L
.73545 .01501 L
.73545 .01472 L
F
0 g
.73016 .01472 m
.73016 .01501 L
.73545 .01501 L
.73545 .01472 L
.73016 .01472 L
s
1 0 0 r
.73545 .01472 m
.73545 .01501 L
.74074 .01501 L
.74074 .01472 L
F
0 g
.73545 .01472 m
.73545 .01501 L
.74074 .01501 L
.74074 .01472 L
.73545 .01472 L
s
1 0 0 r
.74074 .01472 m
.74074 .01501 L
.74603 .01501 L
.74603 .01472 L
F
0 g
.74074 .01472 m
.74074 .01501 L
.74603 .01501 L
.74603 .01472 L
.74074 .01472 L
s
1 0 0 r
.74603 .01472 m
.74603 .01472 L
.75132 .01472 L
.75132 .01472 L
F
0 g
.74603 .01472 m
.74603 .01472 L
.75132 .01472 L
.75132 .01472 L
.74603 .01472 L
s
1 0 0 r
.75132 .01472 m
.75132 .01501 L
.75661 .01501 L
.75661 .01472 L
F
0 g
.75132 .01472 m
.75132 .01501 L
.75661 .01501 L
.75661 .01472 L
.75132 .01472 L
s
1 0 0 r
.75661 .01472 m
.75661 .01472 L
.7619 .01472 L
.7619 .01472 L
F
0 g
.75661 .01472 m
.75661 .01472 L
.7619 .01472 L
.7619 .01472 L
.75661 .01472 L
s
1 0 0 r
.7619 .01472 m
.7619 .0153 L
.7672 .0153 L
.7672 .01472 L
F
0 g
.7619 .01472 m
.7619 .0153 L
.7672 .0153 L
.7672 .01472 L
.7619 .01472 L
s
1 0 0 r
.7672 .01472 m
.7672 .01472 L
.77249 .01472 L
.77249 .01472 L
F
0 g
.7672 .01472 m
.7672 .01472 L
.77249 .01472 L
.77249 .01472 L
.7672 .01472 L
s
1 0 0 r
.77249 .01472 m
.77249 .01501 L
.77778 .01501 L
.77778 .01472 L
F
0 g
.77249 .01472 m
.77249 .01501 L
.77778 .01501 L
.77778 .01472 L
.77249 .01472 L
s
1 0 0 r
.77778 .01472 m
.77778 .0266 L
.78307 .0266 L
.78307 .01472 L
F
0 g
.77778 .01472 m
.77778 .0266 L
.78307 .0266 L
.78307 .01472 L
.77778 .01472 L
s
1 0 0 r
.78307 .01472 m
.78307 .01558 L
.78836 .01558 L
.78836 .01472 L
F
0 g
.78307 .01472 m
.78307 .01558 L
.78836 .01558 L
.78836 .01472 L
.78307 .01472 L
s
1 0 0 r
.78836 .01472 m
.78836 .01501 L
.79365 .01501 L
.79365 .01472 L
F
0 g
.78836 .01472 m
.78836 .01501 L
.79365 .01501 L
.79365 .01472 L
.78836 .01472 L
s
1 0 0 r
.79365 .01472 m
.79365 .01501 L
.79894 .01501 L
.79894 .01472 L
F
0 g
.79365 .01472 m
.79365 .01501 L
.79894 .01501 L
.79894 .01472 L
.79365 .01472 L
s
1 0 0 r
.79894 .01472 m
.79894 .01472 L
.80423 .01472 L
.80423 .01472 L
F
0 g
.79894 .01472 m
.79894 .01472 L
.80423 .01472 L
.80423 .01472 L
.79894 .01472 L
s
1 0 0 r
.80423 .01472 m
.80423 .01472 L
.80952 .01472 L
.80952 .01472 L
F
0 g
.80423 .01472 m
.80423 .01472 L
.80952 .01472 L
.80952 .01472 L
.80423 .01472 L
s
1 0 0 r
.80952 .01472 m
.80952 .01472 L
.81481 .01472 L
.81481 .01472 L
F
0 g
.80952 .01472 m
.80952 .01472 L
.81481 .01472 L
.81481 .01472 L
.80952 .01472 L
s
1 0 0 r
.81481 .01472 m
.81481 .01472 L
.82011 .01472 L
.82011 .01472 L
F
0 g
.81481 .01472 m
.81481 .01472 L
.82011 .01472 L
.82011 .01472 L
.81481 .01472 L
s
1 0 0 r
.82011 .01472 m
.82011 .01501 L
.8254 .01501 L
.8254 .01472 L
F
0 g
.82011 .01472 m
.82011 .01501 L
.8254 .01501 L
.8254 .01472 L
.82011 .01472 L
s
1 0 0 r
.8254 .01472 m
.8254 .01501 L
.83069 .01501 L
.83069 .01472 L
F
0 g
.8254 .01472 m
.8254 .01501 L
.83069 .01501 L
.83069 .01472 L
.8254 .01472 L
s
1 0 0 r
.83069 .01472 m
.83069 .01472 L
.83598 .01472 L
.83598 .01472 L
F
0 g
.83069 .01472 m
.83069 .01472 L
.83598 .01472 L
.83598 .01472 L
.83069 .01472 L
s
1 0 0 r
.83598 .01472 m
.83598 .01472 L
.84127 .01472 L
.84127 .01472 L
F
0 g
.83598 .01472 m
.83598 .01472 L
.84127 .01472 L
.84127 .01472 L
.83598 .01472 L
s
1 0 0 r
.84127 .01472 m
.84127 .01472 L
.84656 .01472 L
.84656 .01472 L
F
0 g
.84127 .01472 m
.84127 .01472 L
.84656 .01472 L
.84656 .01472 L
.84127 .01472 L
s
1 0 0 r
.84656 .01472 m
.84656 .01472 L
.85185 .01472 L
.85185 .01472 L
F
0 g
.84656 .01472 m
.84656 .01472 L
.85185 .01472 L
.85185 .01472 L
.84656 .01472 L
s
1 0 0 r
.85185 .01472 m
.85185 .01472 L
.85714 .01472 L
.85714 .01472 L
F
0 g
.85185 .01472 m
.85185 .01472 L
.85714 .01472 L
.85714 .01472 L
.85185 .01472 L
s
1 0 0 r
.85714 .01472 m
.85714 .01558 L
.86243 .01558 L
.86243 .01472 L
F
0 g
.85714 .01472 m
.85714 .01558 L
.86243 .01558 L
.86243 .01472 L
.85714 .01472 L
s
1 0 0 r
.86243 .01472 m
.86243 .01587 L
.86772 .01587 L
.86772 .01472 L
F
0 g
.86243 .01472 m
.86243 .01587 L
.86772 .01587 L
.86772 .01472 L
.86243 .01472 L
s
1 0 0 r
.86772 .01472 m
.86772 .01472 L
.87302 .01472 L
.87302 .01472 L
F
0 g
.86772 .01472 m
.86772 .01472 L
.87302 .01472 L
.87302 .01472 L
.86772 .01472 L
s
1 0 0 r
.87302 .01472 m
.87302 .01472 L
.87831 .01472 L
.87831 .01472 L
F
0 g
.87302 .01472 m
.87302 .01472 L
.87831 .01472 L
.87831 .01472 L
.87302 .01472 L
s
1 0 0 r
.87831 .01472 m
.87831 .01501 L
.8836 .01501 L
.8836 .01472 L
F
0 g
.87831 .01472 m
.87831 .01501 L
.8836 .01501 L
.8836 .01472 L
.87831 .01472 L
s
1 0 0 r
.8836 .01472 m
.8836 .01472 L
.88889 .01472 L
.88889 .01472 L
F
0 g
.8836 .01472 m
.8836 .01472 L
.88889 .01472 L
.88889 .01472 L
.8836 .01472 L
s
1 0 0 r
.88889 .01472 m
.88889 .01472 L
.89418 .01472 L
.89418 .01472 L
F
0 g
.88889 .01472 m
.88889 .01472 L
.89418 .01472 L
.89418 .01472 L
.88889 .01472 L
s
1 0 0 r
.89418 .01472 m
.89418 .01472 L
.89947 .01472 L
.89947 .01472 L
F
0 g
.89418 .01472 m
.89418 .01472 L
.89947 .01472 L
.89947 .01472 L
.89418 .01472 L
s
1 0 0 r
.89947 .01472 m
.89947 .01501 L
.90476 .01501 L
.90476 .01472 L
F
0 g
.89947 .01472 m
.89947 .01501 L
.90476 .01501 L
.90476 .01472 L
.89947 .01472 L
s
1 0 0 r
.90476 .01472 m
.90476 .01501 L
.91005 .01501 L
.91005 .01472 L
F
0 g
.90476 .01472 m
.90476 .01501 L
.91005 .01501 L
.91005 .01472 L
.90476 .01472 L
s
1 0 0 r
.91005 .01472 m
.91005 .0153 L
.91534 .0153 L
.91534 .01472 L
F
0 g
.91005 .01472 m
.91005 .0153 L
.91534 .0153 L
.91534 .01472 L
.91005 .01472 L
s
1 0 0 r
.91534 .01472 m
.91534 .01501 L
.92063 .01501 L
.92063 .01472 L
F
0 g
.91534 .01472 m
.91534 .01501 L
.92063 .01501 L
.92063 .01472 L
.91534 .01472 L
s
1 0 0 r
.92063 .01472 m
.92063 .01501 L
.92593 .01501 L
.92593 .01472 L
F
0 g
.92063 .01472 m
.92063 .01501 L
.92593 .01501 L
.92593 .01472 L
.92063 .01472 L
s
1 0 0 r
.92593 .01472 m
.92593 .01558 L
.93122 .01558 L
.93122 .01472 L
F
0 g
.92593 .01472 m
.92593 .01558 L
.93122 .01558 L
.93122 .01472 L
.92593 .01472 L
s
1 0 0 r
.93122 .01472 m
.93122 .01472 L
.93651 .01472 L
.93651 .01472 L
F
0 g
.93122 .01472 m
.93122 .01472 L
.93651 .01472 L
.93651 .01472 L
.93122 .01472 L
s
1 0 0 r
.93651 .01472 m
.93651 .01472 L
.9418 .01472 L
.9418 .01472 L
F
0 g
.93651 .01472 m
.93651 .01472 L
.9418 .01472 L
.9418 .01472 L
.93651 .01472 L
s
1 0 0 r
.9418 .01472 m
.9418 .01472 L
.94709 .01472 L
.94709 .01472 L
F
0 g
.9418 .01472 m
.9418 .01472 L
.94709 .01472 L
.94709 .01472 L
.9418 .01472 L
s
1 0 0 r
.94709 .01472 m
.94709 .01501 L
.95238 .01501 L
.95238 .01472 L
F
0 g
.94709 .01472 m
.94709 .01501 L
.95238 .01501 L
.95238 .01472 L
.94709 .01472 L
s
1 0 0 r
.95238 .01472 m
.95238 .01472 L
.95767 .01472 L
.95767 .01472 L
F
0 g
.95238 .01472 m
.95238 .01472 L
.95767 .01472 L
.95767 .01472 L
.95238 .01472 L
s
1 0 0 r
.95767 .01472 m
.95767 .01472 L
.96296 .01472 L
.96296 .01472 L
F
0 g
.95767 .01472 m
.95767 .01472 L
.96296 .01472 L
.96296 .01472 L
.95767 .01472 L
s
1 0 0 r
.96296 .01472 m
.96296 .01472 L
.96825 .01472 L
.96825 .01472 L
F
0 g
.96296 .01472 m
.96296 .01472 L
.96825 .01472 L
.96825 .01472 L
.96296 .01472 L
s
1 0 0 r
.96825 .01472 m
.96825 .01501 L
.97354 .01501 L
.97354 .01472 L
F
0 g
.96825 .01472 m
.96825 .01501 L
.97354 .01501 L
.97354 .01472 L
.96825 .01472 L
s
1 0 0 r
.97354 .01472 m
.97354 .01501 L
.97884 .01501 L
.97884 .01472 L
F
0 g
.97354 .01472 m
.97354 .01501 L
.97884 .01501 L
.97884 .01472 L
.97354 .01472 L
s
1 0 0 r
.97884 .01472 m
.97884 .01472 L
.98413 .01472 L
.98413 .01472 L
F
0 g
.97884 .01472 m
.97884 .01472 L
.98413 .01472 L
.98413 .01472 L
.97884 .01472 L
s
1 0 0 r
.98413 .01472 m
.98413 .0153 L
.98942 .0153 L
.98942 .01472 L
F
0 g
.98413 .01472 m
.98413 .0153 L
.98942 .0153 L
.98942 .01472 L
.98413 .01472 L
s
1 0 0 r
.98942 .01472 m
.98942 .01472 L
.99471 .01472 L
.99471 .01472 L
F
0 g
.98942 .01472 m
.98942 .01472 L
.99471 .01472 L
.99471 .01472 L
.98942 .01472 L
s
1 0 0 r
.99471 .01472 m
.99471 .0153 L
1 .0153 L
1 .01472 L
F
0 g
.99471 .01472 m
.99471 .0153 L
1 .0153 L
1 .01472 L
.99471 .01472 L
s
% End of Graphics
MathPictureEnd

%%PSTrailer
end
grestore


%%EPS Trailer

%%Trailer
%%EOF
