%!PS-Adobe-2.0 EPSF-1.2
%%BoundingBox: 153 0 400 270
%%HiResBoundingBox: 153 8 154 9
%%Creator: (Mathematica 4.0 for X)
%%CreationDate: (Wednesday, May 4, 2005) (13:07:39)
%%Title: Clipboard
%%DocumentNeededResources: font Math1Mono
%%+ font Courier
%%+ font Times-Roman
%%DocumentSuppliedResources:
%%DocumentNeededFonts: Math1Mono
%%+ Courier
%%+ Times-Roman
%%DocumentSuppliedFonts:
%%DocumentFonts: Math1Mono
%%+ Courier
%%+ Times-Roman
%%EndComments
/MISOfy
{
    /newfontname exch def
    /oldfontname exch def

    oldfontname findfont
    dup length dict begin
        {1 index /FID ne {def} {pop pop} ifelse} forall
        /Encoding ISOLatin1Encoding def
        currentdict
    end

    newfontname exch definefont pop
} def

0 17 translate 1 -1 scale
0.000 0.000 0.000 setrgbcolor
%%IncludeResource: font Times-Roman
%%IncludeFont: Times-Roman
/Times-Roman findfont 10.000 scalefont
[1 0 0 -1 0 0 ] makefont setfont
0.000 0.000 0.000 setrgbcolor
0.850 0.850 0.850 setrgbcolor
newpath
 153.000 9.000 moveto
 154.000 9.000 lineto
 154.000 8.000 lineto
 153.000 8.000 lineto
 153.000 9.000 lineto
closepath
fill
0.000 0.000 0.000 setrgbcolor
%%IncludeResource: font Times-Roman
%%IncludeFont: Times-Roman
/Times-Roman findfont 10.000 scalefont
[1 0 0 -1 0 0 ] makefont setfont
0.000 0.000 0.000 setrgbcolor
gsave
150 dict begin
/Mfixwid true def
/Mrot 0 def
/Mpstart {
    MathPictureStart
} bind def
/Mpend {
    MathPictureEnd
} bind def
/Mscale {
    0 1 0 1
    5 -1 roll
    MathScale
} bind def
/Plain	/Courier findfont def
/Bold	/Courier-Bold findfont def
/Italic /Courier-Oblique findfont def
/MathPictureStart {
	/Mimatrix
	 matrix currentmatrix
	def
	gsave
	newpath
	Mleft
	Mbottom
	translate
	/Mtmatrix
	matrix currentmatrix
	def
	Plain
	Mfontsize scalefont
	setfont
	0 setgray
	0 setlinewidth
} bind def
/MathPictureEnd {
	grestore
} bind def
/MathSubStart {
 	     Momatrix
        Mgmatrix Mtmatrix
        Mleft Mbottom
        Mwidth Mheight
        9 -2 roll
        moveto
        Mtmatrix setmatrix
        currentpoint
        Mgmatrix setmatrix
        11 -2 roll
        moveto
        Mtmatrix setmatrix
        currentpoint
        2 copy translate
        /Mtmatrix matrix currentmatrix def
        /Mleft 0 def
        /Mbottom 0 def
        3 -1 roll
        exch sub
        /Mheight exch def
        sub
        /Mwidth exch def
} bind def
/MathSubEnd {
        /Mheight exch def
        /Mwidth exch def
        /Mbottom exch def
        /Mleft exch def
        /Mtmatrix exch def
        dup setmatrix
        /Mgmatrix exch def
	      /Momatrix exch def
} bind def
/Mdot {
	moveto
	0 0 rlineto
	stroke
} bind def
/Mtetra {
	moveto
	lineto
	lineto
	lineto
	fill
} bind def
/Metetra {
	moveto
	lineto
	lineto
	lineto
	closepath
	gsave
	fill
	grestore
	0 setgray
	stroke
} bind def
/Mistroke {
	flattenpath
	0 0 0
	{
	4 2 roll
	pop pop
	}
	{
	4 -1 roll
	2 index
	sub dup mul
	4 -1 roll
	2 index
	sub dup mul
	add sqrt
	4 -1 roll
	add
	3 1 roll
	}
	{
	stop
	}
	{
	stop
	}
	pathforall
	pop pop
	currentpoint
	stroke
	moveto
	currentdash
	3 -1 roll
	add
	setdash
} bind def
/Mfstroke {
	stroke
	currentdash
	pop 0
	setdash
} bind def
/Mrotsboxa {
	gsave
	dup
	/Mrot
	exch def
	Mrotcheck
	Mtmatrix
	dup
	setmatrix
	7 1 roll
	4 index
	4 index
	translate
	rotate
	3 index
	-1 mul
	3 index
	-1 mul
	translate
	/Mtmatrix
	matrix
	currentmatrix
	def
	grestore
	Msboxa
	3  -1 roll
	/Mtmatrix
	exch def
	/Mrot
	0 def
} bind def
/Msboxa {
	newpath
	5 -1 roll
	Mvboxa
	pop
	Mboxout
	6 -1 roll
	5 -1 roll
	4 -1 roll
	Msboxa1
	5 -3 roll
	Msboxa1
	Mboxrot
	[
	7 -2 roll
	2 copy
	[
	3 1 roll
	10 -1 roll
	9 -1 roll
	]
	6 1 roll
	5 -2 roll
	]
} bind def
/Msboxa1 {
	sub
	2 div
	dup
	2 index
	1 add
	mul
	3 -1 roll
	-1 add
	3 -1 roll
	mul
} bind def
/Mvboxa	{
	Mfixwid
	{
	Mvboxa1
	}
	{
	dup
	Mwidthcal
	0 exch
	{
	add
	}
	forall
	exch
	Mvboxa1
	4 index
	7 -1 roll
	add
	4 -1 roll
	pop
	3 1 roll
	}
	ifelse
} bind def
/Mvboxa1 {
	gsave
	newpath
	[ true
	3 -1 roll
	{
	Mbbox
	5 -1 roll
	{
	0
	5 1 roll
	}
	{
	7 -1 roll
	exch sub
	(m) stringwidth pop
	.3 mul
	sub
	7 1 roll
	6 -1 roll
	4 -1 roll
	Mmin
	3 -1 roll
	5 index
	add
	5 -1 roll
	4 -1 roll
	Mmax
	4 -1 roll
	}
	ifelse
	false
	}
	forall
	{ stop } if
	counttomark
	1 add
	4 roll
	]
	grestore
} bind def
/Mbbox {
	0 0 moveto
	false charpath
	flattenpath
	pathbbox
	newpath
} bind def
/Mmin {
	2 copy
	gt
	{ exch } if
	pop
} bind def
/Mmax {
	2 copy
	lt
	{ exch } if
	pop
} bind def
/Mrotshowa {
	dup
	/Mrot
	exch def
	Mrotcheck
	Mtmatrix
	dup
	setmatrix
	7 1 roll
	4 index
	4 index
	translate
	rotate
	3 index
	-1 mul
	3 index
	-1 mul
	translate
	/Mtmatrix
	matrix
	currentmatrix
	def
	Mgmatrix setmatrix
	Mshowa
	/Mtmatrix
	exch def
	/Mrot 0 def
} bind def
/Mshowa {
	4 -2 roll
	moveto
	2 index
	Mtmatrix setmatrix
	Mvboxa
	7 1 roll
	Mboxout
	6 -1 roll
	5 -1 roll
	4 -1 roll
	Mshowa1
	4 1 roll
	Mshowa1
	rmoveto
	currentpoint
	Mfixwid
	{
	Mshowax
	}
	{
	Mshoway
	}
	ifelse
	pop pop pop pop
	Mgmatrix setmatrix
} bind def
/Mshowax {
	0 1
        4 index length
        -1 add
        {
        2 index
        4 index
        2 index
        get
        3 index
        add
        moveto
        4 index
        exch get
        show
        } for
} bind def
/Mshoway {
        3 index
        Mwidthcal
        5 1 roll
	0 1
	4 index length
	-1 add
	{
	2 index
	4 index
	2 index
	get
	3 index
	add
	moveto
	4 index
	exch get
	[
	6 index
	aload
	length
	2 add
	-1 roll
	{
	pop
	Strform
	stringwidth
	pop
	neg
	exch
	add
	0 rmoveto
	}
	exch
	kshow
	cleartomark
	} for
	pop
} bind def
/Mwidthcal {
	[
	exch
	{
	Mwidthcal1
	}
	forall
	]
	[
	exch
	dup
	Maxlen
	-1 add
	0 1
	3 -1 roll
	{
	[
	exch
	2 index
	{
	1 index
	Mget
	exch
	}
	forall
	pop
	Maxget
	exch
	}
	for
	pop
	]
	Mreva
} bind def
/Mreva	{
	[
	exch
	aload
	length
	-1 1
	{1 roll}
	for
	]
} bind def
/Mget	{
	1 index
	length
	-1 add
	1 index
	ge
	{
	get
	}
	{
	pop pop
	0
	}
	ifelse
} bind def
/Maxlen	{
	[
	exch
	{
	length
	}
	forall
	Maxget
} bind def
/Maxget	{
	counttomark
	-1 add
	1 1
	3 -1 roll
	{
	pop
	Mmax
	}
	for
	exch
	pop
} bind def
/Mwidthcal1 {
	[
	exch
	{
	Strform
	stringwidth
	pop
	}
	forall
	]
} bind def
/Strform {
	/tem (x) def
	tem 0
	3 -1 roll
	put
	tem
} bind def
/Mshowa1 {
	2 copy
	add
	4 1 roll
	sub
	mul
	sub
	-2 div
} bind def
/MathScale {
	Mwidth
	Mheight
	Mlp
	translate
	scale
	/yscale exch def
	/ybias exch def
	/xscale exch def
	/xbias exch def
	/Momatrix
	xscale yscale matrix scale
	xbias ybias matrix translate
	matrix concatmatrix def
	/Mgmatrix
	matrix currentmatrix
	def
} bind def
/Mlp {
	3 copy
	Mlpfirst
	{
	Mnodistort
	{
	Mmin
	dup
	} if
	4 index
	2 index
	2 index
	Mlprun
	11 index
	11 -1 roll
	10 -4 roll
	Mlp1
	8 index
	9 -5 roll
	Mlp1
	4 -1 roll
	and
	{ exit } if
	3 -1 roll
	pop pop
	} loop
	exch
	3 1 roll
	7 -3 roll
	pop pop pop
} bind def
/Mlpfirst {
	3 -1 roll
	dup length
	2 copy
	-2 add
	get
	aload
	pop pop pop
	4 -2 roll
	-1 add
	get
	aload
	pop pop pop
	6 -1 roll
	3 -1 roll
	5 -1 roll
	sub
	dup /MsaveAx exch def
	div
	4 1 roll
	exch sub
	dup /MsaveAy exch def
	div
} bind def
/Mlprun {
	2 copy
	4 index
	0 get
	dup
	4 1 roll
	Mlprun1
	3 copy
	8 -2 roll
	9 -1 roll
	{
	3 copy
	Mlprun1
	3 copy
	11 -3 roll
	/gt Mlpminmax
	8 3 roll
	11 -3 roll
	/lt Mlpminmax
	8 3 roll
	} forall
	pop pop pop pop
	3 1 roll
	pop pop
	aload pop
	5 -1 roll
	aload pop
	exch
	6 -1 roll
	Mlprun2
	8 2 roll
	4 -1 roll
	Mlprun2
	6 2 roll
	3 -1 roll
	Mlprun2
	4 2 roll
	exch
	Mlprun2
	6 2 roll
} bind def
/Mlprun1 {
	aload pop
	exch
	6 -1 roll
	5 -1 roll
	mul add
	4 -2 roll
	mul
	3 -1 roll
	add
} bind def
/Mlprun2 {
	2 copy
	add 2 div
	3 1 roll
	exch sub
} bind def
/Mlpminmax {
	cvx
	2 index
	6 index
	2 index
	exec
	{
	7 -3 roll
	4 -1 roll
	} if
	1 index
	5 index
	3 -1 roll
	exec
	{
	4 1 roll
	pop
	5 -1 roll
	aload
	pop pop
	4 -1 roll
	aload pop
	[
	8 -2 roll
	pop
	5 -2 roll
	pop
	6 -2 roll
	pop
	5 -1 roll
	]
	4 1 roll
	pop
	}
	{
	pop pop pop
	} ifelse
} bind def
/Mlp1 {
	5 index
	3 index	sub
	5 index
	2 index mul
	1 index
	le
	1 index
	0 le
	or
	dup
	not
	{
	1 index
	3 index	div
	.99999 mul
	8 -1 roll
	pop
	7 1 roll
	}
	if
	8 -1 roll
	2 div
	7 -2 roll
	pop sub
	5 index
	6 -3 roll
	pop pop
	mul sub
	exch
} bind def
/intop 0 def
/inrht 0 def
/inflag 0 def
/outflag 0 def
/xadrht 0 def
/xadlft 0 def
/yadtop 0 def
/yadbot 0 def
/Minner {
	outflag
	1
	eq
	{
	/outflag 0 def
	/intop 0 def
	/inrht 0 def
	} if
	5 index
	gsave
	Mtmatrix setmatrix
	Mvboxa pop
	grestore
	3 -1 roll
	pop
	dup
	intop
	gt
	{
	/intop
	exch def
	}
	{ pop }
	ifelse
	dup
	inrht
	gt
	{
	/inrht
	exch def
	}
	{ pop }
	ifelse
	pop
	/inflag
	1 def
} bind def
/Mouter {
	/xadrht 0 def
	/xadlft 0 def
	/yadtop 0 def
	/yadbot 0 def
	inflag
	1 eq
	{
	dup
	0 lt
	{
	dup
	intop
	mul
	neg
	/yadtop
	exch def
	} if
	dup
	0 gt
	{
	dup
	intop
	mul
	/yadbot
	exch def
	}
	if
	pop
	dup
	0 lt
	{
	dup
	inrht
	mul
	neg
	/xadrht
	exch def
	} if
	dup
	0 gt
	{
	dup
	inrht
	mul
	/xadlft
	exch def
	} if
	pop
	/outflag 1 def
	}
	{ pop pop}
	ifelse
	/inflag 0 def
	/inrht 0 def
	/intop 0 def
} bind def
/Mboxout {
	outflag
	1
	eq
	{
	4 -1
	roll
	xadlft
	leadjust
	add
	sub
	4 1 roll
	3 -1
	roll
	yadbot
	leadjust
	add
	sub
	3 1
	roll
	exch
	xadrht
	leadjust
	add
	add
	exch
	yadtop
	leadjust
	add
	add
	/outflag 0 def
	/xadlft 0 def
	/yadbot 0 def
	/xadrht 0 def
	/yadtop 0 def
	} if
} bind def
/leadjust {
	(m) stringwidth pop
	.5 mul
} bind def
/Mrotcheck {
	dup
	90
	eq
	{
	yadbot
	/yadbot
	xadrht
	def
	/xadrht
	yadtop
	def
	/yadtop
	xadlft
	def
	/xadlft
	exch
	def
	}
	if
	dup
	cos
	1 index
	sin
	Checkaux
	dup
	cos
	1 index
	sin neg
	exch
	Checkaux
	3 1 roll
	pop pop
} bind def
/Checkaux {
	4 index
	exch
	4 index
	mul
	3 1 roll
	mul add
	4 1 roll
} bind def
/Mboxrot {
	Mrot
	90 eq
	{
	brotaux
	4 2
	roll
	}
	if
	Mrot
	180 eq
	{
	4 2
        roll
	brotaux
	4 2
	roll
	brotaux
	}
	if
	Mrot
	270 eq
	{
	4 2
	roll
	brotaux
	}
	if
} bind def
/brotaux {
	neg
	exch
	neg
} bind def
/Mabsproc {
        0
        matrix defaultmatrix
        dtransform idtransform
        dup mul exch
        dup mul
        add sqrt
} bind def
/Mabswid {
        Mabsproc
        setlinewidth
} bind def
/Mabsdash {
        exch
        [
        exch
        {
        Mabsproc
        }
        forall
        ]
        exch
        setdash
} bind def
/MBeginOrig { Momatrix concat} bind def
/MEndOrig { Mgmatrix setmatrix} bind def
/sampledsound where
{ pop}
{ /sampledsound {
exch
pop
exch
5 1 roll
mul
4 idiv
mul
2 idiv
exch pop
exch
/Mtempproc exch def
{ Mtempproc pop }
repeat
} bind def
} ifelse
% Here are the short operators
/g { setgray} bind def
/k { setcmykcolor} bind def
/m { moveto} bind def
/p { gsave} bind def
/r { setrgbcolor} bind def
/w { setlinewidth} bind def
/C { curveto} bind def
/F { fill} bind def
/L { lineto} bind def
/P { grestore} bind def
/s { stroke} bind def

/MFill {
	0 0 		moveto
	Mwidth 0 	lineto
	Mwidth Mheight 	lineto
	0 Mheight 	lineto
	fill
} bind def

/MPlotRegion {
	3 index
	Mwidth mul
	2 index
	Mheight mul
	translate
	exch sub
	Mheight mul
	/Mheight
	exch def
	exch sub
	Mwidth mul
	/Mwidth
	exch def
} bind def

/Mcharproc
{
  	currentfile
  	(x)
  	readhexstring
  	pop
  	0 get
  	exch
 	div
} bind def

/Mshadeproc
{
	dup
	3 1
	roll
	{
	dup
	Mcharproc
	3 1
	roll
	} repeat
	1 eq
	{
	setgray
	}
	{
	3 eq
	{
	setrgbcolor
	}
	{
	setcmykcolor
	} ifelse
	} ifelse
} bind def

/Mrectproc
{
	3 index
	2 index
	moveto
	2 index
	3 -1
	roll
	lineto
	dup
	3 1
	roll
	lineto
	lineto
	fill
} bind def

/_Mcolorimage
{
	7 1
	roll
	pop
	pop
	matrix
	invertmatrix
	concat
	2 exch exp
	1 sub
	3 1 roll
	1 1
	2 index
	{
	1 1
	4 index
	{
	dup
	1 sub
	exch
	2 index
	dup
	1 sub
	exch
	7 index
	9 index
	Mshadeproc
	Mrectproc
	} for
	pop
	} for
	pop pop pop pop
} bind def

/_Mimage
{
	pop
	matrix
	invertmatrix
	concat
	2 exch exp
	1 sub
	3 1 roll
	1 1
	2 index
	{
	1 1
	4 index
	{
	dup
	1 sub 
	exch
	2 index
	dup
	1 sub
	exch
	7 index
	Mcharproc
	setgray
	Mrectproc
	} for
	pop
	} for
	pop pop pop
} bind def

/Mimage {
	4 index
	4 index
	mul 1600 gt
	{ image }
	{ _Mimage }
	ifelse
} def

/Mcolorimage {
	6 index
	6 index
	mul 1600 gt
	{ colorimage }
	{ _Mcolorimage }
	ifelse
} def
/Mnodistort true def
1.000000 1.000000 scale
153.000000 9.000000 translate
1.000000 -1.000000 scale
-0.000000 -0.000000 translate
/Mleft		0.000000 def
/Mbottom	0.000000 def
/Mwidth		250.0000 def
/Mheight	250.0000 def
0 setgray
0 setlinewidth
/Courier findfont 12 scalefont setfont
/Mfontsize 12 def
/Plain /Courier findfont def

%!
%%Creator: Mathematica
%%AspectRatio: 1.49868 
MathPictureStart
/Mabs {
Mgmatrix idtransform
Mtmatrix dtransform
} bind def
/Mabsadd { Mabs
3 -1 roll add
3 1 roll add
exch } bind def
%% Graphics3D
%%IncludeResource: font Courier
%%IncludeFont: Courier
/Courier findfont 10  scalefont  setfont
% Scaling calculations
-0.242528 1.57481 -2.22885e-13 1.57481 [
[.10344 .12892 -60.2896 -12.5 ]
[.10344 .12892 4.21037 0 ]
[.21545 .08233 -58.882 -12.5 ]
[.21545 .08233 5.61795 0 ]
[.33054 .03448 -57.4745 -12.5 ]
[.33054 .03448 7.02554 0 ]
[.44882 -0.01469 -56.0669 -12.5 ]
[.44882 -0.01469 8.43312 0 ]
[.09716 1.08368 -64.5 -4.36469 ]
[.09716 1.08368 0 8.13531 ]
[.25417 1.21483 -64.5 -4.49718 ]
[.25417 1.21483 0 8.00282 ]
[.39549 1.33287 -64.5 -4.61226 ]
[.39549 1.33287 0 7.88774 ]
[.52335 1.43967 -64.5 -4.71317 ]
[.52335 1.43967 0 7.78683 ]
[.06508 .16502 -52.5 -3.6599 ]
[.06508 .16502 0 8.8401 ]
[.04532 .35859 -58.5 -3.80099 ]
[.04532 .35859 0 8.69901 ]
[.02382 .56933 -58.5 -3.95535 ]
[.02382 .56933 0 8.54465 ]
[.00033 .79961 -58.5 -4.12497 ]
[.00033 .79961 0 8.37503 ]
[ 0 0 0 0 ]
[ 1 1.49868 0 0 ]
] MathScale
% Start of Graphics
1 setlinecap
1 setlinejoin
newpath
0 g
.25 Mabswid
[ ] 0 setdash
.08326 .15749 m
.46329 0 L
s
.11636 .14377 m
.12281 .1512 L
s
gsave
.10344 .12892 -60.2896 -10.5 Mabsadd m
1 1 Mabs scale
/Courier findfont 10 scalefont setfont
(-2.4159) show
/Math1Mono findfont 10 scalefont setfont
(\264) show
/Courier findfont 10 scalefont setfont
(10) show
0 5.25 rmoveto
/Courier findfont 7.5 scalefont setfont
(6) show
grestore
.22798 .09751 m
.23425 .1051 L
s
gsave
.24545 .05233 -58.882 -10.5 Mabsadd m
1 1 Mabs scale
/Courier findfont 10 scalefont setfont
(-2.4160) show
/Math1Mono findfont 10 scalefont setfont
(\264) show
/Courier findfont 10 scalefont setfont
(10) show
0 5.25 rmoveto
/Courier findfont 7.5 scalefont setfont
(6) show
grestore
.34266 .04999 m
.34873 .05774 L
s
.46052 .00115 m
.46637 .00906 L
s
gsave
.44882 -0.01469 -56.0669 -10.5 Mabsadd m
1 1 Mabs scale
/Courier findfont 10 scalefont setfont
(-2.4156) show
/Math1Mono findfont 10 scalefont setfont
(\264) show
/Courier findfont 10 scalefont setfont
(10) show
0 5.25 rmoveto
/Courier findfont 7.5 scalefont setfont
(6) show
grestore
.125 Mabswid
.13844 .13462 m
.1423 .1391 L
s
.16065 .12542 m
.16448 .12991 L
s
.18297 .11617 m
.18678 .12068 L
s
.20542 .10686 m
.2092 .1114 L
s
.25067 .08811 m
.25441 .09268 L
s
.27348 .07866 m
.2772 .08325 L
s
.29642 .06915 m
.30011 .07377 L
s
.31948 .0596 m
.32314 .06423 L
s
.36598 .04033 m
.36959 .045 L
s
.38942 .03061 m
.393 .0353 L
s
.41299 .02085 m
.41655 .02556 L
s
.43669 .01102 m
.44022 .01575 L
s
.09439 .15288 m
.09828 .15732 L
s
.25 Mabswid
0 .98089 m
.61858 1.49868 L
s
.116 1.07799 m
.12543 1.07515 L
s
gsave
.09716 1.08368 -64.5 -2.36469 Mabsadd m
1 1 Mabs scale
/Courier findfont 10 scalefont setfont
(-3.7738) show
/Math1Mono findfont 10 scalefont setfont
(\264) show
/Courier findfont 10 scalefont setfont
(10) show
0 5.25 rmoveto
/Courier findfont 7.5 scalefont setfont
(6) show
grestore
.27312 1.20951 m
.2826 1.20685 L
s
gsave
.25417 1.21483 -64.5 -2.49718 Mabsadd m
1 1 Mabs scale
/Courier findfont 10 scalefont setfont
(-3.7736) show
/Math1Mono findfont 10 scalefont setfont
(\264) show
/Courier findfont 10 scalefont setfont
(10) show
0 5.25 rmoveto
/Courier findfont 7.5 scalefont setfont
(6) show
grestore
.41453 1.32788 m
.42405 1.32538 L
s
gsave
.39549 1.33287 -64.5 -2.61226 Mabsadd m
1 1 Mabs scale
/Courier findfont 10 scalefont setfont
(-3.7734) show
/Math1Mono findfont 10 scalefont setfont
(\264) show
/Courier findfont 10 scalefont setfont
(10) show
0 5.25 rmoveto
/Courier findfont 7.5 scalefont setfont
(6) show
grestore
.54247 1.43497 m
.55203 1.43262 L
s
gsave
.52335 1.43967 -64.5 -2.71317 Mabsadd m
1 1 Mabs scale
/Courier findfont 10 scalefont setfont
(-3.7732) show
/Math1Mono findfont 10 scalefont setfont
(\264) show
/Courier findfont 10 scalefont setfont
(10) show
0 5.25 rmoveto
/Courier findfont 7.5 scalefont setfont
(6) show
grestore
.125 Mabswid
.1569 1.11223 m
.16256 1.11055 L
s
.19669 1.14553 m
.20236 1.14388 L
s
.23541 1.17795 m
.24109 1.17633 L
s
.30985 1.24026 m
.31555 1.23869 L
s
.34564 1.27021 m
.35134 1.26867 L
s
.38052 1.29941 m
.38623 1.29789 L
s
.4477 1.35564 m
.45342 1.35417 L
s
.48006 1.38273 m
.48578 1.38128 L
s
.51164 1.40916 m
.51737 1.40773 L
s
.07396 1.0428 m
.0796 1.04106 L
s
.03071 1.0066 m
.03634 1.00483 L
s
.57257 1.46017 m
.57831 1.45878 L
s
.60197 1.48478 m
.60772 1.48341 L
s
.25 Mabswid
.08326 .15749 m
0 .98089 L
s
.08326 .15749 m
.09236 .15372 L
s
gsave
.06508 .16502 -52.5 -1.6599 Mabsadd m
1 1 Mabs scale
/Courier findfont 10 scalefont setfont
(4.524) show
/Math1Mono findfont 10 scalefont setfont
(\264) show
/Courier findfont 10 scalefont setfont
(10) show
0 5.25 rmoveto
/Courier findfont 7.5 scalefont setfont
(6) show
grestore
.06365 .35141 m
.07282 .34782 L
s
gsave
.04532 .35859 -58.5 -1.80099 Mabsadd m
1 1 Mabs scale
/Courier findfont 10 scalefont setfont
(4.5242) show
/Math1Mono findfont 10 scalefont setfont
(\264) show
/Courier findfont 10 scalefont setfont
(10) show
0 5.25 rmoveto
/Courier findfont 7.5 scalefont setfont
(6) show
grestore
.0423 .56254 m
.05154 .55915 L
s
gsave
.02382 .56933 -58.5 -1.95535 Mabsadd m
1 1 Mabs scale
/Courier findfont 10 scalefont setfont
(4.5244) show
/Math1Mono findfont 10 scalefont setfont
(\264) show
/Courier findfont 10 scalefont setfont
(10) show
0 5.25 rmoveto
/Courier findfont 7.5 scalefont setfont
(6) show
grestore
.01897 .79328 m
.02829 .79011 L
s
gsave
.00033 .79961 -58.5 -2.12497 Mabsadd m
1 1 Mabs scale
/Courier findfont 10 scalefont setfont
(4.5246) show
/Math1Mono findfont 10 scalefont setfont
(\264) show
/Courier findfont 10 scalefont setfont
(10) show
0 5.25 rmoveto
/Courier findfont 7.5 scalefont setfont
(6) show
grestore
.125 Mabswid
.07851 .20447 m
.08398 .20224 L
s
.07366 .25243 m
.07914 .25022 L
s
.06871 .3014 m
.0742 .29922 L
s
.05849 .40249 m
.064 .40037 L
s
.05321 .45469 m
.05873 .45259 L
s
.04782 .50802 m
.05335 .50596 L
s
.03667 .61829 m
.04222 .61628 L
s
.0309 .67529 m
.03647 .67332 L
s
.02501 .73361 m
.03058 .73167 L
s
.0128 .85435 m
.0184 .85248 L
s
.00647 .91687 m
.01209 .91504 L
s
.25 Mabswid
.08326 .15749 m
0 .98089 L
s
0 .98089 m
.61858 1.49868 L
s
.61858 1.49868 m
.60928 .75346 L
s
.60928 .75346 m
.08326 .15749 L
s
.46329 0 m
.94041 .64695 L
s
.94041 .64695 m
1 1.40846 L
s
1 1.40846 m
.44776 .83858 L
s
.44776 .83858 m
.46329 0 L
s
.08326 .15749 m
0 .98089 L
s
0 .98089 m
.44776 .83858 L
s
.44776 .83858 m
.46329 0 L
s
.46329 0 m
.08326 .15749 L
s
.60928 .75346 m
.94041 .64695 L
s
.94041 .64695 m
1 1.40846 L
s
1 1.40846 m
.61858 1.49868 L
s
.61858 1.49868 m
.60928 .75346 L
s
0 0 m
1 0 L
1 1.49868 L
0 1.49868 L
closepath
clip
newpath
.01 w
.6934 .49998 Mdot
.69237 .49999 Mdot
.69178 .49943 Mdot
.69149 .49859 Mdot
.69106 .49879 Mdot
.6908 .49989 Mdot
.69113 .50118 Mdot
.69097 .50336 Mdot
.69069 .50567 Mdot
.6901 .50701 Mdot
.69011 .50941 Mdot
.68985 .51013 Mdot
.68139 .51555 Mdot
.67295 .50386 Mdot
.67349 .50465 Mdot
.68005 .51507 Mdot
.68978 .51178 Mdot
.67282 .50284 Mdot
.67914 .51334 Mdot
.67468 .50561 Mdot
.67546 .50671 Mdot
.67829 .51149 Mdot
.67624 .5079 Mdot
.67738 .50937 Mdot
.67292 .50203 Mdot
.68056 .51668 Mdot
.6729 .50048 Mdot
.67282 .49915 Mdot
.67263 .49795 Mdot
.67226 .49739 Mdot
.67978 .5177 Mdot
.67232 .49699 Mdot
.68946 .51414 Mdot
.67326 .49706 Mdot
.67898 .51784 Mdot
.67565 .49966 Mdot
.67408 .49717 Mdot
.67619 .50055 Mdot
.67456 .49779 Mdot
.67869 .51766 Mdot
.67868 .51717 Mdot
.67661 .50099 Mdot
.68966 .51441 Mdot
.67709 .50161 Mdot
.67774 .50169 Mdot
.67739 .51668 Mdot
.67863 .50207 Mdot
.68973 .51461 Mdot
.67911 .50249 Mdot
.68206 .50714 Mdot
.68013 .5039 Mdot
.67977 .50334 Mdot
.6826 .50803 Mdot
.68139 .50571 Mdot
.68085 .50502 Mdot
.68308 .50836 Mdot
.68415 .50936 Mdot
.68463 .50998 Mdot
.68909 .51379 Mdot
.68535 .511 Mdot
.68779 .51318 Mdot
.68625 .51187 Mdot
.67561 .5171 Mdot
.67454 .51784 Mdot
.67364 .51938 Mdot
.67207 .52206 Mdot
.66595 .52786 Mdot
.6631 .53112 Mdot
.65995 .53478 Mdot
.65581 .5386 Mdot
.64609 .54791 Mdot
.6399 .55298 Mdot
.63324 .55902 Mdot
.62638 .56523 Mdot
.62038 .57034 Mdot
.61488 .57461 Mdot
.60976 .57877 Mdot
.60488 .58338 Mdot
.59649 .59035 Mdot
.58675 .59815 Mdot
.57619 .60682 Mdot
.56506 .61652 Mdot
.55183 .62828 Mdot
.53674 .64198 Mdot
.52054 .6577 Mdot
.50285 .67551 Mdot
.48348 .695 Mdot
.46365 .71419 Mdot
.44308 .73533 Mdot
.42081 .75955 Mdot
.39793 .78667 Mdot
.37434 .81722 Mdot
.35155 .85174 Mdot
.33359 .89244 Mdot
.32452 .94498 Mdot
.33513 1.02399 Mdot
.31829 1.02432 Mdot
.30363 1.01899 Mdot
.29166 1.00609 Mdot
.2852 .98511 Mdot
.2853 .95414 Mdot
.2639 .89635 Mdot
.2641 .89651 Mdot
.2643 .89667 Mdot
.26644 .90018 Mdot
.2674 .90164 Mdot
.26484 .89738 Mdot
.26558 .89837 Mdot
.26445 .8962 Mdot
.26455 .89597 Mdot
.26895 .90295 Mdot
.2649 .89566 Mdot
.267 .89682 Mdot
.26806 .89805 Mdot
.27217 .90437 Mdot
.2689 .89869 Mdot
.27352 .90553 Mdot
.26963 .89894 Mdot
.27525 .90669 Mdot
.27193 .90038 Mdot
.27706 .90792 Mdot
.2783 .909 Mdot
.27876 .90964 Mdot
.27358 .90091 Mdot
.27961 .91028 Mdot
.2805 .9108 Mdot
.2806 .91057 Mdot
.27962 .90429 Mdot
.28218 .90492 Mdot
.28495 .90508 Mdot
.28985 .90468 Mdot
.29246 .90414 Mdot
.29583 .90285 Mdot
.31109 .90384 Mdot
.31942 .90045 Mdot
.31758 .88717 Mdot
.31652 .87964 Mdot
.31507 .87154 Mdot
.3142 .86294 Mdot
.2454 .74251 Mdot
.31318 .85196 Mdot
.31253 .83776 Mdot
.25025 .73511 Mdot
.26625 .75026 Mdot
.28783 .77925 Mdot
.28232 .77029 Mdot
.28698 .77784 Mdot
.28844 .77985 Mdot
.31273 .81942 Mdot
.28205 .76903 Mdot
.28676 .77645 Mdot
.28887 .77985 Mdot
.28251 .76922 Mdot
.28933 .78004 Mdot
.28204 .76768 Mdot
.2869 .77551 Mdot
.28958 .7802 Mdot
.28151 .7665 Mdot
.28249 .768 Mdot
.28976 .78004 Mdot
.28992 .77942 Mdot
.28673 .77401 Mdot
.28368 .76887 Mdot
.29071 .77998 Mdot
.29099 .78034 Mdot
.27459 .7536 Mdot
.29119 .7805 Mdot
.29006 .7786 Mdot
.29147 .78087 Mdot
.28122 .76414 Mdot
.29195 .78151 Mdot
.28523 .77032 Mdot
.2862 .77193 Mdot
.29228 .78175 Mdot
.29114 .77985 Mdot
.29248 .78191 Mdot
.29012 .77758 Mdot
.2918 .78033 Mdot
.29276 .7815 Mdot
.2904 .77717 Mdot
.28919 .77507 Mdot
.28982 .77612 Mdot
.28869 .77422 Mdot
.28839 .77341 Mdot
.29262 .7802 Mdot
.28855 .77291 Mdot
.29044 .77582 Mdot
.29376 .78132 Mdot
.29135 .77711 Mdot
.29311 .77994 Mdot
.28275 .76268 Mdot
.29238 .77861 Mdot
.29286 .77913 Mdot
.29036 .77484 Mdot
.28908 .77254 Mdot
.28947 .77253 Mdot
.29504 .78151 Mdot
.28972 .77269 Mdot
.29055 .7739 Mdot
.30296 .79347 Mdot
.2903 .77297 Mdot
.30253 .79282 Mdot
.28391 .762 Mdot
.28439 .76252 Mdot
.30477 .7963 Mdot
.29074 .77284 Mdot
.28826 .769 Mdot
.30559 .79706 Mdot
.30459 .79512 Mdot
.29588 .78104 Mdot
.2912 .77303 Mdot
.29113 .77283 Mdot
.30648 .79803 Mdot
.30434 .79418 Mdot
.28535 .76304 Mdot
.30416 .79358 Mdot
.30435 .79341 Mdot
.30765 .79859 Mdot
.29171 .77233 Mdot
.29207 .77289 Mdot
.30339 .79147 Mdot
.30607 .79559 Mdot
.29189 .77229 Mdot
.30625 .79543 Mdot
.29633 .77924 Mdot
.30448 .79272 Mdot
.30698 .79623 Mdot
.30696 .79578 Mdot
.3088 .79882 Mdot
.30779 .797 Mdot
.30828 .79752 Mdot
.30487 .79194 Mdot
.30514 .79108 Mdot
.30887 .7969 Mdot
.30993 .79873 Mdot
.30799 .79516 Mdot
.30626 .79176 Mdot
.30709 .79297 Mdot
.30659 .792 Mdot
.30651 .79179 Mdot
.30644 .79159 Mdot
.30642 .79127 Mdot
.30677 .79183 Mdot
.3067 .79163 Mdot
.31066 .79807 Mdot
.29698 .77559 Mdot
.31125 .79757 Mdot
.29755 .77477 Mdot
.31171 .79655 Mdot
.2982 .77402 Mdot
.30816 .78965 Mdot
.31174 .79532 Mdot
.30967 .7918 Mdot
.30695 .78677 Mdot
.30468 .78308 Mdot
.31147 .79406 Mdot
.31104 .79329 Mdot
.31246 .79556 Mdot
.2994 .774 Mdot
.31158 .79369 Mdot
.31264 .79539 Mdot
.29959 .77383 Mdot
.31148 .79316 Mdot
.31219 .7943 Mdot
.29984 .77387 Mdot
.29984 .77387 Mdot
.29984 .77387 Mdot
.29984 .77387 Mdot
.29984 .77387 Mdot
.29984 .77387 Mdot
.29984 .77387 Mdot
.29984 .77387 Mdot
.29984 .77387 Mdot
.29984 .77387 Mdot
.29984 .77387 Mdot
.29984 .77387 Mdot
.29984 .77387 Mdot
.29984 .77387 Mdot
.29984 .77387 Mdot
.31168 .79345 Mdot
.31088 .79178 Mdot
.31088 .79178 Mdot
.31088 .79178 Mdot
.31081 .79158 Mdot
.31073 .79138 Mdot
.30626 .78396 Mdot
.30646 .78424 Mdot
.31298 .79486 Mdot
.31155 .79214 Mdot
.30942 .78886 Mdot
.30346 .77897 Mdot
.31162 .79247 Mdot
.30813 .78655 Mdot
.31089 .79088 Mdot
.31365 .79522 Mdot
.31198 .79214 Mdot
.30545 .78106 Mdot
.30458 .77965 Mdot
.31351 .79404 Mdot
.30644 .78179 Mdot
.31268 .79205 Mdot
.30643 .78191 Mdot
.30997 .78759 Mdot
.31174 .79042 Mdot
.31018 .78775 Mdot
.31018 .78775 Mdot
.31018 .78775 Mdot
.31018 .78775 Mdot
.31018 .78775 Mdot
.31018 .78775 Mdot
.31018 .78775 Mdot
.31018 .78775 Mdot
.30258 .77497 Mdot
.31031 .7877 Mdot
.31137 .78941 Mdot
.31129 .78933 Mdot
.31384 .7935 Mdot
.31519 .79557 Mdot
.31297 .79151 Mdot
.31173 .7892 Mdot
.30405 .77634 Mdot
.3039 .77593 Mdot
.31348 .79171 Mdot
.30666 .78027 Mdot
.3107 .78705 Mdot
.31253 .78964 Mdot
.31359 .79134 Mdot
.3167 .79625 Mdot
.31288 .79033 Mdot
.31398 .79133 Mdot
.31284 .78955 Mdot
.31354 .79069 Mdot
.31312 .78992 Mdot
.3043 .77515 Mdot
.31231 .78825 Mdot
.3118 .7874 Mdot
.30973 .78374 Mdot
.31164 .78654 Mdot
.31269 .78837 Mdot
.31227 .7876 Mdot
.31227 .7876 Mdot
.31212 .78719 Mdot
.31212 .78719 Mdot
.30741 .77928 Mdot
.31373 .78974 Mdot
.31068 .78459 Mdot
.30911 .78191 Mdot
.31457 .79084 Mdot
.304 .77368 Mdot
.31478 .791 Mdot
.30676 .77802 Mdot
.30782 .77972 Mdot
.30461 .77428 Mdot
.31865 .79692 Mdot
.3058 .77594 Mdot
.31503 .79116 Mdot
.30891 .78097 Mdot
.30425 .77236 Mdot
.30425 .77236 Mdot
.30425 .77236 Mdot
.30425 .77236 Mdot
.30425 .77236 Mdot
.30425 .77236 Mdot
.30425 .77236 Mdot
.30425 .77236 Mdot
.30425 .77236 Mdot
.30425 .77236 Mdot
.30425 .77236 Mdot
.30425 .77236 Mdot
.30425 .77236 Mdot
.30425 .77236 Mdot
.30417 .77228 Mdot
.30409 .77208 Mdot
.30885 .77987 Mdot
.31614 .79151 Mdot
.31961 .79699 Mdot
.30675 .77601 Mdot
.31911 .79524 Mdot
.32023 .79682 Mdot
.32006 .79596 Mdot
.30655 .77372 Mdot
.30731 .77473 Mdot
.30911 .777 Mdot
.30719 .77375 Mdot
.30717 .77342 Mdot
.30661 .77191 Mdot
.30756 .77263 Mdot
.30681 .77084 Mdot
.3105 .77693 Mdot
.30858 .77368 Mdot
.3132 .78017 Mdot
.30854 .77225 Mdot
.31005 .77382 Mdot
.25 Mabswid
.46329 0 m
.94041 .64695 L
s
.94041 .64695 m
1 1.40846 L
s
1 1.40846 m
.44776 .83858 L
s
.44776 .83858 m
.46329 0 L
s
.08326 .15749 m
0 .98089 L
s
0 .98089 m
.44776 .83858 L
s
.44776 .83858 m
.46329 0 L
s
.46329 0 m
.08326 .15749 L
s
.08326 .15749 m
.46329 0 L
s
.11636 .14377 m
.12281 .1512 L
s
.22798 .09751 m
.23425 .1051 L
s
.34266 .04999 m
.34873 .05774 L
s
.46052 .00115 m
.46637 .00906 L
s
gsave
.44882 -0.01469 -56.0669 -10.5 Mabsadd m
1 1 Mabs scale
/Courier findfont 10 scalefont setfont
(-2.4156) show
/Math1Mono findfont 10 scalefont setfont
(\264) show
/Courier findfont 10 scalefont setfont
(10) show
0 5.25 rmoveto
/Courier findfont 7.5 scalefont setfont
(6) show
grestore
.125 Mabswid
.13844 .13462 m
.1423 .1391 L
s
.16065 .12542 m
.16448 .12991 L
s
.18297 .11617 m
.18678 .12068 L
s
.20542 .10686 m
.2092 .1114 L
s
.25067 .08811 m
.25441 .09268 L
s
.27348 .07866 m
.2772 .08325 L
s
.29642 .06915 m
.30011 .07377 L
s
.31948 .0596 m
.32314 .06423 L
s
.36598 .04033 m
.36959 .045 L
s
.38942 .03061 m
.393 .0353 L
s
.41299 .02085 m
.41655 .02556 L
s
.43669 .01102 m
.44022 .01575 L
s
.09439 .15288 m
.09828 .15732 L
s
.25 Mabswid
0 .98089 m
.61858 1.49868 L
s
.116 1.07799 m
.12543 1.07515 L
s
gsave
.09716 1.08368 -64.5 -2.36469 Mabsadd m
1 1 Mabs scale
/Courier findfont 10 scalefont setfont
(-3.7738) show
/Math1Mono findfont 10 scalefont setfont
(\264) show
/Courier findfont 10 scalefont setfont
(10) show
0 5.25 rmoveto
/Courier findfont 7.5 scalefont setfont
(6) show
grestore
.27312 1.20951 m
.2826 1.20685 L
s
gsave
.25417 1.21483 -64.5 -2.49718 Mabsadd m
1 1 Mabs scale
/Courier findfont 10 scalefont setfont
(-3.7736) show
/Math1Mono findfont 10 scalefont setfont
(\264) show
/Courier findfont 10 scalefont setfont
(10) show
0 5.25 rmoveto
/Courier findfont 7.5 scalefont setfont
(6) show
grestore
.41453 1.32788 m
.42405 1.32538 L
s
gsave
.39549 1.33287 -64.5 -2.61226 Mabsadd m
1 1 Mabs scale
/Courier findfont 10 scalefont setfont
(-3.7734) show
/Math1Mono findfont 10 scalefont setfont
(\264) show
/Courier findfont 10 scalefont setfont
(10) show
0 5.25 rmoveto
/Courier findfont 7.5 scalefont setfont
(6) show
grestore
.54247 1.43497 m
.55203 1.43262 L
s
gsave
.52335 1.43967 -64.5 -2.71317 Mabsadd m
1 1 Mabs scale
/Courier findfont 10 scalefont setfont
(-3.7732) show
/Math1Mono findfont 10 scalefont setfont
(\264) show
/Courier findfont 10 scalefont setfont
(10) show
0 5.25 rmoveto
/Courier findfont 7.5 scalefont setfont
(6) show
grestore
.125 Mabswid
.1569 1.11223 m
.16256 1.11055 L
s
.19669 1.14553 m
.20236 1.14388 L
s
.23541 1.17795 m
.24109 1.17633 L
s
.30985 1.24026 m
.31555 1.23869 L
s
.34564 1.27021 m
.35134 1.26867 L
s
.38052 1.29941 m
.38623 1.29789 L
s
.4477 1.35564 m
.45342 1.35417 L
s
.48006 1.38273 m
.48578 1.38128 L
s
.51164 1.40916 m
.51737 1.40773 L
s
.07396 1.0428 m
.0796 1.04106 L
s
.03071 1.0066 m
.03634 1.00483 L
s
.57257 1.46017 m
.57831 1.45878 L
s
.60197 1.48478 m
.60772 1.48341 L
s
% End of Graphics
MathPictureEnd

%%PSTrailer
end
grestore


%%EPS Trailer

%%Trailer
%%EOF
