%!PS-Adobe-2.0 EPSF-1.2
%%BoundingBox: 120 40 410 230
%%HiResBoundingBox: 153 8 154 9
%%Creator: (Mathematica 4.0 for X)
%%CreationDate: (Wednesday, May 4, 2005) (13:55:06)
%%Title: Clipboard
%%DocumentNeededResources: font Courier
%%DocumentSuppliedResources:
%%DocumentNeededFonts: Courier
%%DocumentSuppliedFonts:
%%DocumentFonts: Courier
%%EndComments
/MISOfy
{
    /newfontname exch def
    /oldfontname exch def

    oldfontname findfont
    dup length dict begin
        {1 index /FID ne {def} {pop pop} ifelse} forall
        /Encoding ISOLatin1Encoding def
        currentdict
    end

    newfontname exch definefont pop
} def

0 17 translate 1 -1 scale
0.000 0.000 0.000 setrgbcolor
gsave
150 dict begin
/Mfixwid true def
/Mrot 0 def
/Mpstart {
    MathPictureStart
} bind def
/Mpend {
    MathPictureEnd
} bind def
/Mscale {
    0 1 0 1
    5 -1 roll
    MathScale
} bind def
/Plain	/Courier findfont def
/Bold	/Courier-Bold findfont def
/Italic /Courier-Oblique findfont def
/MathPictureStart {
	/Mimatrix
	 matrix currentmatrix
	def
	gsave
	newpath
	Mleft
	Mbottom
	translate
	/Mtmatrix
	matrix currentmatrix
	def
	Plain
	Mfontsize scalefont
	setfont
	0 setgray
	0 setlinewidth
} bind def
/MathPictureEnd {
	grestore
} bind def
/MathSubStart {
 	     Momatrix
        Mgmatrix Mtmatrix
        Mleft Mbottom
        Mwidth Mheight
        9 -2 roll
        moveto
        Mtmatrix setmatrix
        currentpoint
        Mgmatrix setmatrix
        11 -2 roll
        moveto
        Mtmatrix setmatrix
        currentpoint
        2 copy translate
        /Mtmatrix matrix currentmatrix def
        /Mleft 0 def
        /Mbottom 0 def
        3 -1 roll
        exch sub
        /Mheight exch def
        sub
        /Mwidth exch def
} bind def
/MathSubEnd {
        /Mheight exch def
        /Mwidth exch def
        /Mbottom exch def
        /Mleft exch def
        /Mtmatrix exch def
        dup setmatrix
        /Mgmatrix exch def
	      /Momatrix exch def
} bind def
/Mdot {
	moveto
	0 0 rlineto
	stroke
} bind def
/Mtetra {
	moveto
	lineto
	lineto
	lineto
	fill
} bind def
/Metetra {
	moveto
	lineto
	lineto
	lineto
	closepath
	gsave
	fill
	grestore
	0 setgray
	stroke
} bind def
/Mistroke {
	flattenpath
	0 0 0
	{
	4 2 roll
	pop pop
	}
	{
	4 -1 roll
	2 index
	sub dup mul
	4 -1 roll
	2 index
	sub dup mul
	add sqrt
	4 -1 roll
	add
	3 1 roll
	}
	{
	stop
	}
	{
	stop
	}
	pathforall
	pop pop
	currentpoint
	stroke
	moveto
	currentdash
	3 -1 roll
	add
	setdash
} bind def
/Mfstroke {
	stroke
	currentdash
	pop 0
	setdash
} bind def
/Mrotsboxa {
	gsave
	dup
	/Mrot
	exch def
	Mrotcheck
	Mtmatrix
	dup
	setmatrix
	7 1 roll
	4 index
	4 index
	translate
	rotate
	3 index
	-1 mul
	3 index
	-1 mul
	translate
	/Mtmatrix
	matrix
	currentmatrix
	def
	grestore
	Msboxa
	3  -1 roll
	/Mtmatrix
	exch def
	/Mrot
	0 def
} bind def
/Msboxa {
	newpath
	5 -1 roll
	Mvboxa
	pop
	Mboxout
	6 -1 roll
	5 -1 roll
	4 -1 roll
	Msboxa1
	5 -3 roll
	Msboxa1
	Mboxrot
	[
	7 -2 roll
	2 copy
	[
	3 1 roll
	10 -1 roll
	9 -1 roll
	]
	6 1 roll
	5 -2 roll
	]
} bind def
/Msboxa1 {
	sub
	2 div
	dup
	2 index
	1 add
	mul
	3 -1 roll
	-1 add
	3 -1 roll
	mul
} bind def
/Mvboxa	{
	Mfixwid
	{
	Mvboxa1
	}
	{
	dup
	Mwidthcal
	0 exch
	{
	add
	}
	forall
	exch
	Mvboxa1
	4 index
	7 -1 roll
	add
	4 -1 roll
	pop
	3 1 roll
	}
	ifelse
} bind def
/Mvboxa1 {
	gsave
	newpath
	[ true
	3 -1 roll
	{
	Mbbox
	5 -1 roll
	{
	0
	5 1 roll
	}
	{
	7 -1 roll
	exch sub
	(m) stringwidth pop
	.3 mul
	sub
	7 1 roll
	6 -1 roll
	4 -1 roll
	Mmin
	3 -1 roll
	5 index
	add
	5 -1 roll
	4 -1 roll
	Mmax
	4 -1 roll
	}
	ifelse
	false
	}
	forall
	{ stop } if
	counttomark
	1 add
	4 roll
	]
	grestore
} bind def
/Mbbox {
	0 0 moveto
	false charpath
	flattenpath
	pathbbox
	newpath
} bind def
/Mmin {
	2 copy
	gt
	{ exch } if
	pop
} bind def
/Mmax {
	2 copy
	lt
	{ exch } if
	pop
} bind def
/Mrotshowa {
	dup
	/Mrot
	exch def
	Mrotcheck
	Mtmatrix
	dup
	setmatrix
	7 1 roll
	4 index
	4 index
	translate
	rotate
	3 index
	-1 mul
	3 index
	-1 mul
	translate
	/Mtmatrix
	matrix
	currentmatrix
	def
	Mgmatrix setmatrix
	Mshowa
	/Mtmatrix
	exch def
	/Mrot 0 def
} bind def
/Mshowa {
	4 -2 roll
	moveto
	2 index
	Mtmatrix setmatrix
	Mvboxa
	7 1 roll
	Mboxout
	6 -1 roll
	5 -1 roll
	4 -1 roll
	Mshowa1
	4 1 roll
	Mshowa1
	rmoveto
	currentpoint
	Mfixwid
	{
	Mshowax
	}
	{
	Mshoway
	}
	ifelse
	pop pop pop pop
	Mgmatrix setmatrix
} bind def
/Mshowax {
	0 1
        4 index length
        -1 add
        {
        2 index
        4 index
        2 index
        get
        3 index
        add
        moveto
        4 index
        exch get
        show
        } for
} bind def
/Mshoway {
        3 index
        Mwidthcal
        5 1 roll
	0 1
	4 index length
	-1 add
	{
	2 index
	4 index
	2 index
	get
	3 index
	add
	moveto
	4 index
	exch get
	[
	6 index
	aload
	length
	2 add
	-1 roll
	{
	pop
	Strform
	stringwidth
	pop
	neg
	exch
	add
	0 rmoveto
	}
	exch
	kshow
	cleartomark
	} for
	pop
} bind def
/Mwidthcal {
	[
	exch
	{
	Mwidthcal1
	}
	forall
	]
	[
	exch
	dup
	Maxlen
	-1 add
	0 1
	3 -1 roll
	{
	[
	exch
	2 index
	{
	1 index
	Mget
	exch
	}
	forall
	pop
	Maxget
	exch
	}
	for
	pop
	]
	Mreva
} bind def
/Mreva	{
	[
	exch
	aload
	length
	-1 1
	{1 roll}
	for
	]
} bind def
/Mget	{
	1 index
	length
	-1 add
	1 index
	ge
	{
	get
	}
	{
	pop pop
	0
	}
	ifelse
} bind def
/Maxlen	{
	[
	exch
	{
	length
	}
	forall
	Maxget
} bind def
/Maxget	{
	counttomark
	-1 add
	1 1
	3 -1 roll
	{
	pop
	Mmax
	}
	for
	exch
	pop
} bind def
/Mwidthcal1 {
	[
	exch
	{
	Strform
	stringwidth
	pop
	}
	forall
	]
} bind def
/Strform {
	/tem (x) def
	tem 0
	3 -1 roll
	put
	tem
} bind def
/Mshowa1 {
	2 copy
	add
	4 1 roll
	sub
	mul
	sub
	-2 div
} bind def
/MathScale {
	Mwidth
	Mheight
	Mlp
	translate
	scale
	/yscale exch def
	/ybias exch def
	/xscale exch def
	/xbias exch def
	/Momatrix
	xscale yscale matrix scale
	xbias ybias matrix translate
	matrix concatmatrix def
	/Mgmatrix
	matrix currentmatrix
	def
} bind def
/Mlp {
	3 copy
	Mlpfirst
	{
	Mnodistort
	{
	Mmin
	dup
	} if
	4 index
	2 index
	2 index
	Mlprun
	11 index
	11 -1 roll
	10 -4 roll
	Mlp1
	8 index
	9 -5 roll
	Mlp1
	4 -1 roll
	and
	{ exit } if
	3 -1 roll
	pop pop
	} loop
	exch
	3 1 roll
	7 -3 roll
	pop pop pop
} bind def
/Mlpfirst {
	3 -1 roll
	dup length
	2 copy
	-2 add
	get
	aload
	pop pop pop
	4 -2 roll
	-1 add
	get
	aload
	pop pop pop
	6 -1 roll
	3 -1 roll
	5 -1 roll
	sub
	dup /MsaveAx exch def
	div
	4 1 roll
	exch sub
	dup /MsaveAy exch def
	div
} bind def
/Mlprun {
	2 copy
	4 index
	0 get
	dup
	4 1 roll
	Mlprun1
	3 copy
	8 -2 roll
	9 -1 roll
	{
	3 copy
	Mlprun1
	3 copy
	11 -3 roll
	/gt Mlpminmax
	8 3 roll
	11 -3 roll
	/lt Mlpminmax
	8 3 roll
	} forall
	pop pop pop pop
	3 1 roll
	pop pop
	aload pop
	5 -1 roll
	aload pop
	exch
	6 -1 roll
	Mlprun2
	8 2 roll
	4 -1 roll
	Mlprun2
	6 2 roll
	3 -1 roll
	Mlprun2
	4 2 roll
	exch
	Mlprun2
	6 2 roll
} bind def
/Mlprun1 {
	aload pop
	exch
	6 -1 roll
	5 -1 roll
	mul add
	4 -2 roll
	mul
	3 -1 roll
	add
} bind def
/Mlprun2 {
	2 copy
	add 2 div
	3 1 roll
	exch sub
} bind def
/Mlpminmax {
	cvx
	2 index
	6 index
	2 index
	exec
	{
	7 -3 roll
	4 -1 roll
	} if
	1 index
	5 index
	3 -1 roll
	exec
	{
	4 1 roll
	pop
	5 -1 roll
	aload
	pop pop
	4 -1 roll
	aload pop
	[
	8 -2 roll
	pop
	5 -2 roll
	pop
	6 -2 roll
	pop
	5 -1 roll
	]
	4 1 roll
	pop
	}
	{
	pop pop pop
	} ifelse
} bind def
/Mlp1 {
	5 index
	3 index	sub
	5 index
	2 index mul
	1 index
	le
	1 index
	0 le
	or
	dup
	not
	{
	1 index
	3 index	div
	.99999 mul
	8 -1 roll
	pop
	7 1 roll
	}
	if
	8 -1 roll
	2 div
	7 -2 roll
	pop sub
	5 index
	6 -3 roll
	pop pop
	mul sub
	exch
} bind def
/intop 0 def
/inrht 0 def
/inflag 0 def
/outflag 0 def
/xadrht 0 def
/xadlft 0 def
/yadtop 0 def
/yadbot 0 def
/Minner {
	outflag
	1
	eq
	{
	/outflag 0 def
	/intop 0 def
	/inrht 0 def
	} if
	5 index
	gsave
	Mtmatrix setmatrix
	Mvboxa pop
	grestore
	3 -1 roll
	pop
	dup
	intop
	gt
	{
	/intop
	exch def
	}
	{ pop }
	ifelse
	dup
	inrht
	gt
	{
	/inrht
	exch def
	}
	{ pop }
	ifelse
	pop
	/inflag
	1 def
} bind def
/Mouter {
	/xadrht 0 def
	/xadlft 0 def
	/yadtop 0 def
	/yadbot 0 def
	inflag
	1 eq
	{
	dup
	0 lt
	{
	dup
	intop
	mul
	neg
	/yadtop
	exch def
	} if
	dup
	0 gt
	{
	dup
	intop
	mul
	/yadbot
	exch def
	}
	if
	pop
	dup
	0 lt
	{
	dup
	inrht
	mul
	neg
	/xadrht
	exch def
	} if
	dup
	0 gt
	{
	dup
	inrht
	mul
	/xadlft
	exch def
	} if
	pop
	/outflag 1 def
	}
	{ pop pop}
	ifelse
	/inflag 0 def
	/inrht 0 def
	/intop 0 def
} bind def
/Mboxout {
	outflag
	1
	eq
	{
	4 -1
	roll
	xadlft
	leadjust
	add
	sub
	4 1 roll
	3 -1
	roll
	yadbot
	leadjust
	add
	sub
	3 1
	roll
	exch
	xadrht
	leadjust
	add
	add
	exch
	yadtop
	leadjust
	add
	add
	/outflag 0 def
	/xadlft 0 def
	/yadbot 0 def
	/xadrht 0 def
	/yadtop 0 def
	} if
} bind def
/leadjust {
	(m) stringwidth pop
	.5 mul
} bind def
/Mrotcheck {
	dup
	90
	eq
	{
	yadbot
	/yadbot
	xadrht
	def
	/xadrht
	yadtop
	def
	/yadtop
	xadlft
	def
	/xadlft
	exch
	def
	}
	if
	dup
	cos
	1 index
	sin
	Checkaux
	dup
	cos
	1 index
	sin neg
	exch
	Checkaux
	3 1 roll
	pop pop
} bind def
/Checkaux {
	4 index
	exch
	4 index
	mul
	3 1 roll
	mul add
	4 1 roll
} bind def
/Mboxrot {
	Mrot
	90 eq
	{
	brotaux
	4 2
	roll
	}
	if
	Mrot
	180 eq
	{
	4 2
        roll
	brotaux
	4 2
	roll
	brotaux
	}
	if
	Mrot
	270 eq
	{
	4 2
	roll
	brotaux
	}
	if
} bind def
/brotaux {
	neg
	exch
	neg
} bind def
/Mabsproc {
        0
        matrix defaultmatrix
        dtransform idtransform
        dup mul exch
        dup mul
        add sqrt
} bind def
/Mabswid {
        Mabsproc
        setlinewidth
} bind def
/Mabsdash {
        exch
        [
        exch
        {
        Mabsproc
        }
        forall
        ]
        exch
        setdash
} bind def
/MBeginOrig { Momatrix concat} bind def
/MEndOrig { Mgmatrix setmatrix} bind def
/sampledsound where
{ pop}
{ /sampledsound {
exch
pop
exch
5 1 roll
mul
4 idiv
mul
2 idiv
exch pop
exch
/Mtempproc exch def
{ Mtempproc pop }
repeat
} bind def
} ifelse
% Here are the short operators
/g { setgray} bind def
/k { setcmykcolor} bind def
/m { moveto} bind def
/p { gsave} bind def
/r { setrgbcolor} bind def
/w { setlinewidth} bind def
/C { curveto} bind def
/F { fill} bind def
/L { lineto} bind def
/P { grestore} bind def
/s { stroke} bind def

/MFill {
	0 0 		moveto
	Mwidth 0 	lineto
	Mwidth Mheight 	lineto
	0 Mheight 	lineto
	fill
} bind def

/MPlotRegion {
	3 index
	Mwidth mul
	2 index
	Mheight mul
	translate
	exch sub
	Mheight mul
	/Mheight
	exch def
	exch sub
	Mwidth mul
	/Mwidth
	exch def
} bind def

/Mcharproc
{
  	currentfile
  	(x)
  	readhexstring
  	pop
  	0 get
  	exch
 	div
} bind def

/Mshadeproc
{
	dup
	3 1
	roll
	{
	dup
	Mcharproc
	3 1
	roll
	} repeat
	1 eq
	{
	setgray
	}
	{
	3 eq
	{
	setrgbcolor
	}
	{
	setcmykcolor
	} ifelse
	} ifelse
} bind def

/Mrectproc
{
	3 index
	2 index
	moveto
	2 index
	3 -1
	roll
	lineto
	dup
	3 1
	roll
	lineto
	lineto
	fill
} bind def

/_Mcolorimage
{
	7 1
	roll
	pop
	pop
	matrix
	invertmatrix
	concat
	2 exch exp
	1 sub
	3 1 roll
	1 1
	2 index
	{
	1 1
	4 index
	{
	dup
	1 sub
	exch
	2 index
	dup
	1 sub
	exch
	7 index
	9 index
	Mshadeproc
	Mrectproc
	} for
	pop
	} for
	pop pop pop pop
} bind def

/_Mimage
{
	pop
	matrix
	invertmatrix
	concat
	2 exch exp
	1 sub
	3 1 roll
	1 1
	2 index
	{
	1 1
	4 index
	{
	dup
	1 sub 
	exch
	2 index
	dup
	1 sub
	exch
	7 index
	Mcharproc
	setgray
	Mrectproc
	} for
	pop
	} for
	pop pop pop
} bind def

/Mimage {
	4 index
	4 index
	mul 1600 gt
	{ image }
	{ _Mimage }
	ifelse
} def

/Mcolorimage {
	6 index
	6 index
	mul 1600 gt
	{ colorimage }
	{ _Mcolorimage }
	ifelse
} def
/Mnodistort true def
1.000000 1.000000 scale
153.000000 9.000000 translate
1.000000 -1.000000 scale
-0.000000 -0.000000 translate
/Mleft		0.000000 def
/Mbottom	0.000000 def
/Mwidth		250.0000 def
/Mheight	250.0000 def
0 setgray
0 setlinewidth
/Courier findfont 12 scalefont setfont
/Mfontsize 12 def
/Plain /Courier findfont def

%!
%%Creator: Mathematica
%%AspectRatio: .61803 
MathPictureStart
/Mabs {
Mgmatrix idtransform
Mtmatrix dtransform
} bind def
/Mabsadd { Mabs
3 -1 roll add
3 1 roll add
exch } bind def
%% Graphics
%%IncludeResource: font Courier
%%IncludeFont: Courier
/Courier findfont 10  scalefont  setfont
% Scaling calculations
-113.729 0.000476119 0.0147151 0.0172203 [
[.30143 .00222 -18 -9 ]
[.30143 .00222 18 0 ]
[.53949 .00222 -18 -9 ]
[.53949 .00222 18 0 ]
[.77755 .00222 -18 -9 ]
[.77755 .00222 18 0 ]
[.05088 .10082 -6 -4.5 ]
[.05088 .10082 0 4.5 ]
[.05088 .18692 -12 -4.5 ]
[.05088 .18692 0 4.5 ]
[.05088 .27302 -12 -4.5 ]
[.05088 .27302 0 4.5 ]
[.05088 .35912 -12 -4.5 ]
[.05088 .35912 0 4.5 ]
[.05088 .44522 -12 -4.5 ]
[.05088 .44522 0 4.5 ]
[.05088 .53133 -12 -4.5 ]
[.05088 .53133 0 4.5 ]
[.05088 .61743 -12 -4.5 ]
[.05088 .61743 0 4.5 ]
[ 0 0 0 0 ]
[ 1 .61803 0 0 ]
] MathScale
% Start of Graphics
1 setlinecap
1 setlinejoin
newpath
0 g
.25 Mabswid
[ ] 0 setdash
.30143 .01472 m
.30143 .02097 L
s
[(239500)] .30143 .00222 0 1 Mshowa
.53949 .01472 m
.53949 .02097 L
s
[(240000)] .53949 .00222 0 1 Mshowa
.77755 .01472 m
.77755 .02097 L
s
[(240500)] .77755 .00222 0 1 Mshowa
.125 Mabswid
.11099 .01472 m
.11099 .01847 L
s
.1586 .01472 m
.1586 .01847 L
s
.20621 .01472 m
.20621 .01847 L
s
.25382 .01472 m
.25382 .01847 L
s
.34905 .01472 m
.34905 .01847 L
s
.39666 .01472 m
.39666 .01847 L
s
.44427 .01472 m
.44427 .01847 L
s
.49188 .01472 m
.49188 .01847 L
s
.58711 .01472 m
.58711 .01847 L
s
.63472 .01472 m
.63472 .01847 L
s
.68233 .01472 m
.68233 .01847 L
s
.72994 .01472 m
.72994 .01847 L
s
.01576 .01472 m
.01576 .01847 L
s
.82517 .01472 m
.82517 .01847 L
s
.87278 .01472 m
.87278 .01847 L
s
.92039 .01472 m
.92039 .01847 L
s
.968 .01472 m
.968 .01847 L
s
.25 Mabswid
0 .01472 m
1 .01472 L
s
.06338 .10082 m
.06963 .10082 L
s
[(5)] .05088 0.05 sub .10082 1 0 Mshowa
.06338 .18692 m
.06963 .18692 L
s
[(10)] .05088 0.05 sub .18692 1 0 Mshowa
.06338 .27302 m
.06963 .27302 L
s
[(15)] .05088 0.05 sub .27302 1 0 Mshowa
.06338 .35912 m
.06963 .35912 L
s
[(20)] .05088 0.05 sub .35912 1 0 Mshowa
.06338 .44522 m
.06963 .44522 L
s
[(25)] .05088 0.05 sub .44522 1 0 Mshowa
.06338 .53133 m
.06963 .53133 L
s
[(30)] .05088 0.05 sub .53133 1 0 Mshowa
.06338 .61743 m
.06963 .61743 L
s
[(35)] .05088 0.05 sub .61743 1 0 Mshowa
.125 Mabswid
.06338 .03194 m
.06713 .03194 L
s
.06338 .04916 m
.06713 .04916 L
s
.06338 .06638 m
.06713 .06638 L
s
.06338 .0836 m
.06713 .0836 L
s
.06338 .11804 m
.06713 .11804 L
s
.06338 .13526 m
.06713 .13526 L
s
.06338 .15248 m
.06713 .15248 L
s
.06338 .1697 m
.06713 .1697 L
s
.06338 .20414 m
.06713 .20414 L
s
.06338 .22136 m
.06713 .22136 L
s
.06338 .23858 m
.06713 .23858 L
s
.06338 .2558 m
.06713 .2558 L
s
.06338 .29024 m
.06713 .29024 L
s
.06338 .30746 m
.06713 .30746 L
s
.06338 .32468 m
.06713 .32468 L
s
.06338 .3419 m
.06713 .3419 L
s
.06338 .37634 m
.06713 .37634 L
s
.06338 .39356 m
.06713 .39356 L
s
.06338 .41078 m
.06713 .41078 L
s
.06338 .428 m
.06713 .428 L
s
.06338 .46244 m
.06713 .46244 L
s
.06338 .47966 m
.06713 .47966 L
s
.06338 .49688 m
.06713 .49688 L
s
.06338 .5141 m
.06713 .5141 L
s
.06338 .54855 m
.06713 .54855 L
s
.06338 .56577 m
.06713 .56577 L
s
.06338 .58299 m
.06713 .58299 L
s
.06338 .60021 m
.06713 .60021 L
s
.25 Mabswid
.06338 0 m
.06338 .61803 L
s
0 0 m
1 0 L
1 .61803 L
0 .61803 L
closepath
clip
newpath
.007 w
.02381 .12382 Mdot
.02429 .12235 Mdot
.02476 .11928 Mdot
.02524 .12427 Mdot
.02571 .13166 Mdot
.02619 .13813 Mdot
.02667 .14649 Mdot
.02714 .15834 Mdot
.02762 .16619 Mdot
.02809 .17331 Mdot
.02857 .16385 Mdot
.02905 .15558 Mdot
.02952 .16484 Mdot
.03 .17565 Mdot
.03048 .1779 Mdot
.03095 .17473 Mdot
.03143 .16643 Mdot
.0319 .14852 Mdot
.03238 .124 Mdot
.03286 .11382 Mdot
.03333 .10227 Mdot
.03381 .09798 Mdot
.03428 .09274 Mdot
.03476 .1009 Mdot
.03524 .10584 Mdot
.0359 .10706 Mdot
.03619 .10545 Mdot
.03666 .1041 Mdot
.03714 .09903 Mdot
.03762 .10722 Mdot
.03809 .11932 Mdot
.03857 .11639 Mdot
.03905 .12117 Mdot
.03952 .13753 Mdot
.04 .17172 Mdot
.04047 .18946 Mdot
.04095 .20221 Mdot
.04143 .2135 Mdot
.0419 .2232 Mdot
.04238 .21671 Mdot
.04285 .20051 Mdot
.04333 .18251 Mdot
.04381 .16392 Mdot
.04428 .14929 Mdot
.04476 .13489 Mdot
.04523 .11519 Mdot
.04571 .10646 Mdot
.04619 .11264 Mdot
.04666 .10343 Mdot
.04714 .09301 Mdot
.04762 .07172 Mdot
.04809 .05358 Mdot
.04857 .05536 Mdot
.04904 .06263 Mdot
.04952 .06174 Mdot
.05 .05425 Mdot
.05047 .04742 Mdot
.05095 .04184 Mdot
.05142 .03969 Mdot
.0519 .03871 Mdot
.05238 .03795 Mdot
.05285 .03981 Mdot
.05333 .05174 Mdot
.05381 .06254 Mdot
.05428 .07094 Mdot
.05476 .08885 Mdot
.05523 .10248 Mdot
.05571 .11236 Mdot
.05619 .12224 Mdot
.05666 .13544 Mdot
.05714 .15917 Mdot
.05761 .18522 Mdot
.05809 .22385 Mdot
.05857 .25555 Mdot
.05904 .27537 Mdot
.05952 .29105 Mdot
.05999 .30707 Mdot
.06047 .306 Mdot
.06095 .29621 Mdot
.06142 .2802 Mdot
.0619 .25721 Mdot
.06238 .23499 Mdot
.06285 .22876 Mdot
.06333 .22292 Mdot
.0638 .2124 Mdot
.06428 .20583 Mdot
.06476 .20258 Mdot
.06523 .19718 Mdot
.06571 .1974 Mdot
.06618 .20145 Mdot
.06666 .18879 Mdot
.06714 .17485 Mdot
.06761 .16299 Mdot
.06809 .15048 Mdot
.06856 .13467 Mdot
.06904 .1183 Mdot
.06952 .10702 Mdot
.06999 .10452 Mdot
.07047 .11191 Mdot
.07095 .12833 Mdot
.07142 .14168 Mdot
.0719 .13467 Mdot
.07237 .1331 Mdot
.07285 .13462 Mdot
.07333 .15139 Mdot
.0738 .17677 Mdot
.07428 .18938 Mdot
.07475 .18537 Mdot
.07523 .19298 Mdot
.07571 .19389 Mdot
.07618 .19379 Mdot
.07666 .19467 Mdot
.07713 .19216 Mdot
.07761 .20197 Mdot
.07809 .21454 Mdot
.07856 .2234 Mdot
.07904 .24021 Mdot
.07952 .24377 Mdot
.07999 .2447 Mdot
.08047 .25939 Mdot
.08094 .24379 Mdot
.08142 .22146 Mdot
.0819 .19337 Mdot
.08237 .18445 Mdot
.08285 .16639 Mdot
.08332 .14568 Mdot
.0838 .1318 Mdot
.08428 .128 Mdot
.08475 .11809 Mdot
.08523 .11519 Mdot
.08571 .11497 Mdot
.08618 .11219 Mdot
.08666 .11513 Mdot
.08713 .11986 Mdot
.08761 .129 Mdot
.08809 .12793 Mdot
.08856 .12509 Mdot
.08904 .13357 Mdot
.08951 .13434 Mdot
.08999 .14255 Mdot
.09047 .14479 Mdot
.09094 .15167 Mdot
.09142 .1497 Mdot
.09189 .15326 Mdot
.09237 .16874 Mdot
.09285 .17745 Mdot
.09351 .18662 Mdot
.0938 .19067 Mdot
.09428 .19682 Mdot
.09475 .1992 Mdot
.09523 .19452 Mdot
.0957 .19811 Mdot
.09618 .2078 Mdot
.09666 .2206 Mdot
.09713 .22632 Mdot
.09761 .23241 Mdot
.09808 .23772 Mdot
.09856 .23446 Mdot
.09904 .21628 Mdot
.09951 .19919 Mdot
.09999 .18818 Mdot
.10046 .1854 Mdot
.10094 .18271 Mdot
.10142 .17829 Mdot
.10189 .16381 Mdot
.10237 .15514 Mdot
.10285 .13483 Mdot
.10332 .13396 Mdot
.1038 .13324 Mdot
.10427 .12795 Mdot
.10475 .11386 Mdot
.10523 .10328 Mdot
.1057 .10916 Mdot
.10618 .10773 Mdot
.10665 .10036 Mdot
.10713 .0929 Mdot
.10761 .0902 Mdot
.10808 .08953 Mdot
.10856 .08209 Mdot
.10903 .07598 Mdot
.10951 .0731 Mdot
.10999 .07713 Mdot
.11046 .07412 Mdot
.11094 .06213 Mdot
.11142 .07021 Mdot
.11189 .08212 Mdot
.11237 .08374 Mdot
.11284 .08958 Mdot
.11332 .09603 Mdot
.1138 .10028 Mdot
.11427 .10543 Mdot
.11475 .11268 Mdot
.11522 .12968 Mdot
.1157 .13375 Mdot
.11618 .14073 Mdot
.11665 .14797 Mdot
.11713 .15586 Mdot
.1176 .14607 Mdot
.11808 .13299 Mdot
.11856 .12849 Mdot
.11903 .12615 Mdot
.11951 .13272 Mdot
.11999 .14412 Mdot
.12046 .15433 Mdot
.12094 .16415 Mdot
.12141 .1663 Mdot
.12189 .16328 Mdot
.12237 .16851 Mdot
.12284 .17297 Mdot
.12332 .16879 Mdot
.12379 .15933 Mdot
.12427 .15157 Mdot
.12475 .13846 Mdot
.12522 .13493 Mdot
.1257 .13612 Mdot
.12618 .14032 Mdot
.12665 .13493 Mdot
.12713 .13008 Mdot
.1276 .13057 Mdot
.12808 .1302 Mdot
.12856 .13049 Mdot
.12903 .13425 Mdot
.12951 .13933 Mdot
.12998 .14309 Mdot
.13046 .1401 Mdot
.13094 .13726 Mdot
.13141 .1377 Mdot
.13189 .14676 Mdot
.13236 .15885 Mdot
.13284 .17162 Mdot
.13332 .18495 Mdot
.13379 .18327 Mdot
.13427 .18314 Mdot
.13475 .18244 Mdot
.13522 .17695 Mdot
.1357 .1727 Mdot
.13617 .15946 Mdot
.13665 .14416 Mdot
.13713 .13606 Mdot
.1376 .13944 Mdot
.13808 .13053 Mdot
.13855 .12866 Mdot
.13903 .13447 Mdot
.13951 .12825 Mdot
.13998 .11616 Mdot
.14046 .11993 Mdot
.14093 .1153 Mdot
.14141 .10971 Mdot
.14189 .10802 Mdot
.14236 .11176 Mdot
.14284 .10492 Mdot
.14332 .10768 Mdot
.14379 .09528 Mdot
.14427 .09062 Mdot
.14474 .09674 Mdot
.14522 .09344 Mdot
.1457 .08152 Mdot
.14617 .0728 Mdot
.14665 .06527 Mdot
.14712 .06784 Mdot
.1476 .0651 Mdot
.14808 .06934 Mdot
.14855 .07428 Mdot
.14903 .09187 Mdot
.1495 .10805 Mdot
.14998 .12445 Mdot
.15046 .13244 Mdot
.15112 .14091 Mdot
.15141 .14816 Mdot
.15189 .15113 Mdot
.15236 .14798 Mdot
.15284 .14825 Mdot
.15331 .15576 Mdot
.15379 .15734 Mdot
.15427 .16755 Mdot
.15474 .16812 Mdot
.15522 .1734 Mdot
.15569 .16878 Mdot
.15617 .16414 Mdot
.15665 .14744 Mdot
.15712 .12785 Mdot
.1576 .10921 Mdot
.15808 .10189 Mdot
.15855 .0856 Mdot
.15903 .09863 Mdot
.1595 .10225 Mdot
.15998 .09151 Mdot
.16046 .08303 Mdot
.16093 .08079 Mdot
.16141 .07695 Mdot
.16188 .08251 Mdot
.16236 .0828 Mdot
.16284 .08536 Mdot
.16331 .07968 Mdot
.16379 .06572 Mdot
.16426 .05306 Mdot
.16474 .08693 Mdot
.16522 .11744 Mdot
.16569 .14288 Mdot
.16617 .16969 Mdot
.16665 .18804 Mdot
.16712 .20029 Mdot
.1676 .21737 Mdot
.16807 .22832 Mdot
.16855 .24466 Mdot
.16903 .25695 Mdot
.1695 .26975 Mdot
.16998 .28093 Mdot
.17045 .27756 Mdot
.17093 .27482 Mdot
.17141 .28671 Mdot
.17188 .28964 Mdot
.17236 .29164 Mdot
.17283 .28017 Mdot
.17331 .27324 Mdot
.17379 .25926 Mdot
.17426 .25123 Mdot
.17474 .2403 Mdot
.17522 .2333 Mdot
.17569 .21034 Mdot
.17617 .19544 Mdot
.17664 .19375 Mdot
.17712 .19911 Mdot
.1776 .20146 Mdot
.17807 .20654 Mdot
.17855 .21701 Mdot
.17902 .23087 Mdot
.1795 .23701 Mdot
.17998 .23877 Mdot
.18045 .26113 Mdot
.18093 .27884 Mdot
.1814 .29257 Mdot
.18188 .28178 Mdot
.18236 .26822 Mdot
.18283 .24868 Mdot
.18331 .2298 Mdot
.18379 .20933 Mdot
.18426 .19035 Mdot
.18479 .17492 Mdot
.18521 .15942 Mdot
.18569 .13505 Mdot
.18617 .10536 Mdot
.18664 .10016 Mdot
.18717 .1154 Mdot
.18759 .12871 Mdot
.18812 .14743 Mdot
.18855 .15621 Mdot
.18902 .16415 Mdot
.1895 .175 Mdot
.19002 .20639 Mdot
.19045 .23532 Mdot
.19097 .26117 Mdot
.1914 .27209 Mdot
.19193 .29459 Mdot
.19236 .30687 Mdot
.19288 .33034 Mdot
.19336 .33568 Mdot
.19383 .25109 Mdot
.19431 .18882 Mdot
.19478 .16837 Mdot
.19526 .20441 Mdot
.19574 .25544 Mdot
.19621 .32091 Mdot
.19669 .37774 Mdot
.19716 .43545 Mdot
.19764 .47874 Mdot
.19812 .52399 Mdot
.19859 .55988 Mdot
.19907 .5867 Mdot
.19955 .60332 Mdot
.20002 .59587 Mdot
.2005 .58395 Mdot
.20097 .57224 Mdot
.20145 .56121 Mdot
.20193 .54454 Mdot
.2024 .52263 Mdot
.20288 .50043 Mdot
.20335 .48152 Mdot
.20383 .46092 Mdot
.20431 .43583 Mdot
.20478 .4107 Mdot
.20526 .38924 Mdot
.20573 .37254 Mdot
.20621 .35395 Mdot
.20669 .36376 Mdot
.20716 .36108 Mdot
.20764 .35918 Mdot
.20826 .33365 Mdot
.20854 .30873 Mdot
.20907 .29694 Mdot
.20954 .28836 Mdot
.21002 .27437 Mdot
.2105 .26756 Mdot
.21097 .26846 Mdot
.21145 .26553 Mdot
.21192 .26586 Mdot
.2124 .26908 Mdot
.21288 .2793 Mdot
.21335 .28973 Mdot
.21383 .29692 Mdot
.2143 .29763 Mdot
.21478 .29811 Mdot
.21526 .2916 Mdot
.21573 .28268 Mdot
.21621 .28128 Mdot
.21669 .28557 Mdot
.21716 .28363 Mdot
.21764 .27733 Mdot
.21811 .28783 Mdot
.21859 .30105 Mdot
.21907 .29714 Mdot
.21954 .2858 Mdot
.22002 .27712 Mdot
.22049 .27585 Mdot
.22097 .28027 Mdot
.22145 .27377 Mdot
.22192 .26858 Mdot
.2224 .25735 Mdot
.22287 .24403 Mdot
.22335 .23366 Mdot
.22383 .21615 Mdot
.2243 .18839 Mdot
.22478 .18173 Mdot
.22526 .15586 Mdot
.22573 .14092 Mdot
.22621 .12183 Mdot
.22668 .10744 Mdot
.22716 .10489 Mdot
.22764 .11198 Mdot
.22811 .12514 Mdot
.22859 .14039 Mdot
.22906 .15096 Mdot
.22954 .16418 Mdot
.23002 .17789 Mdot
.23049 .18766 Mdot
.23097 .19097 Mdot
.23145 .19568 Mdot
.23192 .19289 Mdot
.2324 .18395 Mdot
.23287 .17946 Mdot
.23335 .16675 Mdot
.23383 .15931 Mdot
.2343 .13946 Mdot
.23478 .13255 Mdot
.23525 .13304 Mdot
.23573 .1318 Mdot
.23621 .14023 Mdot
.23668 .15401 Mdot
.23716 .16403 Mdot
.23763 .17715 Mdot
.23811 .19279 Mdot
.23859 .19189 Mdot
.23906 .18138 Mdot
.23954 .16203 Mdot
.24002 .15104 Mdot
.24049 .14112 Mdot
.24097 .12783 Mdot
.24144 .10973 Mdot
.24192 .10295 Mdot
.2424 .11077 Mdot
.24287 .13437 Mdot
.24335 .17109 Mdot
.24382 .1921 Mdot
.2443 .19568 Mdot
.24478 .22559 Mdot
.24525 .24892 Mdot
.24573 .26511 Mdot
.2462 .2824 Mdot
.24668 .29088 Mdot
.24716 .30485 Mdot
.24763 .3216 Mdot
.24811 .33687 Mdot
.24859 .33127 Mdot
.24906 .32057 Mdot
.24954 .30306 Mdot
.25001 .28643 Mdot
.25049 .28073 Mdot
.25097 .27444 Mdot
.25144 .2471 Mdot
.25192 .21604 Mdot
.25239 .1904 Mdot
.25287 .16597 Mdot
.25335 .14247 Mdot
.25382 .12229 Mdot
.2543 .12835 Mdot
.25477 .13195 Mdot
.25525 .11175 Mdot
.25573 .1072 Mdot
.2562 .10425 Mdot
.25668 .11265 Mdot
.25716 .1029 Mdot
.25763 .11492 Mdot
.25811 .12291 Mdot
.25858 .11993 Mdot
.25906 .12325 Mdot
.25954 .11965 Mdot
.26001 .12719 Mdot
.26049 .13478 Mdot
.26096 .11631 Mdot
.26144 .10469 Mdot
.26192 .11432 Mdot
.26239 .11772 Mdot
.26287 .13349 Mdot
.26335 .14358 Mdot
.26382 .15405 Mdot
.2643 .16721 Mdot
.26477 .15488 Mdot
.26539 .12689 Mdot
.26573 .10979 Mdot
.2662 .10957 Mdot
.26668 .10087 Mdot
.26715 .09711 Mdot
.26763 .10101 Mdot
.26811 .09838 Mdot
.26858 .09659 Mdot
.26906 .09662 Mdot
.26953 .08302 Mdot
.27001 .07648 Mdot
.27049 .0848 Mdot
.27096 .09917 Mdot
.27144 .09828 Mdot
.27192 .10481 Mdot
.27239 .11209 Mdot
.27287 .11978 Mdot
.27334 .12205 Mdot
.27382 .13338 Mdot
.2743 .14259 Mdot
.27477 .14305 Mdot
.27525 .13292 Mdot
.27572 .11869 Mdot
.2762 .10539 Mdot
.27668 .08535 Mdot
.27715 .06234 Mdot
.27763 .0511 Mdot
.2781 .03586 Mdot
.27863 .03648 Mdot
.2791 .03935 Mdot
.27958 .04691 Mdot
.28006 .05411 Mdot
.28053 .06137 Mdot
.28101 .06302 Mdot
.28149 .05782 Mdot
.28196 .06285 Mdot
.28244 .07407 Mdot
.28291 .08174 Mdot
.28339 .09408 Mdot
.28387 .10612 Mdot
.28429 .11934 Mdot
.28482 .138 Mdot
.28529 .14262 Mdot
.28572 .14627 Mdot
.28625 .14777 Mdot
.28672 .15164 Mdot
.2872 .159 Mdot
.28763 .14822 Mdot
.28815 .13793 Mdot
.28863 .11904 Mdot
.2891 .0993 Mdot
.28958 .09075 Mdot
.29006 .09026 Mdot
.29053 .09969 Mdot
.29101 .10304 Mdot
.29148 .11557 Mdot
.29196 .12888 Mdot
.29244 .14152 Mdot
.29291 .15588 Mdot
.29339 .16083 Mdot
.29386 .16067 Mdot
.29434 .1614 Mdot
.29482 .15594 Mdot
.29529 .14902 Mdot
.29577 .13966 Mdot
.29624 .1393 Mdot
.29672 .14731 Mdot
.2972 .15333 Mdot
.29767 .15904 Mdot
.2981 .14731 Mdot
.29863 .13188 Mdot
.29905 .12493 Mdot
.29958 .09983 Mdot
.30001 .09001 Mdot
.30048 .08358 Mdot
.30101 .08065 Mdot
.30143 .07625 Mdot
.30196 .07546 Mdot
.30243 .0886 Mdot
.30291 .0881 Mdot
.30339 .09618 Mdot
.30386 .1034 Mdot
.30434 .11767 Mdot
.30481 .13241 Mdot
.30529 .14921 Mdot
.30577 .16279 Mdot
.30624 .1802 Mdot
.30672 .17557 Mdot
.3072 .18273 Mdot
.30767 .16564 Mdot
.30815 .15217 Mdot
.30862 .14071 Mdot
.3091 .13134 Mdot
.30958 .11997 Mdot
.31005 .11092 Mdot
.31053 .10262 Mdot
.311 .08845 Mdot
.31148 .08676 Mdot
.31196 .08257 Mdot
.31243 .08153 Mdot
.31291 .07837 Mdot
.31339 .07684 Mdot
.31386 .07411 Mdot
.31434 .07353 Mdot
.31481 .08403 Mdot
.31529 .08854 Mdot
.31577 .08741 Mdot
.31624 .08853 Mdot
.31672 .08215 Mdot
.31719 .08172 Mdot
.31767 .07926 Mdot
.31815 .07279 Mdot
.31862 .06699 Mdot
.3191 .05091 Mdot
.31957 .04316 Mdot
.32005 .04905 Mdot
.32053 .05165 Mdot
.321 .05273 Mdot
.32148 .06102 Mdot
.32191 .07046 Mdot
.32257 .07017 Mdot
.32286 .07009 Mdot
.32338 .0818 Mdot
.32386 .08263 Mdot
.32434 .08132 Mdot
.32481 .07055 Mdot
.32529 .06974 Mdot
.32576 .07222 Mdot
.32624 .08056 Mdot
.32672 .09407 Mdot
.32719 .11 Mdot
.32767 .12389 Mdot
.32814 .13036 Mdot
.32862 .14071 Mdot
.3291 .1551 Mdot
.32957 .16055 Mdot
.33005 .15385 Mdot
.33053 .14495 Mdot
.331 .13481 Mdot
.33148 .1332 Mdot
.33195 .12946 Mdot
.33243 .12923 Mdot
.33291 .11991 Mdot
.33338 .10707 Mdot
.33386 .1035 Mdot
.33433 .09197 Mdot
.33481 .07684 Mdot
.33529 .06509 Mdot
.33576 .05301 Mdot
.33624 .05666 Mdot
.33671 .05904 Mdot
.33719 .05052 Mdot
.33767 .05177 Mdot
.33814 .05053 Mdot
.33862 .04561 Mdot
.3391 .03148 Mdot
.33957 .06099 Mdot
.34005 .09196 Mdot
.34052 .1081 Mdot
.341 .12391 Mdot
.34148 .13399 Mdot
.34195 .1455 Mdot
.34243 .13526 Mdot
.3429 .12326 Mdot
.34338 .11687 Mdot
.34386 .11602 Mdot
.34433 .1136 Mdot
.34481 .11504 Mdot
.34529 .1302 Mdot
.34576 .14466 Mdot
.34624 .16521 Mdot
.34671 .18259 Mdot
.34719 .2048 Mdot
.34767 .22511 Mdot
.34814 .24021 Mdot
.34862 .2499 Mdot
.34909 .24858 Mdot
.34957 .25094 Mdot
.35005 .25946 Mdot
.35052 .27133 Mdot
.351 .2795 Mdot
.35147 .30451 Mdot
.35195 .31959 Mdot
.35243 .3209 Mdot
.3529 .33035 Mdot
.35338 .33516 Mdot
.35386 .34475 Mdot
.35433 .35029 Mdot
.35481 .34434 Mdot
.35528 .33466 Mdot
.35576 .31764 Mdot
.35624 .31962 Mdot
.35671 .32463 Mdot
.35719 .32769 Mdot
.35766 .32149 Mdot
.35814 .31076 Mdot
.35862 .30526 Mdot
.35909 .3106 Mdot
.35957 .30837 Mdot
.36004 .30322 Mdot
.36052 .30306 Mdot
.361 .29971 Mdot
.36147 .29354 Mdot
.36195 .29224 Mdot
.36243 .28929 Mdot
.3629 .2917 Mdot
.36338 .29035 Mdot
.36385 .28526 Mdot
.36433 .27786 Mdot
.36481 .26851 Mdot
.36528 .25395 Mdot
.36576 .24662 Mdot
.36623 .23115 Mdot
.36671 .21437 Mdot
.36719 .20445 Mdot
.36766 .17779 Mdot
.36814 .14503 Mdot
.36861 .11913 Mdot
.36909 .07861 Mdot
.36957 .0619 Mdot
.37004 .06205 Mdot
.37052 .05455 Mdot
.371 .0433 Mdot
.37147 .05599 Mdot
.37195 .08403 Mdot
.37242 .11187 Mdot
.3729 .12921 Mdot
.37338 .13358 Mdot
.37385 .14882 Mdot
.37433 .16288 Mdot
.3748 .177 Mdot
.37528 .17793 Mdot
.37576 .15806 Mdot
.37623 .14389 Mdot
.37671 .12958 Mdot
.37719 .11936 Mdot
.37766 .10842 Mdot
.37814 .10388 Mdot
.37861 .1031 Mdot
.37909 .10934 Mdot
.37957 .11856 Mdot
.38018 .11633 Mdot
.38047 .12112 Mdot
.38099 .12387 Mdot
.38147 .1286 Mdot
.38195 .12428 Mdot
.38242 .12022 Mdot
.3829 .10487 Mdot
.38337 .09573 Mdot
.38385 .0814 Mdot
.38433 .07336 Mdot
.3848 .06021 Mdot
.38528 .03237 Mdot
.38576 .04106 Mdot
.38623 .07015 Mdot
.38671 .08752 Mdot
.38718 .10687 Mdot
.38766 .13271 Mdot
.38814 .15482 Mdot
.38861 .17212 Mdot
.38909 .18344 Mdot
.38956 .20041 Mdot
.39004 .2166 Mdot
.39052 .22525 Mdot
.39099 .22897 Mdot
.39147 .23642 Mdot
.39194 .24436 Mdot
.39242 .2558 Mdot
.3929 .26931 Mdot
.39337 .28544 Mdot
.39385 .28055 Mdot
.39433 .27505 Mdot
.3948 .26391 Mdot
.39528 .26042 Mdot
.39575 .24643 Mdot
.39623 .24782 Mdot
.39671 .24464 Mdot
.39718 .24205 Mdot
.39766 .23407 Mdot
.39813 .22827 Mdot
.39861 .22514 Mdot
.39909 .22531 Mdot
.39956 .22397 Mdot
.40004 .22231 Mdot
.40051 .23557 Mdot
.40099 .24251 Mdot
.40147 .25468 Mdot
.40194 .26486 Mdot
.40242 .28788 Mdot
.4029 .30815 Mdot
.40337 .31336 Mdot
.40385 .32615 Mdot
.40432 .34221 Mdot
.4048 .34557 Mdot
.40528 .3453 Mdot
.40575 .33882 Mdot
.40623 .32927 Mdot
.4067 .32349 Mdot
.40718 .31334 Mdot
.40766 .30909 Mdot
.40813 .30001 Mdot
.40861 .29795 Mdot
.40909 .29274 Mdot
.40956 .27406 Mdot
.41004 .25553 Mdot
.41051 .23918 Mdot
.41099 .23337 Mdot
.41147 .2148 Mdot
.41194 .19505 Mdot
.41242 .17907 Mdot
.41289 .17539 Mdot
.41337 .17035 Mdot
.41385 .17468 Mdot
.41432 .17723 Mdot
.4148 .1699 Mdot
.41527 .17396 Mdot
.41575 .19227 Mdot
.41623 .20075 Mdot
.4167 .19473 Mdot
.41718 .20307 Mdot
.41766 .20693 Mdot
.41813 .22221 Mdot
.41861 .22872 Mdot
.41908 .22699 Mdot
.41956 .22023 Mdot
.42004 .21512 Mdot
.42051 .21838 Mdot
.42099 .21886 Mdot
.42146 .21864 Mdot
.42194 .21564 Mdot
.42242 .21186 Mdot
.42289 .19836 Mdot
.42337 .1828 Mdot
.42384 .16898 Mdot
.42432 .15694 Mdot
.4248 .14291 Mdot
.42527 .12158 Mdot
.42575 .10859 Mdot
.42623 .09901 Mdot
.4267 .09061 Mdot
.42718 .08527 Mdot
.42765 .07893 Mdot
.42813 .0784 Mdot
.42861 .10066 Mdot
.42908 .1528 Mdot
.42956 .20209 Mdot
.43003 .231 Mdot
.43051 .25744 Mdot
.43099 .27491 Mdot
.43146 .26521 Mdot
.43194 .23952 Mdot
.43241 .2238 Mdot
.43289 .20662 Mdot
.43337 .18759 Mdot
.43384 .15645 Mdot
.43432 .11827 Mdot
.4348 .10388 Mdot
.43527 .11335 Mdot
.43575 .13858 Mdot
.43622 .13056 Mdot
.4367 .1259 Mdot
.43737 .13754 Mdot
.43765 .14795 Mdot
.43813 .16511 Mdot
.4386 .18378 Mdot
.43908 .20327 Mdot
.43956 .22434 Mdot
.44003 .23946 Mdot
.44051 .25865 Mdot
.44099 .26875 Mdot
.44146 .28392 Mdot
.44194 .29623 Mdot
.44241 .30789 Mdot
.44289 .30834 Mdot
.44337 .31465 Mdot
.44384 .31707 Mdot
.44432 .31549 Mdot
.44479 .32382 Mdot
.44527 .33148 Mdot
.44575 .3368 Mdot
.44622 .33197 Mdot
.4467 .32212 Mdot
.44717 .30665 Mdot
.44765 .28222 Mdot
.44813 .2743 Mdot
.4486 .25158 Mdot
.44908 .2352 Mdot
.44956 .23991 Mdot
.45003 .24559 Mdot
.45051 .24501 Mdot
.45098 .24396 Mdot
.45146 .23645 Mdot
.45194 .21182 Mdot
.45241 .18153 Mdot
.45289 .15299 Mdot
.45336 .12523 Mdot
.45384 .1058 Mdot
.45432 .09257 Mdot
.45479 .07987 Mdot
.45527 .07547 Mdot
.45574 .07553 Mdot
.45622 .09388 Mdot
.4567 .10157 Mdot
.45717 .10051 Mdot
.45765 .10937 Mdot
.45813 .12361 Mdot
.4586 .15734 Mdot
.45908 .16943 Mdot
.45955 .17038 Mdot
.46003 .16925 Mdot
.46051 .18126 Mdot
.46098 .18355 Mdot
.46146 .18535 Mdot
.46193 .17606 Mdot
.46241 .16718 Mdot
.46289 .15864 Mdot
.46336 .15408 Mdot
.46384 .15169 Mdot
.46431 .15222 Mdot
.46479 .14947 Mdot
.46527 .14871 Mdot
.46574 .15431 Mdot
.46622 .15007 Mdot
.4667 .15097 Mdot
.46717 .14823 Mdot
.46765 .14154 Mdot
.46812 .14274 Mdot
.4686 .1541 Mdot
.46908 .15776 Mdot
.46955 .15762 Mdot
.47003 .1605 Mdot
.4705 .16349 Mdot
.47098 .17205 Mdot
.47146 .17987 Mdot
.47193 .19542 Mdot
.47241 .20103 Mdot
.47289 .20161 Mdot
.47336 .193 Mdot
.47384 .19626 Mdot
.47431 .20346 Mdot
.47479 .19982 Mdot
.47527 .19568 Mdot
.47574 .18673 Mdot
.47622 .17565 Mdot
.47669 .17173 Mdot
.47717 .16558 Mdot
.47765 .16716 Mdot
.47812 .17145 Mdot
.4786 .16985 Mdot
.47907 .16555 Mdot
.47955 .17567 Mdot
.48003 .18492 Mdot
.4805 .18937 Mdot
.48098 .18743 Mdot
.48146 .19321 Mdot
.48193 .19288 Mdot
.48241 .19803 Mdot
.48288 .20556 Mdot
.48336 .20243 Mdot
.48384 .19847 Mdot
.48431 .19121 Mdot
.48479 .17982 Mdot
.48526 .16335 Mdot
.48574 .15737 Mdot
.48622 .14976 Mdot
.48669 .14365 Mdot
.48717 .13463 Mdot
.48764 .12596 Mdot
.48812 .11567 Mdot
.4886 .10932 Mdot
.48907 .1061 Mdot
.48955 .10109 Mdot
.49003 .09707 Mdot
.4905 .09836 Mdot
.49098 .09246 Mdot
.49145 .09565 Mdot
.49193 .10053 Mdot
.49241 .11226 Mdot
.49288 .1153 Mdot
.49336 .11976 Mdot
.49383 .11605 Mdot
.49431 .11589 Mdot
.49498 .11994 Mdot
.49526 .12266 Mdot
.49574 .13609 Mdot
.49621 .14224 Mdot
.49669 .14532 Mdot
.49717 .14403 Mdot
.49764 .14262 Mdot
.49812 .13644 Mdot
.4986 .13799 Mdot
.49907 .12867 Mdot
.49955 .12321 Mdot
.50002 .12133 Mdot
.5005 .12568 Mdot
.50098 .12031 Mdot
.50145 .11424 Mdot
.50193 .11147 Mdot
.5024 .10548 Mdot
.50288 .09444 Mdot
.50336 .07852 Mdot
.50383 .07037 Mdot
.50431 .06531 Mdot
.50478 .07221 Mdot
.50526 .07726 Mdot
.50574 .08303 Mdot
.50621 .08003 Mdot
.50669 .07992 Mdot
.50717 .07692 Mdot
.50764 .07502 Mdot
.50812 .07971 Mdot
.50859 .08515 Mdot
.50907 .0953 Mdot
.50955 .11104 Mdot
.51002 .1337 Mdot
.5105 .15086 Mdot
.51097 .16337 Mdot
.51145 .16629 Mdot
.51193 .17656 Mdot
.5124 .1881 Mdot
.51288 .19426 Mdot
.51336 .2141 Mdot
.51383 .23331 Mdot
.51431 .24558 Mdot
.51478 .25399 Mdot
.51526 .26048 Mdot
.51574 .25631 Mdot
.51621 .25183 Mdot
.51669 .24206 Mdot
.51716 .22965 Mdot
.51764 .22164 Mdot
.51812 .22036 Mdot
.51859 .21892 Mdot
.51907 .21232 Mdot
.51954 .22105 Mdot
.52002 .24181 Mdot
.5205 .26727 Mdot
.52097 .29155 Mdot
.52145 .31245 Mdot
.52193 .32144 Mdot
.5224 .3227 Mdot
.52288 .31632 Mdot
.52335 .2981 Mdot
.52383 .28025 Mdot
.52431 .26694 Mdot
.52478 .24998 Mdot
.52526 .23445 Mdot
.52573 .22842 Mdot
.52621 .2261 Mdot
.52669 .21682 Mdot
.52716 .21424 Mdot
.52764 .19651 Mdot
.52811 .18321 Mdot
.52859 .17866 Mdot
.52907 .16048 Mdot
.52954 .148 Mdot
.53002 .13556 Mdot
.5305 .12888 Mdot
.53097 .14049 Mdot
.53145 .13982 Mdot
.53192 .13874 Mdot
.5324 .12963 Mdot
.53288 .1104 Mdot
.53335 .09451 Mdot
.53383 .06827 Mdot
.5343 .06031 Mdot
.53478 .05357 Mdot
.53526 .05386 Mdot
.53573 .05118 Mdot
.53621 .06249 Mdot
.53668 .07129 Mdot
.53716 .06241 Mdot
.53764 .06248 Mdot
.53811 .0628 Mdot
.53859 .06802 Mdot
.53907 .07835 Mdot
.53954 .0951 Mdot
.54002 .09343 Mdot
.54049 .07515 Mdot
.54097 .05097 Mdot
.54145 .03647 Mdot
.54192 .06142 Mdot
.5424 .09143 Mdot
.54287 .12329 Mdot
.54335 .15555 Mdot
.54383 .19131 Mdot
.5443 .22452 Mdot
.54478 .25335 Mdot
.54526 .27671 Mdot
.54573 .30361 Mdot
.54621 .3313 Mdot
.54668 .35894 Mdot
.54716 .37944 Mdot
.54764 .39209 Mdot
.54811 .39995 Mdot
.54859 .39507 Mdot
.54906 .3964 Mdot
.54954 .39275 Mdot
.55002 .39392 Mdot
.55049 .40098 Mdot
.55097 .38991 Mdot
.55144 .3652 Mdot
.55192 .33889 Mdot
.55259 .30918 Mdot
.55287 .28746 Mdot
.55335 .26032 Mdot
.55383 .25185 Mdot
.5543 .26073 Mdot
.55478 .26659 Mdot
.55525 .25099 Mdot
.55573 .24045 Mdot
.55621 .2503 Mdot
.55668 .25048 Mdot
.55716 .24325 Mdot
.55763 .24201 Mdot
.55811 .22845 Mdot
.55859 .21702 Mdot
.55906 .19016 Mdot
.55954 .16366 Mdot
.56001 .15038 Mdot
.56049 .14131 Mdot
.56097 .14008 Mdot
.56144 .149 Mdot
.56192 .15436 Mdot
.5624 .15751 Mdot
.56287 .164 Mdot
.56335 .15051 Mdot
.56382 .14863 Mdot
.5643 .15912 Mdot
.56478 .15381 Mdot
.56525 .1468 Mdot
.56573 .15087 Mdot
.5662 .1437 Mdot
.56668 .14716 Mdot
.56716 .14633 Mdot
.56763 .15595 Mdot
.56811 .17047 Mdot
.56858 .17949 Mdot
.56906 .19011 Mdot
.56954 .18539 Mdot
.57001 .1857 Mdot
.57049 .18474 Mdot
.57097 .17957 Mdot
.57144 .17133 Mdot
.57192 .15393 Mdot
.57239 .13579 Mdot
.57287 .11827 Mdot
.57335 .11239 Mdot
.57382 .11526 Mdot
.5743 .12542 Mdot
.57477 .13772 Mdot
.57525 .15588 Mdot
.57573 .17718 Mdot
.5762 .19913 Mdot
.57668 .22098 Mdot
.57716 .23253 Mdot
.57763 .2432 Mdot
.57811 .23985 Mdot
.57858 .24221 Mdot
.57906 .23527 Mdot
.57954 .23723 Mdot
.58001 .23547 Mdot
.58049 .22601 Mdot
.58096 .23588 Mdot
.58144 .24382 Mdot
.58192 .24605 Mdot
.58239 .2497 Mdot
.58287 .25073 Mdot
.58334 .24775 Mdot
.58382 .24392 Mdot
.5843 .24393 Mdot
.58477 .24498 Mdot
.58525 .2498 Mdot
.58573 .26027 Mdot
.5862 .26819 Mdot
.58668 .27086 Mdot
.58715 .27985 Mdot
.58763 .29636 Mdot
.58811 .29946 Mdot
.58858 .30609 Mdot
.58906 .31331 Mdot
.58953 .32364 Mdot
.59001 .33044 Mdot
.59049 .33352 Mdot
.59096 .33169 Mdot
.59144 .31399 Mdot
.59191 .30008 Mdot
.59239 .29288 Mdot
.59287 .28416 Mdot
.59334 .26887 Mdot
.59382 .25218 Mdot
.5943 .22575 Mdot
.59477 .20248 Mdot
.59525 .18401 Mdot
.59572 .18296 Mdot
.5962 .18868 Mdot
.59668 .18989 Mdot
.59715 .18646 Mdot
.59763 .17962 Mdot
.5981 .17749 Mdot
.59858 .19527 Mdot
.59906 .20599 Mdot
.59953 .2092 Mdot
.60001 .20227 Mdot
.60048 .19371 Mdot
.60096 .18653 Mdot
.60144 .19437 Mdot
.60191 .1999 Mdot
.60239 .2041 Mdot
.60287 .21106 Mdot
.60334 .22304 Mdot
.60382 .2336 Mdot
.60429 .22402 Mdot
.60477 .21381 Mdot
.60525 .20925 Mdot
.60572 .20258 Mdot
.6062 .21178 Mdot
.60667 .20713 Mdot
.60715 .19948 Mdot
.60763 .182 Mdot
.6081 .16062 Mdot
.60858 .14294 Mdot
.60906 .13211 Mdot
.60972 .12769 Mdot
.61001 .12262 Mdot
.61048 .11868 Mdot
.61101 .10759 Mdot
.61144 .10149 Mdot
.61191 .10485 Mdot
.61239 .10394 Mdot
.61286 .10397 Mdot
.61334 .10301 Mdot
.61382 .11426 Mdot
.61429 .1234 Mdot
.61477 .12727 Mdot
.61524 .13311 Mdot
.61572 .15215 Mdot
.6162 .16744 Mdot
.61667 .16771 Mdot
.61715 .16025 Mdot
.61763 .16204 Mdot
.6181 .17011 Mdot
.61858 .17701 Mdot
.61905 .18371 Mdot
.61953 .18387 Mdot
.62001 .17797 Mdot
.62048 .18206 Mdot
.62096 .18208 Mdot
.62143 .1793 Mdot
.62191 .17931 Mdot
.62239 .18468 Mdot
.62286 .18446 Mdot
.62334 .18433 Mdot
.62381 .18706 Mdot
.62429 .19854 Mdot
.62477 .22032 Mdot
.62524 .2417 Mdot
.62572 .26584 Mdot
.6262 .28008 Mdot
.62667 .29343 Mdot
.62715 .29833 Mdot
.62762 .29854 Mdot
.6281 .30552 Mdot
.62858 .31326 Mdot
.62905 .31647 Mdot
.62953 .30969 Mdot
.63 .30333 Mdot
.63048 .29279 Mdot
.63096 .29093 Mdot
.63143 .28561 Mdot
.63191 .2781 Mdot
.63238 .27858 Mdot
.63286 .2802 Mdot
.63334 .28549 Mdot
.63381 .28121 Mdot
.63429 .27677 Mdot
.63477 .26729 Mdot
.63524 .26847 Mdot
.63572 .25829 Mdot
.63619 .26453 Mdot
.63667 .26815 Mdot
.63715 .2765 Mdot
.63762 .28204 Mdot
.6381 .28717 Mdot
.63857 .28899 Mdot
.63905 .2872 Mdot
.63953 .29252 Mdot
.64 .31104 Mdot
.64048 .32378 Mdot
.64096 .33187 Mdot
.64143 .33752 Mdot
.64191 .35378 Mdot
.64238 .36584 Mdot
.64286 .36854 Mdot
.64334 .3644 Mdot
.64381 .35718 Mdot
.64429 .32547 Mdot
.64476 .28475 Mdot
.64524 .2488 Mdot
.64576 .21183 Mdot
.64619 .18545 Mdot
.64667 .15389 Mdot
.64719 .1292 Mdot
.64762 .12493 Mdot
.6481 .12466 Mdot
.64862 .12402 Mdot
.64905 .1262 Mdot
.64957 .13309 Mdot
.65 .13894 Mdot
.65048 .14535 Mdot
.65095 .15859 Mdot
.65143 .16945 Mdot
.65191 .1787 Mdot
.65238 .18491 Mdot
.65286 .20136 Mdot
.65333 .1986 Mdot
.65381 .18512 Mdot
.65429 .1575 Mdot
.65476 .12872 Mdot
.65524 .11132 Mdot
.65571 .08364 Mdot
.65619 .0688 Mdot
.65667 .06348 Mdot
.65714 .06449 Mdot
.65762 .07998 Mdot
.6581 .09143 Mdot
.65857 .10967 Mdot
.65905 .12066 Mdot
.65952 .14317 Mdot
.66 .15976 Mdot
.66048 .18445 Mdot
.66095 .20147 Mdot
.66143 .20945 Mdot
.6619 .22919 Mdot
.66238 .2531 Mdot
.66286 .26835 Mdot
.66333 .28298 Mdot
.66381 .29211 Mdot
.66428 .30513 Mdot
.66476 .31535 Mdot
.66524 .32471 Mdot
.66571 .33699 Mdot
.66619 .34562 Mdot
.66667 .35768 Mdot
.66733 .36735 Mdot
.66762 .36757 Mdot
.66809 .3614 Mdot
.66857 .35557 Mdot
.66905 .34077 Mdot
.66952 .28791 Mdot
.67 .2361 Mdot
.67047 .18189 Mdot
.671 .1343 Mdot
.67147 .09499 Mdot
.67195 .07346 Mdot
.67243 .08191 Mdot
.6729 .08696 Mdot
.67338 .08324 Mdot
.67385 .07626 Mdot
.67433 .06947 Mdot
.67481 .06454 Mdot
.67528 .05878 Mdot
.67576 .06814 Mdot
.67624 .07418 Mdot
.67671 .07072 Mdot
.67719 .06407 Mdot
.67766 .06675 Mdot
.67814 .07685 Mdot
.67862 .08065 Mdot
.67909 .08252 Mdot
.67957 .09015 Mdot
.68004 .10022 Mdot
.68052 .11002 Mdot
.681 .12116 Mdot
.68147 .13852 Mdot
.68195 .16877 Mdot
.68243 .18745 Mdot
.6829 .20157 Mdot
.68338 .21426 Mdot
.68385 .2237 Mdot
.68433 .22589 Mdot
.68481 .24907 Mdot
.68528 .26766 Mdot
.68576 .27861 Mdot
.68623 .23239 Mdot
.68671 .19872 Mdot
.68719 .1766 Mdot
.68766 .14085 Mdot
.68814 .12502 Mdot
.68861 .11496 Mdot
.68909 .11078 Mdot
.68957 .10883 Mdot
.69004 .10212 Mdot
.69052 .09387 Mdot
.691 .08682 Mdot
.69147 .08326 Mdot
.69195 .07861 Mdot
.69238 .07873 Mdot
.6929 .07906 Mdot
.69338 .07633 Mdot
.69385 .07434 Mdot
.69433 .06849 Mdot
.6948 .07115 Mdot
.69528 .0782 Mdot
.69576 .0946 Mdot
.69623 .10661 Mdot
.69671 .10401 Mdot
.69718 .0881 Mdot
.69766 .06832 Mdot
.69814 .05938 Mdot
.69861 .05324 Mdot
.69909 .05456 Mdot
.69957 .066 Mdot
.70004 .08936 Mdot
.70052 .11529 Mdot
.70099 .13295 Mdot
.70147 .13415 Mdot
.70195 .13384 Mdot
.70242 .14 Mdot
.7029 .1423 Mdot
.70337 .14367 Mdot
.70385 .13779 Mdot
.70433 .14093 Mdot
.7048 .1494 Mdot
.70528 .16221 Mdot
.70575 .17117 Mdot
.70623 .18523 Mdot
.70671 .1875 Mdot
.70718 .17798 Mdot
.70766 .17008 Mdot
.70814 .16553 Mdot
.70861 .16111 Mdot
.70909 .16903 Mdot
.70956 .16605 Mdot
.71004 .16301 Mdot
.71052 .15827 Mdot
.71099 .15546 Mdot
.71147 .15356 Mdot
.71194 .15387 Mdot
.71242 .1527 Mdot
.7129 .1566 Mdot
.71337 .14634 Mdot
.71385 .14491 Mdot
.71432 .14196 Mdot
.7148 .14298 Mdot
.71528 .14209 Mdot
.71575 .14149 Mdot
.71623 .13416 Mdot
.71671 .13099 Mdot
.71718 .13277 Mdot
.71766 .14568 Mdot
.71813 .15252 Mdot
.71861 .15838 Mdot
.71909 .16092 Mdot
.71956 .16495 Mdot
.72004 .15461 Mdot
.72051 .139 Mdot
.72099 .12835 Mdot
.72147 .11738 Mdot
.72194 .11155 Mdot
.72242 .09965 Mdot
.7229 .09215 Mdot
.72337 .0925 Mdot
.72385 .08634 Mdot
.72447 .08931 Mdot
.72475 .09375 Mdot
.72528 .09099 Mdot
.72575 .08228 Mdot
.72623 .07151 Mdot
.7267 .05111 Mdot
.72718 .0284 Mdot
.72766 .03394 Mdot
.72813 .03311 Mdot
.72861 .03603 Mdot
.72908 .02914 Mdot
.72956 .04103 Mdot
.73004 .0546 Mdot
.73051 .06757 Mdot
.73099 .07621 Mdot
.73147 .07818 Mdot
.73194 .07121 Mdot
.73242 .06739 Mdot
.73289 .06187 Mdot
.73337 .05311 Mdot
.73385 .05449 Mdot
.73432 .05036 Mdot
.7348 .05478 Mdot
.73527 .06054 Mdot
.73575 .05826 Mdot
.73623 .06277 Mdot
.7367 .06367 Mdot
.73718 .06358 Mdot
.73765 .06302 Mdot
.73813 .06203 Mdot
.73861 .06652 Mdot
.73908 .07517 Mdot
.73956 .07519 Mdot
.74004 .08481 Mdot
.74051 .07865 Mdot
.74099 .08095 Mdot
.74146 .08415 Mdot
.74194 .08296 Mdot
.74242 .08905 Mdot
.74289 .08439 Mdot
.74337 .08747 Mdot
.74384 .08852 Mdot
.74432 .09891 Mdot
.7448 .10591 Mdot
.74527 .12267 Mdot
.74575 .13827 Mdot
.74622 .15369 Mdot
.7467 .17964 Mdot
.74718 .19951 Mdot
.74765 .20705 Mdot
.74813 .22712 Mdot
.74861 .25285 Mdot
.74908 .28173 Mdot
.74956 .30904 Mdot
.75003 .3275 Mdot
.75051 .32464 Mdot
.75099 .30269 Mdot
.75146 .27043 Mdot
.75194 .23512 Mdot
.75241 .19633 Mdot
.75289 .15216 Mdot
.75337 .1136 Mdot
.75384 .09264 Mdot
.75432 .0881 Mdot
.7548 .09396 Mdot
.75527 .10054 Mdot
.75575 .10539 Mdot
.75622 .1067 Mdot
.7567 .10708 Mdot
.75718 .11759 Mdot
.75765 .12533 Mdot
.75813 .1424 Mdot
.7586 .15584 Mdot
.75908 .17143 Mdot
.75956 .18477 Mdot
.76003 .20504 Mdot
.76051 .22407 Mdot
.76098 .22196 Mdot
.76146 .22234 Mdot
.76194 .21597 Mdot
.76241 .21449 Mdot
.76289 .20498 Mdot
.76337 .20525 Mdot
.76384 .2068 Mdot
.76432 .20479 Mdot
.76479 .2089 Mdot
.76527 .20764 Mdot
.76575 .20973 Mdot
.76622 .20589 Mdot
.7667 .19728 Mdot
.76717 .19422 Mdot
.76765 .19623 Mdot
.76813 .19718 Mdot
.7686 .19771 Mdot
.76908 .20165 Mdot
.76955 .20737 Mdot
.77003 .21215 Mdot
.77051 .21772 Mdot
.77098 .21874 Mdot
.77146 .22243 Mdot
.77194 .23401 Mdot
.77241 .23246 Mdot
.77289 .22134 Mdot
.77336 .21556 Mdot
.77384 .2054 Mdot
.77432 .19844 Mdot
.77479 .19873 Mdot
.77527 .19841 Mdot
.77574 .18736 Mdot
.77622 .18149 Mdot
.7767 .17691 Mdot
.77717 .16795 Mdot
.77765 .15526 Mdot
.77812 .14568 Mdot
.7786 .14007 Mdot
.77908 .14418 Mdot
.77955 .13657 Mdot
.78003 .13609 Mdot
.78051 .12807 Mdot
.78098 .11695 Mdot
.78146 .09502 Mdot
.78208 .08747 Mdot
.78236 .09305 Mdot
.78289 .1076 Mdot
.78336 .13823 Mdot
.78384 .1735 Mdot
.78431 .19864 Mdot
.78479 .21678 Mdot
.78527 .22704 Mdot
.78574 .23742 Mdot
.78622 .23352 Mdot
.7867 .23065 Mdot
.78717 .22532 Mdot
.78765 .22882 Mdot
.78812 .22313 Mdot
.7886 .22238 Mdot
.78908 .22263 Mdot
.78955 .21775 Mdot
.79003 .21683 Mdot
.7905 .21748 Mdot
.79098 .23066 Mdot
.79146 .22994 Mdot
.79193 .23984 Mdot
.79241 .25587 Mdot
.79288 .27891 Mdot
.79336 .3007 Mdot
.79384 .32011 Mdot
.79431 .33599 Mdot
.79479 .33904 Mdot
.79527 .34046 Mdot
.79574 .34921 Mdot
.79622 .34994 Mdot
.79669 .33178 Mdot
.79717 .30684 Mdot
.79765 .29897 Mdot
.79812 .28403 Mdot
.7986 .25829 Mdot
.79907 .24469 Mdot
.79955 .23383 Mdot
.80003 .22515 Mdot
.8005 .21097 Mdot
.80098 .18877 Mdot
.80145 .17954 Mdot
.80193 .18274 Mdot
.80241 .17796 Mdot
.80288 .16845 Mdot
.80336 .14384 Mdot
.80384 .1265 Mdot
.80431 .11986 Mdot
.80479 .11657 Mdot
.80526 .13132 Mdot
.80574 .13262 Mdot
.80622 .1266 Mdot
.80669 .11861 Mdot
.80717 .11343 Mdot
.80764 .11034 Mdot
.80812 .11711 Mdot
.8086 .12471 Mdot
.80907 .13644 Mdot
.80955 .14757 Mdot
.81002 .15784 Mdot
.8105 .17416 Mdot
.81098 .18851 Mdot
.81145 .17067 Mdot
.81193 .1464 Mdot
.81241 .13982 Mdot
.81288 .14475 Mdot
.81336 .15706 Mdot
.81383 .17989 Mdot
.81431 .20777 Mdot
.81479 .23672 Mdot
.81526 .25878 Mdot
.81574 .28454 Mdot
.81621 .30077 Mdot
.81669 .31261 Mdot
.81717 .31587 Mdot
.81764 .32364 Mdot
.81812 .32847 Mdot
.8186 .33064 Mdot
.81907 .33962 Mdot
.81955 .34571 Mdot
.82002 .36026 Mdot
.8205 .36316 Mdot
.82098 .36932 Mdot
.82145 .37219 Mdot
.82193 .37768 Mdot
.8224 .38599 Mdot
.82288 .38722 Mdot
.82336 .37485 Mdot
.82383 .35517 Mdot
.82431 .32207 Mdot
.82478 .27901 Mdot
.82526 .22619 Mdot
.82574 .18395 Mdot
.82621 .15664 Mdot
.82669 .12762 Mdot
.82717 .10782 Mdot
.82764 .09146 Mdot
.82812 .0723 Mdot
.82859 .05318 Mdot
.82907 .04703 Mdot
.82955 .04372 Mdot
.83002 .05608 Mdot
.8305 .06309 Mdot
.83097 .07508 Mdot
.83145 .08482 Mdot
.83193 .09696 Mdot
.8324 .10727 Mdot
.83288 .11612 Mdot
.83335 .12274 Mdot
.83383 .12038 Mdot
.83431 .11767 Mdot
.83478 .12572 Mdot
.83526 .13194 Mdot
.83574 .13616 Mdot
.83621 .14039 Mdot
.83669 .14194 Mdot
.83716 .1493 Mdot
.83764 .15544 Mdot
.83812 .15492 Mdot
.83859 .1521 Mdot
.83926 .14685 Mdot
.83954 .1415 Mdot
.84002 .14287 Mdot
.8405 .14264 Mdot
.84097 .14183 Mdot
.84145 .13321 Mdot
.84192 .12649 Mdot
.8424 .12482 Mdot
.84288 .11877 Mdot
.84335 .11741 Mdot
.84383 .12135 Mdot
.84431 .12986 Mdot
.84478 .14018 Mdot
.84526 .15072 Mdot
.84573 .16135 Mdot
.84621 .16086 Mdot
.84669 .15759 Mdot
.84716 .1491 Mdot
.84764 .14444 Mdot
.84811 .14935 Mdot
.84859 .14425 Mdot
.84907 .14701 Mdot
.84954 .14566 Mdot
.85002 .14512 Mdot
.8505 .1484 Mdot
.85097 .15215 Mdot
.85145 .14707 Mdot
.85192 .13787 Mdot
.8524 .12506 Mdot
.85288 .11923 Mdot
.85335 .11315 Mdot
.85383 .11078 Mdot
.8543 .11171 Mdot
.85478 .11217 Mdot
.85526 .11855 Mdot
.85573 .12338 Mdot
.85621 .12365 Mdot
.85668 .11909 Mdot
.85716 .12444 Mdot
.85764 .1259 Mdot
.85811 .1173 Mdot
.85859 .11134 Mdot
.85907 .10827 Mdot
.85954 .10373 Mdot
.86002 .08834 Mdot
.86049 .07897 Mdot
.86097 .07051 Mdot
.86145 .05896 Mdot
.86192 .0558 Mdot
.8624 .06394 Mdot
.86287 .07576 Mdot
.86335 .08836 Mdot
.86383 .10471 Mdot
.8643 .11213 Mdot
.86478 .11366 Mdot
.86525 .11139 Mdot
.86573 .10821 Mdot
.86621 .10094 Mdot
.86668 .09635 Mdot
.86716 .10048 Mdot
.86764 .10332 Mdot
.86811 .09977 Mdot
.86859 .09955 Mdot
.86906 .10871 Mdot
.86954 .11636 Mdot
.87002 .11364 Mdot
.87049 .11211 Mdot
.87097 .11437 Mdot
.87144 .10869 Mdot
.87192 .08937 Mdot
.8724 .07377 Mdot
.87287 .06886 Mdot
.87335 .08199 Mdot
.87382 .115 Mdot
.8743 .14964 Mdot
.87478 .19702 Mdot
.87525 .23341 Mdot
.87573 .26838 Mdot
.87621 .29112 Mdot
.87668 .32365 Mdot
.87716 .36407 Mdot
.87763 .39182 Mdot
.87811 .40784 Mdot
.87859 .4336 Mdot
.87906 .4481 Mdot
.87954 .45602 Mdot
.88001 .46109 Mdot
.88049 .46301 Mdot
.88097 .47232 Mdot
.88144 .47223 Mdot
.88192 .46235 Mdot
.8824 .44848 Mdot
.88287 .44327 Mdot
.88335 .43269 Mdot
.88382 .41482 Mdot
.8843 .38234 Mdot
.88478 .34223 Mdot
.88525 .30416 Mdot
.88573 .27668 Mdot
.8862 .26141 Mdot
.88668 .24004 Mdot
.88716 .21253 Mdot
.88763 .18575 Mdot
.88811 .1404 Mdot
.88858 .10114 Mdot
.88906 .07134 Mdot
.88954 .05129 Mdot
.89006 .06414 Mdot
.89049 .06558 Mdot
.89097 .07143 Mdot
.89149 .07163 Mdot
.89192 .07494 Mdot
.89244 .06845 Mdot
.89292 .06052 Mdot
.89335 .05527 Mdot
.89382 .05368 Mdot
.89435 .0416 Mdot
.89477 .04435 Mdot
.89525 .0499 Mdot
.89577 .05819 Mdot
.8962 .06565 Mdot
.89687 .06159 Mdot
.89715 .05936 Mdot
.89768 .05655 Mdot
.89811 .05703 Mdot
.89858 .06187 Mdot
.89906 .07545 Mdot
.89954 .09264 Mdot
.90001 .11979 Mdot
.90049 .13493 Mdot
.90096 .1441 Mdot
.90144 .15236 Mdot
.90192 .16148 Mdot
.90239 .15808 Mdot
.90287 .17372 Mdot
.90334 .19546 Mdot
.90382 .21373 Mdot
.9043 .22722 Mdot
.90477 .23352 Mdot
.90525 .24245 Mdot
.90577 .24378 Mdot
.9062 .25397 Mdot
.90668 .25892 Mdot
.9072 .26682 Mdot
.90763 .26022 Mdot
.90811 .2537 Mdot
.90858 .23911 Mdot
.90906 .21806 Mdot
.90953 .19888 Mdot
.91001 .17675 Mdot
.91049 .15019 Mdot
.91096 .1312 Mdot
.91144 .12497 Mdot
.91191 .12331 Mdot
.91239 .11873 Mdot
.91287 .12127 Mdot
.91334 .12617 Mdot
.91382 .1291 Mdot
.91429 .14359 Mdot
.91477 .14208 Mdot
.91525 .13756 Mdot
.91572 .14816 Mdot
.9162 .15693 Mdot
.91668 .15697 Mdot
.91715 .15334 Mdot
.91763 .15602 Mdot
.9181 .16232 Mdot
.91858 .16786 Mdot
.91906 .18583 Mdot
.91953 .22093 Mdot
.92001 .2566 Mdot
.92048 .27284 Mdot
.92096 .29467 Mdot
.92144 .30179 Mdot
.92191 .30817 Mdot
.92239 .31045 Mdot
.92287 .3046 Mdot
.92334 .30679 Mdot
.92382 .30597 Mdot
.92429 .31111 Mdot
.92477 .31533 Mdot
.92525 .31819 Mdot
.92572 .33304 Mdot
.9262 .33668 Mdot
.92667 .32764 Mdot
.92715 .33438 Mdot
.92763 .3352 Mdot
.9281 .32011 Mdot
.92863 .3075 Mdot
.92905 .2963 Mdot
.92953 .28618 Mdot
.93005 .27524 Mdot
.93048 .26301 Mdot
.93096 .26753 Mdot
.93144 .26689 Mdot
.93191 .26358 Mdot
.93239 .2699 Mdot
.93286 .28335 Mdot
.93334 .29349 Mdot
.93382 .3076 Mdot
.93429 .32769 Mdot
.93477 .32442 Mdot
.93524 .31068 Mdot
.93577 .31109 Mdot
.9362 .31395 Mdot
.93667 .29929 Mdot
.9372 .28329 Mdot
.93762 .27904 Mdot
.9381 .28568 Mdot
.93862 .28564 Mdot
.93905 .26815 Mdot
.93953 .25198 Mdot
.94005 .24522 Mdot
.94048 .23013 Mdot
.94096 .23011 Mdot
.94143 .23312 Mdot
.94191 .21683 Mdot
.94239 .20168 Mdot
.94286 .20044 Mdot
.94334 .19568 Mdot
.94381 .21267 Mdot
.94434 .22936 Mdot
.94477 .26364 Mdot
.94524 .29044 Mdot
.94577 .30733 Mdot
.94619 .31704 Mdot
.94672 .32718 Mdot
.94719 .34324 Mdot
.94762 .35359 Mdot
.94815 .36018 Mdot
.94862 .36194 Mdot
.94905 .35461 Mdot
.94958 .3452 Mdot
.95005 .33663 Mdot
.95048 .32662 Mdot
.951 .31422 Mdot
.95148 .30714 Mdot
.95191 .30967 Mdot
.95243 .30811 Mdot
.95291 .30758 Mdot
.95334 .31669 Mdot
.95386 .32087 Mdot
.95453 .32581 Mdot
.95477 .32866 Mdot
.95529 .32264 Mdot
.95576 .3327 Mdot
.95619 .33404 Mdot
.95672 .33545 Mdot
.95719 .33286 Mdot
.95762 .31931 Mdot
.95815 .30921 Mdot
.95862 .30546 Mdot
.95905 .29439 Mdot
.95957 .27988 Mdot
.96005 .27046 Mdot
.96048 .25355 Mdot
.961 .24475 Mdot
.96148 .22315 Mdot
.96191 .19555 Mdot
.96243 .17656 Mdot
.96291 .15817 Mdot
.96334 .1598 Mdot
.96386 .15699 Mdot
.96434 .1571 Mdot
.96476 .15594 Mdot
.96529 .16204 Mdot
.96576 .16645 Mdot
.96619 .16643 Mdot
.96667 .16371 Mdot
.96719 .14582 Mdot
.96762 .13327 Mdot
.9681 .11509 Mdot
.96862 .11075 Mdot
.96905 .11005 Mdot
.96952 .10108 Mdot
.97005 .10115 Mdot
.97048 .11156 Mdot
.97095 .12623 Mdot
.97148 .12751 Mdot
.97191 .13643 Mdot
.97238 .15261 Mdot
.97291 .15518 Mdot
.97333 .16246 Mdot
.97381 .16755 Mdot
.97433 .17444 Mdot
.97476 .18331 Mdot
.97529 .18987 Mdot
.97576 .1874 Mdot
.97619 .18989 Mdot
.5 g
.5 Mabswid
.02381 .12382 m
.02429 .12235 L
.02476 .11928 L
.02524 .12427 L
.02571 .13166 L
.02619 .13813 L
.02667 .14649 L
.02714 .15834 L
.02762 .16619 L
.02809 .17331 L
.02857 .16385 L
.02905 .15558 L
.02952 .16484 L
.03 .17565 L
.03048 .1779 L
.03095 .17473 L
.03143 .16643 L
.0319 .14852 L
.03238 .124 L
.03286 .11382 L
.03333 .10227 L
.03381 .09798 L
.03428 .09274 L
.03476 .1009 L
.03524 .10584 L
.0359 .10706 L
.03619 .10545 L
.03666 .1041 L
.03714 .09903 L
.03762 .10722 L
.03809 .11932 L
.03857 .11639 L
.03905 .12117 L
.03952 .13753 L
.04 .17172 L
.04047 .18946 L
.04095 .20221 L
.04143 .2135 L
.0419 .2232 L
.04238 .21671 L
.04285 .20051 L
.04333 .18251 L
.04381 .16392 L
.04428 .14929 L
.04476 .13489 L
.04523 .11519 L
.04571 .10646 L
.04619 .11264 L
.04666 .10343 L
.04714 .09301 L
Mistroke
.04762 .07172 L
.04809 .05358 L
.04857 .05536 L
.04904 .06263 L
.04952 .06174 L
.05 .05425 L
.05047 .04742 L
.05095 .04184 L
.05142 .03969 L
.0519 .03871 L
.05238 .03795 L
.05285 .03981 L
.05333 .05174 L
.05381 .06254 L
.05428 .07094 L
.05476 .08885 L
.05523 .10248 L
.05571 .11236 L
.05619 .12224 L
.05666 .13544 L
.05714 .15917 L
.05761 .18522 L
.05809 .22385 L
.05857 .25555 L
.05904 .27537 L
.05952 .29105 L
.05999 .30707 L
.06047 .306 L
.06095 .29621 L
.06142 .2802 L
.0619 .25721 L
.06238 .23499 L
.06285 .22876 L
.06333 .22292 L
.0638 .2124 L
.06428 .20583 L
.06476 .20258 L
.06523 .19718 L
.06571 .1974 L
.06618 .20145 L
.06666 .18879 L
.06714 .17485 L
.06761 .16299 L
.06809 .15048 L
.06856 .13467 L
.06904 .1183 L
.06952 .10702 L
.06999 .10452 L
.07047 .11191 L
.07095 .12833 L
Mistroke
.07142 .14168 L
.0719 .13467 L
.07237 .1331 L
.07285 .13462 L
.07333 .15139 L
.0738 .17677 L
.07428 .18938 L
.07475 .18537 L
.07523 .19298 L
.07571 .19389 L
.07618 .19379 L
.07666 .19467 L
.07713 .19216 L
.07761 .20197 L
.07809 .21454 L
.07856 .2234 L
.07904 .24021 L
.07952 .24377 L
.07999 .2447 L
.08047 .25939 L
.08094 .24379 L
.08142 .22146 L
.0819 .19337 L
.08237 .18445 L
.08285 .16639 L
.08332 .14568 L
.0838 .1318 L
.08428 .128 L
.08475 .11809 L
.08523 .11519 L
.08571 .11497 L
.08618 .11219 L
.08666 .11513 L
.08713 .11986 L
.08761 .129 L
.08809 .12793 L
.08856 .12509 L
.08904 .13357 L
.08951 .13434 L
.08999 .14255 L
.09047 .14479 L
.09094 .15167 L
.09142 .1497 L
.09189 .15326 L
.09237 .16874 L
.09285 .17745 L
.09351 .18662 L
.0938 .19067 L
.09428 .19682 L
.09475 .1992 L
Mistroke
.09523 .19452 L
.0957 .19811 L
.09618 .2078 L
.09666 .2206 L
.09713 .22632 L
.09761 .23241 L
.09808 .23772 L
.09856 .23446 L
.09904 .21628 L
.09951 .19919 L
.09999 .18818 L
.10046 .1854 L
.10094 .18271 L
.10142 .17829 L
.10189 .16381 L
.10237 .15514 L
.10285 .13483 L
.10332 .13396 L
.1038 .13324 L
.10427 .12795 L
.10475 .11386 L
.10523 .10328 L
.1057 .10916 L
.10618 .10773 L
.10665 .10036 L
.10713 .0929 L
.10761 .0902 L
.10808 .08953 L
.10856 .08209 L
.10903 .07598 L
.10951 .0731 L
.10999 .07713 L
.11046 .07412 L
.11094 .06213 L
.11142 .07021 L
.11189 .08212 L
.11237 .08374 L
.11284 .08958 L
.11332 .09603 L
.1138 .10028 L
.11427 .10543 L
.11475 .11268 L
.11522 .12968 L
.1157 .13375 L
.11618 .14073 L
.11665 .14797 L
.11713 .15586 L
.1176 .14607 L
.11808 .13299 L
.11856 .12849 L
Mistroke
.11903 .12615 L
.11951 .13272 L
.11999 .14412 L
.12046 .15433 L
.12094 .16415 L
.12141 .1663 L
.12189 .16328 L
.12237 .16851 L
.12284 .17297 L
.12332 .16879 L
.12379 .15933 L
.12427 .15157 L
.12475 .13846 L
.12522 .13493 L
.1257 .13612 L
.12618 .14032 L
.12665 .13493 L
.12713 .13008 L
.1276 .13057 L
.12808 .1302 L
.12856 .13049 L
.12903 .13425 L
.12951 .13933 L
.12998 .14309 L
.13046 .1401 L
.13094 .13726 L
.13141 .1377 L
.13189 .14676 L
.13236 .15885 L
.13284 .17162 L
.13332 .18495 L
.13379 .18327 L
.13427 .18314 L
.13475 .18244 L
.13522 .17695 L
.1357 .1727 L
.13617 .15946 L
.13665 .14416 L
.13713 .13606 L
.1376 .13944 L
.13808 .13053 L
.13855 .12866 L
.13903 .13447 L
.13951 .12825 L
.13998 .11616 L
.14046 .11993 L
.14093 .1153 L
.14141 .10971 L
.14189 .10802 L
.14236 .11176 L
Mistroke
.14284 .10492 L
.14332 .10768 L
.14379 .09528 L
.14427 .09062 L
.14474 .09674 L
.14522 .09344 L
.1457 .08152 L
.14617 .0728 L
.14665 .06527 L
.14712 .06784 L
.1476 .0651 L
.14808 .06934 L
.14855 .07428 L
.14903 .09187 L
.1495 .10805 L
.14998 .12445 L
.15046 .13244 L
.15112 .14091 L
.15141 .14816 L
.15189 .15113 L
.15236 .14798 L
.15284 .14825 L
.15331 .15576 L
.15379 .15734 L
.15427 .16755 L
.15474 .16812 L
.15522 .1734 L
.15569 .16878 L
.15617 .16414 L
.15665 .14744 L
.15712 .12785 L
.1576 .10921 L
.15808 .10189 L
.15855 .0856 L
.15903 .09863 L
.1595 .10225 L
.15998 .09151 L
.16046 .08303 L
.16093 .08079 L
.16141 .07695 L
.16188 .08251 L
.16236 .0828 L
.16284 .08536 L
.16331 .07968 L
.16379 .06572 L
.16426 .05306 L
.16474 .08693 L
.16522 .11744 L
.16569 .14288 L
.16617 .16969 L
Mistroke
.16665 .18804 L
.16712 .20029 L
.1676 .21737 L
.16807 .22832 L
.16855 .24466 L
.16903 .25695 L
.1695 .26975 L
.16998 .28093 L
.17045 .27756 L
.17093 .27482 L
.17141 .28671 L
.17188 .28964 L
.17236 .29164 L
.17283 .28017 L
.17331 .27324 L
.17379 .25926 L
.17426 .25123 L
.17474 .2403 L
.17522 .2333 L
.17569 .21034 L
.17617 .19544 L
.17664 .19375 L
.17712 .19911 L
.1776 .20146 L
.17807 .20654 L
.17855 .21701 L
.17902 .23087 L
.1795 .23701 L
.17998 .23877 L
.18045 .26113 L
.18093 .27884 L
.1814 .29257 L
.18188 .28178 L
.18236 .26822 L
.18283 .24868 L
.18331 .2298 L
.18379 .20933 L
.18426 .19035 L
.18479 .17492 L
.18521 .15942 L
.18569 .13505 L
.18617 .10536 L
.18664 .10016 L
.18717 .1154 L
.18759 .12871 L
.18812 .14743 L
.18855 .15621 L
.18902 .16415 L
.1895 .175 L
.19002 .20639 L
Mistroke
.19045 .23532 L
.19097 .26117 L
.1914 .27209 L
.19193 .29459 L
.19236 .30687 L
.19288 .33034 L
.19336 .33568 L
.19383 .25109 L
.19431 .18882 L
.19478 .16837 L
.19526 .20441 L
.19574 .25544 L
.19621 .32091 L
.19669 .37774 L
.19716 .43545 L
.19764 .47874 L
.19812 .52399 L
.19859 .55988 L
.19907 .5867 L
.19955 .60332 L
.20002 .59587 L
.2005 .58395 L
.20097 .57224 L
.20145 .56121 L
.20193 .54454 L
.2024 .52263 L
.20288 .50043 L
.20335 .48152 L
.20383 .46092 L
.20431 .43583 L
.20478 .4107 L
.20526 .38924 L
.20573 .37254 L
.20621 .35395 L
.20669 .36376 L
.20716 .36108 L
.20764 .35918 L
.20826 .33365 L
.20854 .30873 L
.20907 .29694 L
.20954 .28836 L
.21002 .27437 L
.2105 .26756 L
.21097 .26846 L
.21145 .26553 L
.21192 .26586 L
.2124 .26908 L
.21288 .2793 L
.21335 .28973 L
.21383 .29692 L
Mistroke
.2143 .29763 L
.21478 .29811 L
.21526 .2916 L
.21573 .28268 L
.21621 .28128 L
.21669 .28557 L
.21716 .28363 L
.21764 .27733 L
.21811 .28783 L
.21859 .30105 L
.21907 .29714 L
.21954 .2858 L
.22002 .27712 L
.22049 .27585 L
.22097 .28027 L
.22145 .27377 L
.22192 .26858 L
.2224 .25735 L
.22287 .24403 L
.22335 .23366 L
.22383 .21615 L
.2243 .18839 L
.22478 .18173 L
.22526 .15586 L
.22573 .14092 L
.22621 .12183 L
.22668 .10744 L
.22716 .10489 L
.22764 .11198 L
.22811 .12514 L
.22859 .14039 L
.22906 .15096 L
.22954 .16418 L
.23002 .17789 L
.23049 .18766 L
.23097 .19097 L
.23145 .19568 L
.23192 .19289 L
.2324 .18395 L
.23287 .17946 L
.23335 .16675 L
.23383 .15931 L
.2343 .13946 L
.23478 .13255 L
.23525 .13304 L
.23573 .1318 L
.23621 .14023 L
.23668 .15401 L
.23716 .16403 L
.23763 .17715 L
Mistroke
.23811 .19279 L
.23859 .19189 L
.23906 .18138 L
.23954 .16203 L
.24002 .15104 L
.24049 .14112 L
.24097 .12783 L
.24144 .10973 L
.24192 .10295 L
.2424 .11077 L
.24287 .13437 L
.24335 .17109 L
.24382 .1921 L
.2443 .19568 L
.24478 .22559 L
.24525 .24892 L
.24573 .26511 L
.2462 .2824 L
.24668 .29088 L
.24716 .30485 L
.24763 .3216 L
.24811 .33687 L
.24859 .33127 L
.24906 .32057 L
.24954 .30306 L
.25001 .28643 L
.25049 .28073 L
.25097 .27444 L
.25144 .2471 L
.25192 .21604 L
.25239 .1904 L
.25287 .16597 L
.25335 .14247 L
.25382 .12229 L
.2543 .12835 L
.25477 .13195 L
.25525 .11175 L
.25573 .1072 L
.2562 .10425 L
.25668 .11265 L
.25716 .1029 L
.25763 .11492 L
.25811 .12291 L
.25858 .11993 L
.25906 .12325 L
.25954 .11965 L
.26001 .12719 L
.26049 .13478 L
.26096 .11631 L
.26144 .10469 L
Mistroke
.26192 .11432 L
.26239 .11772 L
.26287 .13349 L
.26335 .14358 L
.26382 .15405 L
.2643 .16721 L
.26477 .15488 L
.26539 .12689 L
.26573 .10979 L
.2662 .10957 L
.26668 .10087 L
.26715 .09711 L
.26763 .10101 L
.26811 .09838 L
.26858 .09659 L
.26906 .09662 L
.26953 .08302 L
.27001 .07648 L
.27049 .0848 L
.27096 .09917 L
.27144 .09828 L
.27192 .10481 L
.27239 .11209 L
.27287 .11978 L
.27334 .12205 L
.27382 .13338 L
.2743 .14259 L
.27477 .14305 L
.27525 .13292 L
.27572 .11869 L
.2762 .10539 L
.27668 .08535 L
.27715 .06234 L
.27763 .0511 L
.2781 .03586 L
.27863 .03648 L
.2791 .03935 L
.27958 .04691 L
.28006 .05411 L
.28053 .06137 L
.28101 .06302 L
.28149 .05782 L
.28196 .06285 L
.28244 .07407 L
.28291 .08174 L
.28339 .09408 L
.28387 .10612 L
.28429 .11934 L
.28482 .138 L
.28529 .14262 L
Mistroke
.28572 .14627 L
.28625 .14777 L
.28672 .15164 L
.2872 .159 L
.28763 .14822 L
.28815 .13793 L
.28863 .11904 L
.2891 .0993 L
.28958 .09075 L
.29006 .09026 L
.29053 .09969 L
.29101 .10304 L
.29148 .11557 L
.29196 .12888 L
.29244 .14152 L
.29291 .15588 L
.29339 .16083 L
.29386 .16067 L
.29434 .1614 L
.29482 .15594 L
.29529 .14902 L
.29577 .13966 L
.29624 .1393 L
.29672 .14731 L
.2972 .15333 L
.29767 .15904 L
.2981 .14731 L
.29863 .13188 L
.29905 .12493 L
.29958 .09983 L
.30001 .09001 L
.30048 .08358 L
.30101 .08065 L
.30143 .07625 L
.30196 .07546 L
.30243 .0886 L
.30291 .0881 L
.30339 .09618 L
.30386 .1034 L
.30434 .11767 L
.30481 .13241 L
.30529 .14921 L
.30577 .16279 L
.30624 .1802 L
.30672 .17557 L
.3072 .18273 L
.30767 .16564 L
.30815 .15217 L
.30862 .14071 L
.3091 .13134 L
Mistroke
.30958 .11997 L
.31005 .11092 L
.31053 .10262 L
.311 .08845 L
.31148 .08676 L
.31196 .08257 L
.31243 .08153 L
.31291 .07837 L
.31339 .07684 L
.31386 .07411 L
.31434 .07353 L
.31481 .08403 L
.31529 .08854 L
.31577 .08741 L
.31624 .08853 L
.31672 .08215 L
.31719 .08172 L
.31767 .07926 L
.31815 .07279 L
.31862 .06699 L
.3191 .05091 L
.31957 .04316 L
.32005 .04905 L
.32053 .05165 L
.321 .05273 L
.32148 .06102 L
.32191 .07046 L
.32257 .07017 L
.32286 .07009 L
.32338 .0818 L
.32386 .08263 L
.32434 .08132 L
.32481 .07055 L
.32529 .06974 L
.32576 .07222 L
.32624 .08056 L
.32672 .09407 L
.32719 .11 L
.32767 .12389 L
.32814 .13036 L
.32862 .14071 L
.3291 .1551 L
.32957 .16055 L
.33005 .15385 L
.33053 .14495 L
.331 .13481 L
.33148 .1332 L
.33195 .12946 L
.33243 .12923 L
.33291 .11991 L
Mistroke
.33338 .10707 L
.33386 .1035 L
.33433 .09197 L
.33481 .07684 L
.33529 .06509 L
.33576 .05301 L
.33624 .05666 L
.33671 .05904 L
.33719 .05052 L
.33767 .05177 L
.33814 .05053 L
.33862 .04561 L
.3391 .03148 L
.33957 .06099 L
.34005 .09196 L
.34052 .1081 L
.341 .12391 L
.34148 .13399 L
.34195 .1455 L
.34243 .13526 L
.3429 .12326 L
.34338 .11687 L
.34386 .11602 L
.34433 .1136 L
.34481 .11504 L
.34529 .1302 L
.34576 .14466 L
.34624 .16521 L
.34671 .18259 L
.34719 .2048 L
.34767 .22511 L
.34814 .24021 L
.34862 .2499 L
.34909 .24858 L
.34957 .25094 L
.35005 .25946 L
.35052 .27133 L
.351 .2795 L
.35147 .30451 L
.35195 .31959 L
.35243 .3209 L
.3529 .33035 L
.35338 .33516 L
.35386 .34475 L
.35433 .35029 L
.35481 .34434 L
.35528 .33466 L
.35576 .31764 L
.35624 .31962 L
.35671 .32463 L
Mistroke
.35719 .32769 L
.35766 .32149 L
.35814 .31076 L
.35862 .30526 L
.35909 .3106 L
.35957 .30837 L
.36004 .30322 L
.36052 .30306 L
.361 .29971 L
.36147 .29354 L
.36195 .29224 L
.36243 .28929 L
.3629 .2917 L
.36338 .29035 L
.36385 .28526 L
.36433 .27786 L
.36481 .26851 L
.36528 .25395 L
.36576 .24662 L
.36623 .23115 L
.36671 .21437 L
.36719 .20445 L
.36766 .17779 L
.36814 .14503 L
.36861 .11913 L
.36909 .07861 L
.36957 .0619 L
.37004 .06205 L
.37052 .05455 L
.371 .0433 L
.37147 .05599 L
.37195 .08403 L
.37242 .11187 L
.3729 .12921 L
.37338 .13358 L
.37385 .14882 L
.37433 .16288 L
.3748 .177 L
.37528 .17793 L
.37576 .15806 L
.37623 .14389 L
.37671 .12958 L
.37719 .11936 L
.37766 .10842 L
.37814 .10388 L
.37861 .1031 L
.37909 .10934 L
.37957 .11856 L
.38018 .11633 L
.38047 .12112 L
Mistroke
.38099 .12387 L
.38147 .1286 L
.38195 .12428 L
.38242 .12022 L
.3829 .10487 L
.38337 .09573 L
.38385 .0814 L
.38433 .07336 L
.3848 .06021 L
.38528 .03237 L
.38576 .04106 L
.38623 .07015 L
.38671 .08752 L
.38718 .10687 L
.38766 .13271 L
.38814 .15482 L
.38861 .17212 L
.38909 .18344 L
.38956 .20041 L
.39004 .2166 L
.39052 .22525 L
.39099 .22897 L
.39147 .23642 L
.39194 .24436 L
.39242 .2558 L
.3929 .26931 L
.39337 .28544 L
.39385 .28055 L
.39433 .27505 L
.3948 .26391 L
.39528 .26042 L
.39575 .24643 L
.39623 .24782 L
.39671 .24464 L
.39718 .24205 L
.39766 .23407 L
.39813 .22827 L
.39861 .22514 L
.39909 .22531 L
.39956 .22397 L
.40004 .22231 L
.40051 .23557 L
.40099 .24251 L
.40147 .25468 L
.40194 .26486 L
.40242 .28788 L
.4029 .30815 L
.40337 .31336 L
.40385 .32615 L
.40432 .34221 L
Mistroke
.4048 .34557 L
.40528 .3453 L
.40575 .33882 L
.40623 .32927 L
.4067 .32349 L
.40718 .31334 L
.40766 .30909 L
.40813 .30001 L
.40861 .29795 L
.40909 .29274 L
.40956 .27406 L
.41004 .25553 L
.41051 .23918 L
.41099 .23337 L
.41147 .2148 L
.41194 .19505 L
.41242 .17907 L
.41289 .17539 L
.41337 .17035 L
.41385 .17468 L
.41432 .17723 L
.4148 .1699 L
.41527 .17396 L
.41575 .19227 L
.41623 .20075 L
.4167 .19473 L
.41718 .20307 L
.41766 .20693 L
.41813 .22221 L
.41861 .22872 L
.41908 .22699 L
.41956 .22023 L
.42004 .21512 L
.42051 .21838 L
.42099 .21886 L
.42146 .21864 L
.42194 .21564 L
.42242 .21186 L
.42289 .19836 L
.42337 .1828 L
.42384 .16898 L
.42432 .15694 L
.4248 .14291 L
.42527 .12158 L
.42575 .10859 L
.42623 .09901 L
.4267 .09061 L
.42718 .08527 L
.42765 .07893 L
.42813 .0784 L
Mistroke
.42861 .10066 L
.42908 .1528 L
.42956 .20209 L
.43003 .231 L
.43051 .25744 L
.43099 .27491 L
.43146 .26521 L
.43194 .23952 L
.43241 .2238 L
.43289 .20662 L
.43337 .18759 L
.43384 .15645 L
.43432 .11827 L
.4348 .10388 L
.43527 .11335 L
.43575 .13858 L
.43622 .13056 L
.4367 .1259 L
.43737 .13754 L
.43765 .14795 L
.43813 .16511 L
.4386 .18378 L
.43908 .20327 L
.43956 .22434 L
.44003 .23946 L
.44051 .25865 L
.44099 .26875 L
.44146 .28392 L
.44194 .29623 L
.44241 .30789 L
.44289 .30834 L
.44337 .31465 L
.44384 .31707 L
.44432 .31549 L
.44479 .32382 L
.44527 .33148 L
.44575 .3368 L
.44622 .33197 L
.4467 .32212 L
.44717 .30665 L
.44765 .28222 L
.44813 .2743 L
.4486 .25158 L
.44908 .2352 L
.44956 .23991 L
.45003 .24559 L
.45051 .24501 L
.45098 .24396 L
.45146 .23645 L
.45194 .21182 L
Mistroke
.45241 .18153 L
.45289 .15299 L
.45336 .12523 L
.45384 .1058 L
.45432 .09257 L
.45479 .07987 L
.45527 .07547 L
.45574 .07553 L
.45622 .09388 L
.4567 .10157 L
.45717 .10051 L
.45765 .10937 L
.45813 .12361 L
.4586 .15734 L
.45908 .16943 L
.45955 .17038 L
.46003 .16925 L
.46051 .18126 L
.46098 .18355 L
.46146 .18535 L
.46193 .17606 L
.46241 .16718 L
.46289 .15864 L
.46336 .15408 L
.46384 .15169 L
.46431 .15222 L
.46479 .14947 L
.46527 .14871 L
.46574 .15431 L
.46622 .15007 L
.4667 .15097 L
.46717 .14823 L
.46765 .14154 L
.46812 .14274 L
.4686 .1541 L
.46908 .15776 L
.46955 .15762 L
.47003 .1605 L
.4705 .16349 L
.47098 .17205 L
.47146 .17987 L
.47193 .19542 L
.47241 .20103 L
.47289 .20161 L
.47336 .193 L
.47384 .19626 L
.47431 .20346 L
.47479 .19982 L
.47527 .19568 L
.47574 .18673 L
Mistroke
.47622 .17565 L
.47669 .17173 L
.47717 .16558 L
.47765 .16716 L
.47812 .17145 L
.4786 .16985 L
.47907 .16555 L
.47955 .17567 L
.48003 .18492 L
.4805 .18937 L
.48098 .18743 L
.48146 .19321 L
.48193 .19288 L
.48241 .19803 L
.48288 .20556 L
.48336 .20243 L
.48384 .19847 L
.48431 .19121 L
.48479 .17982 L
.48526 .16335 L
.48574 .15737 L
.48622 .14976 L
.48669 .14365 L
.48717 .13463 L
.48764 .12596 L
.48812 .11567 L
.4886 .10932 L
.48907 .1061 L
.48955 .10109 L
.49003 .09707 L
.4905 .09836 L
.49098 .09246 L
.49145 .09565 L
.49193 .10053 L
.49241 .11226 L
.49288 .1153 L
.49336 .11976 L
.49383 .11605 L
.49431 .11589 L
.49498 .11994 L
.49526 .12266 L
.49574 .13609 L
.49621 .14224 L
.49669 .14532 L
.49717 .14403 L
.49764 .14262 L
.49812 .13644 L
.4986 .13799 L
.49907 .12867 L
.49955 .12321 L
Mistroke
.50002 .12133 L
.5005 .12568 L
.50098 .12031 L
.50145 .11424 L
.50193 .11147 L
.5024 .10548 L
.50288 .09444 L
.50336 .07852 L
.50383 .07037 L
.50431 .06531 L
.50478 .07221 L
.50526 .07726 L
.50574 .08303 L
.50621 .08003 L
.50669 .07992 L
.50717 .07692 L
.50764 .07502 L
.50812 .07971 L
.50859 .08515 L
.50907 .0953 L
.50955 .11104 L
.51002 .1337 L
.5105 .15086 L
.51097 .16337 L
.51145 .16629 L
.51193 .17656 L
.5124 .1881 L
.51288 .19426 L
.51336 .2141 L
.51383 .23331 L
.51431 .24558 L
.51478 .25399 L
.51526 .26048 L
.51574 .25631 L
.51621 .25183 L
.51669 .24206 L
.51716 .22965 L
.51764 .22164 L
.51812 .22036 L
.51859 .21892 L
.51907 .21232 L
.51954 .22105 L
.52002 .24181 L
.5205 .26727 L
.52097 .29155 L
.52145 .31245 L
.52193 .32144 L
.5224 .3227 L
.52288 .31632 L
.52335 .2981 L
Mistroke
.52383 .28025 L
.52431 .26694 L
.52478 .24998 L
.52526 .23445 L
.52573 .22842 L
.52621 .2261 L
.52669 .21682 L
.52716 .21424 L
.52764 .19651 L
.52811 .18321 L
.52859 .17866 L
.52907 .16048 L
.52954 .148 L
.53002 .13556 L
.5305 .12888 L
.53097 .14049 L
.53145 .13982 L
.53192 .13874 L
.5324 .12963 L
.53288 .1104 L
.53335 .09451 L
.53383 .06827 L
.5343 .06031 L
.53478 .05357 L
.53526 .05386 L
.53573 .05118 L
.53621 .06249 L
.53668 .07129 L
.53716 .06241 L
.53764 .06248 L
.53811 .0628 L
.53859 .06802 L
.53907 .07835 L
.53954 .0951 L
.54002 .09343 L
.54049 .07515 L
.54097 .05097 L
.54145 .03647 L
.54192 .06142 L
.5424 .09143 L
.54287 .12329 L
.54335 .15555 L
.54383 .19131 L
.5443 .22452 L
.54478 .25335 L
.54526 .27671 L
.54573 .30361 L
.54621 .3313 L
.54668 .35894 L
.54716 .37944 L
Mistroke
.54764 .39209 L
.54811 .39995 L
.54859 .39507 L
.54906 .3964 L
.54954 .39275 L
.55002 .39392 L
.55049 .40098 L
.55097 .38991 L
.55144 .3652 L
.55192 .33889 L
.55259 .30918 L
.55287 .28746 L
.55335 .26032 L
.55383 .25185 L
.5543 .26073 L
.55478 .26659 L
.55525 .25099 L
.55573 .24045 L
.55621 .2503 L
.55668 .25048 L
.55716 .24325 L
.55763 .24201 L
.55811 .22845 L
.55859 .21702 L
.55906 .19016 L
.55954 .16366 L
.56001 .15038 L
.56049 .14131 L
.56097 .14008 L
.56144 .149 L
.56192 .15436 L
.5624 .15751 L
.56287 .164 L
.56335 .15051 L
.56382 .14863 L
.5643 .15912 L
.56478 .15381 L
.56525 .1468 L
.56573 .15087 L
.5662 .1437 L
.56668 .14716 L
.56716 .14633 L
.56763 .15595 L
.56811 .17047 L
.56858 .17949 L
.56906 .19011 L
.56954 .18539 L
.57001 .1857 L
.57049 .18474 L
.57097 .17957 L
Mistroke
.57144 .17133 L
.57192 .15393 L
.57239 .13579 L
.57287 .11827 L
.57335 .11239 L
.57382 .11526 L
.5743 .12542 L
.57477 .13772 L
.57525 .15588 L
.57573 .17718 L
.5762 .19913 L
.57668 .22098 L
.57716 .23253 L
.57763 .2432 L
.57811 .23985 L
.57858 .24221 L
.57906 .23527 L
.57954 .23723 L
.58001 .23547 L
.58049 .22601 L
.58096 .23588 L
.58144 .24382 L
.58192 .24605 L
.58239 .2497 L
.58287 .25073 L
.58334 .24775 L
.58382 .24392 L
.5843 .24393 L
.58477 .24498 L
.58525 .2498 L
.58573 .26027 L
.5862 .26819 L
.58668 .27086 L
.58715 .27985 L
.58763 .29636 L
.58811 .29946 L
.58858 .30609 L
.58906 .31331 L
.58953 .32364 L
.59001 .33044 L
.59049 .33352 L
.59096 .33169 L
.59144 .31399 L
.59191 .30008 L
.59239 .29288 L
.59287 .28416 L
.59334 .26887 L
.59382 .25218 L
.5943 .22575 L
.59477 .20248 L
Mistroke
.59525 .18401 L
.59572 .18296 L
.5962 .18868 L
.59668 .18989 L
.59715 .18646 L
.59763 .17962 L
.5981 .17749 L
.59858 .19527 L
.59906 .20599 L
.59953 .2092 L
.60001 .20227 L
.60048 .19371 L
.60096 .18653 L
.60144 .19437 L
.60191 .1999 L
.60239 .2041 L
.60287 .21106 L
.60334 .22304 L
.60382 .2336 L
.60429 .22402 L
.60477 .21381 L
.60525 .20925 L
.60572 .20258 L
.6062 .21178 L
.60667 .20713 L
.60715 .19948 L
.60763 .182 L
.6081 .16062 L
.60858 .14294 L
.60906 .13211 L
.60972 .12769 L
.61001 .12262 L
.61048 .11868 L
.61101 .10759 L
.61144 .10149 L
.61191 .10485 L
.61239 .10394 L
.61286 .10397 L
.61334 .10301 L
.61382 .11426 L
.61429 .1234 L
.61477 .12727 L
.61524 .13311 L
.61572 .15215 L
.6162 .16744 L
.61667 .16771 L
.61715 .16025 L
.61763 .16204 L
.6181 .17011 L
.61858 .17701 L
Mistroke
.61905 .18371 L
.61953 .18387 L
.62001 .17797 L
.62048 .18206 L
.62096 .18208 L
.62143 .1793 L
.62191 .17931 L
.62239 .18468 L
.62286 .18446 L
.62334 .18433 L
.62381 .18706 L
.62429 .19854 L
.62477 .22032 L
.62524 .2417 L
.62572 .26584 L
.6262 .28008 L
.62667 .29343 L
.62715 .29833 L
.62762 .29854 L
.6281 .30552 L
.62858 .31326 L
.62905 .31647 L
.62953 .30969 L
.63 .30333 L
.63048 .29279 L
.63096 .29093 L
.63143 .28561 L
.63191 .2781 L
.63238 .27858 L
.63286 .2802 L
.63334 .28549 L
.63381 .28121 L
.63429 .27677 L
.63477 .26729 L
.63524 .26847 L
.63572 .25829 L
.63619 .26453 L
.63667 .26815 L
.63715 .2765 L
.63762 .28204 L
.6381 .28717 L
.63857 .28899 L
.63905 .2872 L
.63953 .29252 L
.64 .31104 L
.64048 .32378 L
.64096 .33187 L
.64143 .33752 L
.64191 .35378 L
.64238 .36584 L
Mistroke
.64286 .36854 L
.64334 .3644 L
.64381 .35718 L
.64429 .32547 L
.64476 .28475 L
.64524 .2488 L
.64576 .21183 L
.64619 .18545 L
.64667 .15389 L
.64719 .1292 L
.64762 .12493 L
.6481 .12466 L
.64862 .12402 L
.64905 .1262 L
.64957 .13309 L
.65 .13894 L
.65048 .14535 L
.65095 .15859 L
.65143 .16945 L
.65191 .1787 L
.65238 .18491 L
.65286 .20136 L
.65333 .1986 L
.65381 .18512 L
.65429 .1575 L
.65476 .12872 L
.65524 .11132 L
.65571 .08364 L
.65619 .0688 L
.65667 .06348 L
.65714 .06449 L
.65762 .07998 L
.6581 .09143 L
.65857 .10967 L
.65905 .12066 L
.65952 .14317 L
.66 .15976 L
.66048 .18445 L
.66095 .20147 L
.66143 .20945 L
.6619 .22919 L
.66238 .2531 L
.66286 .26835 L
.66333 .28298 L
.66381 .29211 L
.66428 .30513 L
.66476 .31535 L
.66524 .32471 L
.66571 .33699 L
.66619 .34562 L
Mistroke
.66667 .35768 L
.66733 .36735 L
.66762 .36757 L
.66809 .3614 L
.66857 .35557 L
.66905 .34077 L
.66952 .28791 L
.67 .2361 L
.67047 .18189 L
.671 .1343 L
.67147 .09499 L
.67195 .07346 L
.67243 .08191 L
.6729 .08696 L
.67338 .08324 L
.67385 .07626 L
.67433 .06947 L
.67481 .06454 L
.67528 .05878 L
.67576 .06814 L
.67624 .07418 L
.67671 .07072 L
.67719 .06407 L
.67766 .06675 L
.67814 .07685 L
.67862 .08065 L
.67909 .08252 L
.67957 .09015 L
.68004 .10022 L
.68052 .11002 L
.681 .12116 L
.68147 .13852 L
.68195 .16877 L
.68243 .18745 L
.6829 .20157 L
.68338 .21426 L
.68385 .2237 L
.68433 .22589 L
.68481 .24907 L
.68528 .26766 L
.68576 .27861 L
.68623 .23239 L
.68671 .19872 L
.68719 .1766 L
.68766 .14085 L
.68814 .12502 L
.68861 .11496 L
.68909 .11078 L
.68957 .10883 L
.69004 .10212 L
Mistroke
.69052 .09387 L
.691 .08682 L
.69147 .08326 L
.69195 .07861 L
.69238 .07873 L
.6929 .07906 L
.69338 .07633 L
.69385 .07434 L
.69433 .06849 L
.6948 .07115 L
.69528 .0782 L
.69576 .0946 L
.69623 .10661 L
.69671 .10401 L
.69718 .0881 L
.69766 .06832 L
.69814 .05938 L
.69861 .05324 L
.69909 .05456 L
.69957 .066 L
.70004 .08936 L
.70052 .11529 L
.70099 .13295 L
.70147 .13415 L
.70195 .13384 L
.70242 .14 L
.7029 .1423 L
.70337 .14367 L
.70385 .13779 L
.70433 .14093 L
.7048 .1494 L
.70528 .16221 L
.70575 .17117 L
.70623 .18523 L
.70671 .1875 L
.70718 .17798 L
.70766 .17008 L
.70814 .16553 L
.70861 .16111 L
.70909 .16903 L
.70956 .16605 L
.71004 .16301 L
.71052 .15827 L
.71099 .15546 L
.71147 .15356 L
.71194 .15387 L
.71242 .1527 L
.7129 .1566 L
.71337 .14634 L
.71385 .14491 L
Mistroke
.71432 .14196 L
.7148 .14298 L
.71528 .14209 L
.71575 .14149 L
.71623 .13416 L
.71671 .13099 L
.71718 .13277 L
.71766 .14568 L
.71813 .15252 L
.71861 .15838 L
.71909 .16092 L
.71956 .16495 L
.72004 .15461 L
.72051 .139 L
.72099 .12835 L
.72147 .11738 L
.72194 .11155 L
.72242 .09965 L
.7229 .09215 L
.72337 .0925 L
.72385 .08634 L
.72447 .08931 L
.72475 .09375 L
.72528 .09099 L
.72575 .08228 L
.72623 .07151 L
.7267 .05111 L
.72718 .0284 L
.72766 .03394 L
.72813 .03311 L
.72861 .03603 L
.72908 .02914 L
.72956 .04103 L
.73004 .0546 L
.73051 .06757 L
.73099 .07621 L
.73147 .07818 L
.73194 .07121 L
.73242 .06739 L
.73289 .06187 L
.73337 .05311 L
.73385 .05449 L
.73432 .05036 L
.7348 .05478 L
.73527 .06054 L
.73575 .05826 L
.73623 .06277 L
.7367 .06367 L
.73718 .06358 L
.73765 .06302 L
Mistroke
.73813 .06203 L
.73861 .06652 L
.73908 .07517 L
.73956 .07519 L
.74004 .08481 L
.74051 .07865 L
.74099 .08095 L
.74146 .08415 L
.74194 .08296 L
.74242 .08905 L
.74289 .08439 L
.74337 .08747 L
.74384 .08852 L
.74432 .09891 L
.7448 .10591 L
.74527 .12267 L
.74575 .13827 L
.74622 .15369 L
.7467 .17964 L
.74718 .19951 L
.74765 .20705 L
.74813 .22712 L
.74861 .25285 L
.74908 .28173 L
.74956 .30904 L
.75003 .3275 L
.75051 .32464 L
.75099 .30269 L
.75146 .27043 L
.75194 .23512 L
.75241 .19633 L
.75289 .15216 L
.75337 .1136 L
.75384 .09264 L
.75432 .0881 L
.7548 .09396 L
.75527 .10054 L
.75575 .10539 L
.75622 .1067 L
.7567 .10708 L
.75718 .11759 L
.75765 .12533 L
.75813 .1424 L
.7586 .15584 L
.75908 .17143 L
.75956 .18477 L
.76003 .20504 L
.76051 .22407 L
.76098 .22196 L
.76146 .22234 L
Mistroke
.76194 .21597 L
.76241 .21449 L
.76289 .20498 L
.76337 .20525 L
.76384 .2068 L
.76432 .20479 L
.76479 .2089 L
.76527 .20764 L
.76575 .20973 L
.76622 .20589 L
.7667 .19728 L
.76717 .19422 L
.76765 .19623 L
.76813 .19718 L
.7686 .19771 L
.76908 .20165 L
.76955 .20737 L
.77003 .21215 L
.77051 .21772 L
.77098 .21874 L
.77146 .22243 L
.77194 .23401 L
.77241 .23246 L
.77289 .22134 L
.77336 .21556 L
.77384 .2054 L
.77432 .19844 L
.77479 .19873 L
.77527 .19841 L
.77574 .18736 L
.77622 .18149 L
.7767 .17691 L
.77717 .16795 L
.77765 .15526 L
.77812 .14568 L
.7786 .14007 L
.77908 .14418 L
.77955 .13657 L
.78003 .13609 L
.78051 .12807 L
.78098 .11695 L
.78146 .09502 L
.78208 .08747 L
.78236 .09305 L
.78289 .1076 L
.78336 .13823 L
.78384 .1735 L
.78431 .19864 L
.78479 .21678 L
.78527 .22704 L
Mistroke
.78574 .23742 L
.78622 .23352 L
.7867 .23065 L
.78717 .22532 L
.78765 .22882 L
.78812 .22313 L
.7886 .22238 L
.78908 .22263 L
.78955 .21775 L
.79003 .21683 L
.7905 .21748 L
.79098 .23066 L
.79146 .22994 L
.79193 .23984 L
.79241 .25587 L
.79288 .27891 L
.79336 .3007 L
.79384 .32011 L
.79431 .33599 L
.79479 .33904 L
.79527 .34046 L
.79574 .34921 L
.79622 .34994 L
.79669 .33178 L
.79717 .30684 L
.79765 .29897 L
.79812 .28403 L
.7986 .25829 L
.79907 .24469 L
.79955 .23383 L
.80003 .22515 L
.8005 .21097 L
.80098 .18877 L
.80145 .17954 L
.80193 .18274 L
.80241 .17796 L
.80288 .16845 L
.80336 .14384 L
.80384 .1265 L
.80431 .11986 L
.80479 .11657 L
.80526 .13132 L
.80574 .13262 L
.80622 .1266 L
.80669 .11861 L
.80717 .11343 L
.80764 .11034 L
.80812 .11711 L
.8086 .12471 L
.80907 .13644 L
Mistroke
.80955 .14757 L
.81002 .15784 L
.8105 .17416 L
.81098 .18851 L
.81145 .17067 L
.81193 .1464 L
.81241 .13982 L
.81288 .14475 L
.81336 .15706 L
.81383 .17989 L
.81431 .20777 L
.81479 .23672 L
.81526 .25878 L
.81574 .28454 L
.81621 .30077 L
.81669 .31261 L
.81717 .31587 L
.81764 .32364 L
.81812 .32847 L
.8186 .33064 L
.81907 .33962 L
.81955 .34571 L
.82002 .36026 L
.8205 .36316 L
.82098 .36932 L
.82145 .37219 L
.82193 .37768 L
.8224 .38599 L
.82288 .38722 L
.82336 .37485 L
.82383 .35517 L
.82431 .32207 L
.82478 .27901 L
.82526 .22619 L
.82574 .18395 L
.82621 .15664 L
.82669 .12762 L
.82717 .10782 L
.82764 .09146 L
.82812 .0723 L
.82859 .05318 L
.82907 .04703 L
.82955 .04372 L
.83002 .05608 L
.8305 .06309 L
.83097 .07508 L
.83145 .08482 L
.83193 .09696 L
.8324 .10727 L
.83288 .11612 L
Mistroke
.83335 .12274 L
.83383 .12038 L
.83431 .11767 L
.83478 .12572 L
.83526 .13194 L
.83574 .13616 L
.83621 .14039 L
.83669 .14194 L
.83716 .1493 L
.83764 .15544 L
.83812 .15492 L
.83859 .1521 L
.83926 .14685 L
.83954 .1415 L
.84002 .14287 L
.8405 .14264 L
.84097 .14183 L
.84145 .13321 L
.84192 .12649 L
.8424 .12482 L
.84288 .11877 L
.84335 .11741 L
.84383 .12135 L
.84431 .12986 L
.84478 .14018 L
.84526 .15072 L
.84573 .16135 L
.84621 .16086 L
.84669 .15759 L
.84716 .1491 L
.84764 .14444 L
.84811 .14935 L
.84859 .14425 L
.84907 .14701 L
.84954 .14566 L
.85002 .14512 L
.8505 .1484 L
.85097 .15215 L
.85145 .14707 L
.85192 .13787 L
.8524 .12506 L
.85288 .11923 L
.85335 .11315 L
.85383 .11078 L
.8543 .11171 L
.85478 .11217 L
.85526 .11855 L
.85573 .12338 L
.85621 .12365 L
.85668 .11909 L
Mistroke
.85716 .12444 L
.85764 .1259 L
.85811 .1173 L
.85859 .11134 L
.85907 .10827 L
.85954 .10373 L
.86002 .08834 L
.86049 .07897 L
.86097 .07051 L
.86145 .05896 L
.86192 .0558 L
.8624 .06394 L
.86287 .07576 L
.86335 .08836 L
.86383 .10471 L
.8643 .11213 L
.86478 .11366 L
.86525 .11139 L
.86573 .10821 L
.86621 .10094 L
.86668 .09635 L
.86716 .10048 L
.86764 .10332 L
.86811 .09977 L
.86859 .09955 L
.86906 .10871 L
.86954 .11636 L
.87002 .11364 L
.87049 .11211 L
.87097 .11437 L
.87144 .10869 L
.87192 .08937 L
.8724 .07377 L
.87287 .06886 L
.87335 .08199 L
.87382 .115 L
.8743 .14964 L
.87478 .19702 L
.87525 .23341 L
.87573 .26838 L
.87621 .29112 L
.87668 .32365 L
.87716 .36407 L
.87763 .39182 L
.87811 .40784 L
.87859 .4336 L
.87906 .4481 L
.87954 .45602 L
.88001 .46109 L
.88049 .46301 L
Mistroke
.88097 .47232 L
.88144 .47223 L
.88192 .46235 L
.8824 .44848 L
.88287 .44327 L
.88335 .43269 L
.88382 .41482 L
.8843 .38234 L
.88478 .34223 L
.88525 .30416 L
.88573 .27668 L
.8862 .26141 L
.88668 .24004 L
.88716 .21253 L
.88763 .18575 L
.88811 .1404 L
.88858 .10114 L
.88906 .07134 L
.88954 .05129 L
.89006 .06414 L
.89049 .06558 L
.89097 .07143 L
.89149 .07163 L
.89192 .07494 L
.89244 .06845 L
.89292 .06052 L
.89335 .05527 L
.89382 .05368 L
.89435 .0416 L
.89477 .04435 L
.89525 .0499 L
.89577 .05819 L
.8962 .06565 L
.89687 .06159 L
.89715 .05936 L
.89768 .05655 L
.89811 .05703 L
.89858 .06187 L
.89906 .07545 L
.89954 .09264 L
.90001 .11979 L
.90049 .13493 L
.90096 .1441 L
.90144 .15236 L
.90192 .16148 L
.90239 .15808 L
.90287 .17372 L
.90334 .19546 L
.90382 .21373 L
.9043 .22722 L
Mistroke
.90477 .23352 L
.90525 .24245 L
.90577 .24378 L
.9062 .25397 L
.90668 .25892 L
.9072 .26682 L
.90763 .26022 L
.90811 .2537 L
.90858 .23911 L
.90906 .21806 L
.90953 .19888 L
.91001 .17675 L
.91049 .15019 L
.91096 .1312 L
.91144 .12497 L
.91191 .12331 L
.91239 .11873 L
.91287 .12127 L
.91334 .12617 L
.91382 .1291 L
.91429 .14359 L
.91477 .14208 L
.91525 .13756 L
.91572 .14816 L
.9162 .15693 L
.91668 .15697 L
.91715 .15334 L
.91763 .15602 L
.9181 .16232 L
.91858 .16786 L
.91906 .18583 L
.91953 .22093 L
.92001 .2566 L
.92048 .27284 L
.92096 .29467 L
.92144 .30179 L
.92191 .30817 L
.92239 .31045 L
.92287 .3046 L
.92334 .30679 L
.92382 .30597 L
.92429 .31111 L
.92477 .31533 L
.92525 .31819 L
.92572 .33304 L
.9262 .33668 L
.92667 .32764 L
.92715 .33438 L
.92763 .3352 L
.9281 .32011 L
Mistroke
.92863 .3075 L
.92905 .2963 L
.92953 .28618 L
.93005 .27524 L
.93048 .26301 L
.93096 .26753 L
.93144 .26689 L
.93191 .26358 L
.93239 .2699 L
.93286 .28335 L
.93334 .29349 L
.93382 .3076 L
.93429 .32769 L
.93477 .32442 L
.93524 .31068 L
.93577 .31109 L
.9362 .31395 L
.93667 .29929 L
.9372 .28329 L
.93762 .27904 L
.9381 .28568 L
.93862 .28564 L
.93905 .26815 L
.93953 .25198 L
.94005 .24522 L
.94048 .23013 L
.94096 .23011 L
.94143 .23312 L
.94191 .21683 L
.94239 .20168 L
.94286 .20044 L
.94334 .19568 L
.94381 .21267 L
.94434 .22936 L
.94477 .26364 L
.94524 .29044 L
.94577 .30733 L
.94619 .31704 L
.94672 .32718 L
.94719 .34324 L
.94762 .35359 L
.94815 .36018 L
.94862 .36194 L
.94905 .35461 L
.94958 .3452 L
.95005 .33663 L
.95048 .32662 L
.951 .31422 L
.95148 .30714 L
.95191 .30967 L
Mistroke
.95243 .30811 L
.95291 .30758 L
.95334 .31669 L
.95386 .32087 L
.95453 .32581 L
.95477 .32866 L
.95529 .32264 L
.95576 .3327 L
.95619 .33404 L
.95672 .33545 L
.95719 .33286 L
.95762 .31931 L
.95815 .30921 L
.95862 .30546 L
.95905 .29439 L
.95957 .27988 L
.96005 .27046 L
.96048 .25355 L
.961 .24475 L
.96148 .22315 L
.96191 .19555 L
.96243 .17656 L
.96291 .15817 L
.96334 .1598 L
.96386 .15699 L
.96434 .1571 L
.96476 .15594 L
.96529 .16204 L
.96576 .16645 L
.96619 .16643 L
.96667 .16371 L
.96719 .14582 L
.96762 .13327 L
.9681 .11509 L
.96862 .11075 L
.96905 .11005 L
.96952 .10108 L
.97005 .10115 L
.97048 .11156 L
.97095 .12623 L
.97148 .12751 L
.97191 .13643 L
.97238 .15261 L
.97291 .15518 L
.97333 .16246 L
.97381 .16755 L
.97433 .17444 L
.97476 .18331 L
.97529 .18987 L
.97576 .1874 L
Mistroke
.97619 .18989 L
Mfstroke
% End of Graphics
MathPictureEnd

%%PSTrailer
end
grestore


%%EPS Trailer

%%Trailer
%%EOF
